best on training set at iteration 0:  24.85	
best on training set at iteration 100:  25.15	
best on training set at iteration 200:  25.3	
best on training set at iteration 300:  26.2	
best on training set at iteration 400:  26.45	
best on training set at iteration 500:  26.65	
best on training set at iteration 600:  26.9	
best on training set at iteration 700:  27.15	
best on training set at iteration 800:  27.65	
best on training set at iteration 900:  28.1	
best on training set at iteration 1000:  28.4	
best on training set at iteration 1100:  30.5	
best on training set at iteration 1200:  31.25	
best on training set at iteration 1300:  31.25	
best on training set at iteration 1400:  31.35	
best on training set at iteration 1500:  31.65	
best on training set at iteration 1600:  31.75	
best on training set at iteration 1700:  31.8	
best on training set at iteration 1800:  32.05	
best on training set at iteration 1900:  32.4	
best on training set at iteration 2000:  32.8	
best on training set at iteration 2100:  32.85	
best on training set at iteration 2200:  33	
best on training set at iteration 2300:  33.2	
best on training set at iteration 2400:  33.8	
best on training set at iteration 2500:  34.55	
best on training set at iteration 2600:  34.85	
best on training set at iteration 2700:  35.3	
best on training set at iteration 2800:  35.55	
best on training set at iteration 2900:  35.95	
best on training set at iteration 3000:  36.15	
best on training set at iteration 3100:  36.75	
best on training set at iteration 3200:  36.9	
best on training set at iteration 3300:  37.25	
best on training set at iteration 3400:  37.7	
best on training set at iteration 3500:  38.15	
best on training set at iteration 3600:  38.85	
best on training set at iteration 3700:  39	
best on training set at iteration 3800:  39.2	
best on training set at iteration 3900:  39.65	
best on training set at iteration 4000:  39.95	
best on training set at iteration 4100:  40	
best on training set at iteration 4200:  40.65	
best on training set at iteration 4300:  40.95	
best on training set at iteration 4400:  41.05	
best on training set at iteration 4500:  41.25	
best on training set at iteration 4600:  42.1	
best on training set at iteration 4700:  42.7	
best on training set at iteration 4800:  43.35	
best on training set at iteration 4900:  43.45	
best on training set at iteration 5000:  43.8	
best on training set at iteration 5100:  43.9	
best on training set at iteration 5200:  44.5	
best on training set at iteration 5300:  44.75	
best on training set at iteration 5400:  44.95	
best on training set at iteration 5500:  45.3	
best on training set at iteration 5600:  45.5	
best on training set at iteration 5700:  46.15	
best on training set at iteration 5800:  46.35	
best on training set at iteration 5900:  46.4	
best on training set at iteration 6000:  46.65	
best on training set at iteration 6100:  46.75	
best on training set at iteration 6200:  46.95	
best on training set at iteration 6300:  47.2	
best on training set at iteration 6400:  49.65	
best on training set at iteration 6500:  49.75	
best on training set at iteration 6600:  49.85	
best on training set at iteration 6700:  50.15	
best on training set at iteration 6800:  50.5	
best on training set at iteration 6900:  50.6	
best on training set at iteration 7000:  50.9	
best on training set at iteration 7100:  51	
best on training set at iteration 7200:  51.3	
best on training set at iteration 7300:  51.45	
best on training set at iteration 7400:  51.7	
best on training set at iteration 7500:  51.95	
best on training set at iteration 7600:  52.4	
best on training set at iteration 7700:  52.7	
best on training set at iteration 7800:  52.7	
best on training set at iteration 7900:  52.8	
best on training set at iteration 8000:  53.15	
best on training set at iteration 8100:  53.45	
best on training set at iteration 8200:  54.3	
best on training set at iteration 8300:  54.95	
best on training set at iteration 8400:  55.1	
best on training set at iteration 8500:  55.35	
best on training set at iteration 8600:  55.35	
best on training set at iteration 8700:  55.55	
best on training set at iteration 8800:  55.7	
best on training set at iteration 8900:  55.85	
best on training set at iteration 9000:  56	
best on training set at iteration 9100:  56.6	
best on training set at iteration 9200:  57	
best on training set at iteration 9300:  57.2	
best on training set at iteration 9400:  57.35	
best on training set at iteration 9500:  57.6	
best on training set at iteration 9600:  57.7	
best on training set at iteration 9700:  57.75	
best on training set at iteration 9800:  57.85	
best on training set at iteration 9900:  58.1	

 5-[0  14]  50-[5  16]  20-[1  15]  29-[1  16]  49-[-0  14]  54-[1  5]  4-[3  15]  12-[7  15]  58-[2  15]  20-[1  8]  10-[9  16]  49-[-0  9]  30-[3  10]  27-[-0  9]  19-[-0  8]  18-[7  13]  50-[3  16]  24-[-0  2]  45-[3  13]  1-[-0  2]  8-[-0  11]  5-[0  11] -> 0
 34-[9  16]  15-[-0  4]  59-[6  14]  31-[-0  14]  22-[0  16]  39-[-0  4]  54-[-0  4]  48-[-0  8]  57-[-0  12]  47-[-0  4]  22-[0  5]  7-[-0  8]  28-[-0  9]  35-[-0  11]  22-[0  7]  6-[-0  6]  38-[2  16]  24-[-0  6]  46-[1  13]  24-[-0  2]  41-[-0  13]  40-[-0  3] -> 0
 51-[5  12]  19-[-0  13]  62-[-0  10]  61-[1  5]  48-[-0  8]  56-[-0  11]  46-[2  10]  39-[-0  11]  36-[-0  11]  58-[5  15]  3-[5  16]  62-[-0  15]  3-[14  16]  17-[1  7]  11-[9  16]  54-[-0  1]  22-[4  15]  43-[0  4]  47-[-0  13]  30-[4  14]  1-[-0  2]  48-[-0  7] -> 0
 47-[-0  11]  30-[6  11]  6-[-0  4]  15-[-0  3]  62-[-0  3]  48-[-0  15]  40-[-0  12]  32-[-0  10]  18-[6  16]  51-[2  11]  24-[-0  6]  28-[-0  13]  38-[3  16]  30-[2  16]  36-[-0  12]  39-[-0  15]  59-[9  16]  48-[-0  9]  24-[-0  10]  31-[-0  12]  16-[-0  9]  24-[-0  8] -> 0
 43-[-0  1]  16-[-0  4]  41-[2  11]  11-[4  16]  43-[-0  8]  37-[2  15]  40-[-0  1]  19-[0  10]  32-[-0  5]  57-[-0  7]  27-[-0  16]  1-[-0  9]  11-[8  16]  9-[-0  8]  38-[2  16]  23-[-0  15]  12-[4  12]  55-[-0  2]  51-[5  14]  4-[3  16]  37-[2  14]  40-[-0  15] -> 0
 30-[6  15]  59-[11  16]  29-[6  13]  25-[1  9]  1-[-0  16]  58-[1  15]  43-[-0  7]  29-[6  12]  19-[6  16]  55-[-0  16]  40-[-0  3]  25-[-0  11]  4-[2  16]  40-[-0  2]  26-[2  16]  16-[-0  12]  28-[-0  15]  12-[8  16]  42-[5  16]  52-[13  16]  19-[3  14]  58-[3  11] -> 0
 48-[-0  2]  21-[12  16]  2-[-0  16]  16-[-0  14]  59-[2  15]  18-[10  16]  18-[9  16]  35-[-0  1]  16-[-0  12]  13-[11  16]  32-[-0  14]  49-[-0  5]  10-[1  15]  1-[-0  7]  62-[-0  9]  49-[-0  15]  34-[1  14]  10-[9  16]  7-[-0  10]  60-[5  16]  7-[-0  12]  6-[-0  3] -> 0
 38-[6  11]  3-[4  16]  7-[-0  8]  27-[-0  3]  27-[-0  15]  32-[-0  11]  8-[-0  14]  42-[3  14]  51-[2  14]  40-[-0  9]  39-[-0  5]  20-[3  5]  42-[2  16]  26-[2  16]  41-[1  9]  9-[1  7]  51-[4  15]  43-[0  8]  13-[3  13]  10-[8  16]  33-[5  13]  23-[-0  14] -> 0
 37-[9  15]  2-[1  9]  27-[-0  10]  58-[1  12]  45-[6  16]  18-[8  16]  37-[1  15]  37-[6  16]  55-[-0  -0]  18-[3  16]  47-[-0  12]  40-[-0  8]  14-[-0  8]  29-[4  16]  23-[-0  8]  30-[4  10]  43-[0  13]  61-[-0  10]  17-[-0  5]  42-[6  13]  3-[11  16]  27-[-0  1] -> 0
 47-[-0  6]  32-[-0  3]  14-[1  14]  50-[6  16]  37-[2  11]  10-[2  16]  11-[1  14]  46-[1  12]  55-[-0  14]  39-[-0  4]  22-[2  10]  40-[-0  5]  8-[-0  13]  5-[2  13]  49-[1  16]  50-[3  16]  33-[3  12]  35-[-0  2]  44-[-0  1]  42-[4  15]  16-[-0  4]  53-[5  16] -> 0
 42-[10  14]  51-[3  16]  50-[9  15]  61-[7  10]  54-[1  5]  50-[12  16]  40-[-0  1]  37-[4  11]  6-[-0  3]  53-[3  16]  45-[2  12]  57-[-0  3]  42-[1  14]  35-[-0  10]  5-[0  9]  52-[5  12]  48-[-0  6]  39-[-0  15]  31-[-0  12]  41-[3  5]  27-[-0  5]  15-[-0  9] -> 0
 22-[1  14]  19-[3  16]  42-[8  16]  31-[-0  2]  29-[8  16]  33-[1  12]  6-[-0  14]  2-[0  11]  63-[-0  14]  52-[2  10]  14-[-0  12]  16-[-0  10]  27-[0  6]  21-[6  14]  63-[-0  13]  13-[4  12]  48-[-0  4]  50-[7  10]  51-[10  15]  55-[-0  11]  50-[6  16]  35-[-0  11] -> 0
 51-[5  15]  29-[1  11]  61-[4  14]  4-[9  14]  4-[8  16]  61-[5  14]  48-[-0  14]  12-[1  14]  8-[-0  5]  42-[4  16]  2-[1  3]  8-[-0  4]  62-[-0  2]  37-[6  15]  1-[-0  14]  56-[-0  1]  13-[8  12]  46-[3  9]  26-[3  16]  53-[4  16]  41-[1  6]  5-[1  8] -> 0
 55-[-0  16]  38-[3  5]  13-[2  11]  19-[6  16]  61-[1  6]  37-[6  13]  37-[1  16]  40-[-0  3]  14-[-0  14]  18-[1  16]  51-[2  11]  33-[2  8]  9-[0  13]  6-[-0  11]  56-[-0  13]  43-[-0  10]  12-[9  16]  10-[15  16]  30-[1  11]  47-[-0  6]  45-[9  16]  10-[6  16] -> 0
 45-[1  13]  11-[10  12]  33-[3  9]  29-[4  12]  27-[-0  10]  55-[-0  3]  51-[2  14]  58-[6  12]  61-[1  13]  33-[2  13]  46-[1  16]  30-[2  14]  5-[2  16]  29-[4  12]  11-[1  14]  53-[4  15]  13-[4  16]  14-[1  3]  28-[-0  5]  24-[-0  16]  53-[6  16]  44-[-0  15] -> 0
 3-[12  14]  7-[-0  1]  17-[0  6]  34-[5  16]  48-[-0  15]  25-[1  16]  4-[6  15]  28-[-0  6]  7-[-0  1]  34-[7  16]  12-[9  15]  3-[1  15]  51-[4  16]  2-[1  13]  4-[4  16]  54-[-0  16]  41-[0  7]  34-[10  16]  31-[-0  2]  11-[5  16]  4-[3  16]  23-[-0  10] -> 0
 16-[-0  4]  27-[3  7]  10-[8  14]  37-[3  11]  11-[10  14]  31-[-0  13]  9-[2  15]  24-[-0  16]  22-[-0  3]  6-[-0  15]  62-[0  11]  54-[1  4]  10-[1  16]  1-[-0  8]  44-[-0  6]  28-[-0  16]  22-[1  11]  10-[1  16]  32-[-0  2]  40-[-0  15]  20-[-0  2]  58-[2  15] -> 0
 27-[5  16]  26-[5  7]  17-[3  12]  32-[-0  1]  28-[1  16]  43-[12  16]  33-[-0  16]  28-[7  16]  62-[1  12]  7-[-0  8]  42-[1  7]  3-[3  8]  41-[-0  4]  31-[-0  5]  55-[-0  9]  5-[13  16]  52-[9  16]  27-[8  16]  18-[13  16]  13-[1  14]  6-[1  14]  48-[-0  1] -> 1
 52-[3  16]  25-[8  11]  51-[5  16]  3-[1  15]  27-[6  15]  52-[14  16]  42-[-0  4]  53-[2  13]  2-[-0  11]  26-[1  14]  10-[1  15]  47-[-0  14]  19-[2  15]  51-[5  10]  15-[-0  13]  4-[6  16]  13-[11  16]  15-[-0  2]  6-[0  12]  40-[-0  5]  60-[8  15]  19-[10  16] -> 1
 49-[-0  15]  54-[-0  5]  5-[-0  9]  47-[-0  9]  22-[-0  3]  49-[-0  5]  12-[12  16]  62-[-0  10]  31-[-0  3]  43-[5  16]  63-[-0  16]  27-[4  16]  39-[-0  7]  14-[-0  15]  9-[-0  5]  21-[0  12]  21-[0  10]  22-[-0  16]  19-[2  16]  54-[-0  16]  23-[-0  2]  61-[-0  12] -> 1
 6-[-0  14]  56-[-0  16]  55-[-0  8]  33-[-0  2]  32-[-0  10]  50-[-0  4]  25-[1  12]  17-[2  14]  25-[7  13]  29-[5  14]  16-[-0  5]  45-[3  11]  19-[10  16]  10-[1  9]  55-[-0  16]  45-[-0  9]  10-[1  8]  32-[-0  16]  50-[-0  13]  47-[-0  9]  20-[2  16]  46-[-0  5] -> 1
 25-[2  10]  7-[-0  1]  40-[-0  13]  57-[-0  4]  33-[-0  5]  3-[-0  5]  50-[-0  12]  2-[-0  1]  63-[-0  13]  6-[2  15]  18-[4  16]  14-[3  7]  54-[3  9]  51-[-0  15]  30-[2  5]  11-[0  4]  15-[-0  2]  25-[3  15]  13-[14  16]  12-[7  16]  7-[-0  4]  21-[7  16] -> 1
 44-[4  16]  11-[10  16]  2-[0  10]  33-[-0  7]  11-[3  16]  22-[-0  3]  22-[-0  1]  15-[-0  13]  25-[-0  3]  41-[-0  9]  34-[1  13]  50-[2  9]  25-[-0  2]  49-[-0  16]  31-[-0  8]  61-[4  10]  23-[-0  8]  1-[-0  7]  38-[-0  14]  34-[-0  8]  62-[-0  15]  2-[-0  14] -> 1
 18-[5  16]  48-[-0  13]  57-[-0  8]  17-[-0  8]  16-[-0  2]  1-[-0  9]  39-[-0  8]  30-[-0  13]  56-[-0  7]  44-[14  16]  44-[6  16]  40-[-0  2]  38-[-0  5]  27-[15  16]  22-[-0  14]  26-[12  16]  19-[7  16]  43-[10  16]  38-[-0  4]  47-[-0  10]  52-[4  16]  6-[-0  10] -> 1
 17-[-0  12]  63-[-0  4]  58-[2  10]  11-[8  16]  9-[-0  13]  53-[5  16]  24-[-0  5]  20-[1  16]  12-[14  16]  31-[-0  7]  43-[10  16]  49-[-0  8]  23-[-0  1]  23-[-0  15]  49-[-0  2]  36-[4  16]  34-[4  15]  36-[11  16]  30-[-0  12]  11-[2  16]  4-[3  13]  5-[1  13] -> 1
 24-[-0  4]  26-[7  16]  52-[5  13]  52-[5  15]  48-[-0  8]  45-[13  16]  7-[-0  4]  61-[5  16]  61-[1  16]  56-[-0  11]  63-[-0  8]  13-[14  16]  41-[-0  15]  43-[-0  8]  31-[-0  1]  37-[15  16]  48-[-0  1]  23-[-0  13]  63-[-0  10]  8-[-0  9]  61-[9  16]  9-[-0  15] -> 1
 4-[8  13]  59-[2  9]  15-[-0  10]  12-[8  16]  27-[9  14]  24-[-0  3]  55-[-0  4]  8-[-0  4]  39-[-0  11]  47-[-0  2]  32-[-0  6]  32-[-0  11]  16-[-0  5]  12-[7  16]  25-[1  4]  42-[-0  9]  14-[1  12]  3-[4  13]  29-[6  12]  3-[2  13]  7-[-0  12]  47-[-0  4] -> 1
 15-[-0  7]  25-[-0  14]  48-[-0  6]  62-[0  11]  53-[1  6]  56-[-0  14]  56-[-0  6]  23-[-0  16]  21-[2  12]  15-[-0  4]  60-[2  16]  7-[-0  13]  50-[12  16]  35-[6  16]  52-[15  16]  47-[-0  14]  19-[12  16]  31-[-0  4]  37-[3  12]  1-[-0  13]  43-[4  16]  5-[3  12] -> 1
 60-[5  16]  53-[3  9]  47-[-0  9]  53-[3  16]  41-[-0  4]  10-[-0  4]  17-[0  9]  40-[-0  4]  42-[-0  1]  42-[-0  1]  47-[-0  11]  14-[-0  12]  50-[-0  16]  59-[-0  11]  11-[1  14]  38-[-0  15]  6-[-0  10]  47-[-0  7]  35-[1  10]  41-[-0  7]  21-[9  12]  7-[-0  6] -> 1
 25-[3  14]  16-[-0  4]  24-[-0  10]  21-[11  16]  14-[3  8]  45-[11  16]  55-[-0  12]  25-[1  14]  41-[-0  15]  60-[3  13]  28-[4  16]  24-[-0  7]  48-[-0  13]  3-[-0  1]  5-[3  16]  54-[1  13]  63-[-0  5]  62-[3  12]  40-[-0  9]  29-[2  16]  31-[-0  8]  62-[2  8] -> 1
 26-[3  11]  40-[-0  14]  60-[4  14]  52-[6  16]  51-[1  16]  18-[7  13]  23-[-0  14]  62-[-0  11]  45-[0  1]  41-[-0  7]  2-[0  4]  47-[-0  10]  22-[-0  10]  57-[-0  15]  7-[-0  10]  61-[7  16]  34-[5  9]  36-[5  16]  17-[-0  8]  40-[-0  6]  32-[-0  12]  41-[-0  7] -> 1
 52-[10  16]  57-[-0  7]  16-[-0  16]  45-[3  12]  19-[7  16]  40-[-0  4]  53-[2  16]  47-[-0  13]  11-[7  16]  12-[3  16]  44-[12  16]  14-[-0  14]  11-[9  16]  6-[-0  12]  56-[-0  14]  24-[-0  13]  35-[2  16]  35-[1  16]  31-[-0  2]  12-[7  16]  6-[-0  16]  20-[8  16] -> 1
 4-[8  16]  35-[11  16]  31-[-0  9]  1-[-0  5]  28-[1  15]  5-[0  14]  12-[14  16]  20-[9  16]  40-[-0  12]  51-[9  16]  20-[12  16]  47-[-0  16]  21-[0  12]  31-[-0  7]  10-[4  13]  37-[-0  10]  34-[2  16]  19-[5  16]  35-[14  16]  52-[3  9]  9-[-0  12]  49-[-0  16] -> 1
 21-[7  16]  15-[-0  16]  47-[-0  5]  57-[-0  15]  12-[2  16]  32-[-0  12]  16-[-0  10]  3-[0  15]  22-[-0  1]  15-[-0  6]  38-[-0  5]  9-[-0  12]  47-[-0  16]  16-[-0  8]  63-[-0  11]  61-[7  16]  15-[-0  6]  8-[-0  13]  12-[10  16]  10-[-0  11]  27-[1  16]  1-[-0  8] -> 1
 36-[9  15]  35-[6  14]  39-[-0  6]  47-[-0  6]  14-[-0  1]  14-[-0  7]  62-[5  11]  37-[-0  4]  11-[5  15]  26-[1  5]  5-[-0  11]  39-[-0  6]  51-[10  16]  54-[1  13]  54-[8  16]  46-[-0  11]  16-[-0  6]  48-[-0  9]  47-[-0  5]  44-[9  16]  34-[-0  3]  22-[-0  5] -> 2
 18-[8  13]  7-[-0  3]  33-[-0  10]  47-[-0  5]  21-[-0  15]  48-[-0  14]  48-[-0  11]  46-[-0  3]  15-[-0  1]  43-[7  16]  14-[-0  2]  46-[-0  3]  63-[-0  6]  57-[-0  12]  15-[-0  3]  17-[7  16]  7-[-0  9]  63-[-0  8]  6-[-0  11]  40-[-0  15]  36-[1  15]  48-[-0  11] -> 2
 14-[-0  1]  46-[-0  2]  11-[8  16]  33-[-0  13]  7-[-0  13]  1-[0  11]  17-[0  13]  43-[6  16]  45-[-0  12]  61-[6  16]  46-[-0  11]  15-[-0  1]  10-[6  16]  24-[-0  1]  38-[-0  10]  23-[-0  13]  55-[-0  3]  24-[-0  14]  47-[-0  5]  55-[-0  9]  14-[-0  9]  41-[-0  10] -> 2
 39-[-0  8]  54-[-0  5]  55-[-0  15]  18-[-0  16]  22-[-0  14]  62-[13  16]  51-[1  16]  11-[2  16]  52-[6  11]  29-[-0  11]  39-[-0  15]  12-[6  16]  50-[2  16]  41-[-0  6]  10-[12  16]  33-[-0  4]  7-[-0  1]  57-[1  7]  33-[-0  6]  11-[10  15]  52-[1  14]  60-[11  16] -> 2
 54-[3  9]  17-[-0  7]  1-[4  8]  57-[7  12]  5-[-0  11]  48-[-0  10]  52-[1  16]  63-[-0  9]  12-[8  15]  26-[-0  6]  54-[5  10]  23-[-0  5]  23-[-0  8]  35-[2  12]  44-[7  9]  18-[1  4]  16-[-0  4]  31-[-0  5]  5-[-0  1]  25-[-0  1]  23-[-0  12]  31-[-0  4] -> 2
 39-[-0  11]  61-[12  16]  4-[0  12]  34-[-0  14]  13-[-0  12]  39-[-0  3]  39-[-0  2]  36-[6  16]  24-[-0  4]  45-[1  11]  2-[10  15]  28-[10  16]  21-[1  10]  31-[-0  3]  24-[-0  8]  53-[4  14]  10-[9  16]  59-[8  16]  55-[-0  8]  15-[-0  3]  62-[7  16]  55-[-0  9] -> 2
 14-[-0  5]  52-[8  16]  63-[2  11]  13-[3  13]  40-[-0  16]  43-[2  13]  58-[6  15]  14-[-0  10]  23-[-0  11]  19-[3  12]  56-[-0  10]  30-[-0  14]  40-[-0  8]  44-[6  16]  6-[-0  7]  2-[4  12]  11-[2  15]  11-[4  15]  59-[10  16]  32-[-0  16]  55-[1  11]  43-[2  15] -> 2
 30-[0  7]  37-[9  16]  55-[2  7]  4-[3  16]  52-[13  16]  41-[-0  6]  32-[-0  1]  22-[1  8]  40-[-0  16]  48-[-0  3]  5-[4  11]  29-[1  16]  16-[-0  12]  3-[9  16]  40-[-0  7]  14-[-0  12]  36-[2  10]  22-[1  6]  60-[13  16]  40-[-0  1]  37-[7  15]  59-[15  16] -> 2
 13-[-0  8]  13-[-0  12]  3-[13  15]  61-[7  16]  57-[-0  5]  58-[3  9]  52-[9  15]  3-[2  16]  49-[-0  3]  4-[4  14]  34-[-0  15]  32-[-0  2]  56-[-0  4]  34-[-0  15]  35-[5  13]  56-[-0  1]  50-[10  15]  41-[-0  5]  40-[-0  11]  39-[-0  9]  45-[-0  10]  8-[-0  7] -> 2
 16-[-0  10]  4-[6  10]  36-[2  16]  63-[0  8]  18-[6  11]  40-[-0  11]  57-[-0  7]  31-[-0  8]  43-[7  13]  41-[-0  14]  41-[-0  9]  41-[-0  16]  38-[-0  3]  39-[-0  11]  15-[-0  4]  55-[-0  3]  52-[10  16]  36-[4  13]  15-[-0  8]  32-[-0  6]  3-[7  16]  39-[-0  14] -> 2
 4-[5  16]  30-[-0  5]  46-[-0  13]  22-[-0  1]  21-[2  9]  61-[3  16]  4-[2  15]  13-[1  14]  19-[-0  1]  52-[2  4]  49-[3  14]  52-[2  16]  30-[-0  16]  48-[-0  11]  38-[-0  10]  14-[-0  6]  58-[14  16]  14-[-0  3]  62-[1  15]  16-[-0  14]  47-[-0  9]  11-[4  13] -> 2
 17-[8  15]  53-[12  16]  30-[-0  10]  60-[12  16]  55-[-0  4]  40-[-0  4]  33-[-0  12]  9-[6  11]  33-[-0  15]  18-[3  15]  10-[6  15]  56-[-0  14]  10-[9  16]  5-[-0  16]  35-[1  13]  45-[-0  11]  19-[-0  13]  53-[3  16]  27-[2  10]  20-[7  16]  37-[-0  5]  8-[-0  16] -> 2
 33-[-0  4]  14-[-0  3]  55-[-0  13]  17-[-0  4]  53-[10  16]  15-[-0  7]  61-[1  12]  61-[12  16]  61-[2  13]  13-[3  13]  11-[3  12]  46-[-0  2]  17-[-0  3]  62-[-0  10]  14-[-0  7]  11-[2  16]  61-[2  13]  49-[-0  12]  41-[-0  6]  8-[-0  14]  41-[-0  15]  12-[9  13] -> 2
 48-[-0  13]  46-[-0  13]  24-[-0  1]  24-[-0  15]  31-[-0  14]  54-[3  16]  38-[-0  1]  32-[-0  9]  38-[-0  9]  37-[-0  1]  11-[9  15]  32-[-0  5]  51-[8  16]  55-[-0  6]  39-[-0  12]  37-[-0  10]  14-[-0  2]  33-[-0  12]  51-[6  16]  5-[0  4]  7-[-0  3]  60-[2  15] -> 2
 48-[-0  6]  34-[-0  4]  48-[-0  1]  52-[6  16]  39-[-0  13]  16-[-0  4]  62-[4  7]  14-[-0  4]  45-[1  6]  7-[-0  14]  54-[9  16]  9-[-0  8]  15-[-0  8]  52-[2  16]  8-[-0  1]  28-[1  11]  9-[-0  9]  62-[3  12]  36-[14  16]  23-[-0  3]  3-[4  15]  22-[-0  6] -> 2
 24-[-0  13]  14-[-0  4]  12-[14  16]  7-[-0  7]  37-[2  6]  38-[-0  12]  12-[1  16]  32-[-0  15]  42-[7  15]  5-[-0  4]  50-[12  16]  52-[8  16]  46-[-0  2]  12-[12  16]  43-[3  16]  30-[-0  14]  10-[8  16]  41-[-0  1]  60-[5  15]  31-[-0  8]  37-[1  9]  46-[-0  2] -> 2
 10-[6  16]  56-[-0  6]  50-[9  15]  32-[-0  13]  12-[5  16]  29-[6  11]  27-[0  8]  44-[7  16]  22-[-0  10]  53-[8  16]  58-[12  15]  21-[4  8]  1-[-0  1]  44-[7  16]  36-[2  16]  46-[-0  11]  1-[-0  10]  56-[-0  15]  45-[1  14]  56-[-0  3]  23-[-0  12]  45-[1  7] -> 2
 5-[0  11]  55-[-0  6]  26-[-0  1]  36-[2  16]  30-[-0  5]  35-[0  14]  62-[0  11]  13-[3  13]  22-[-0  4]  13-[3  16]  16-[-0  10]  32-[-0  2]  45-[1  16]  37-[-0  16]  51-[-0  10]  11-[2  14]  24-[-0  1]  3-[4  16]  40-[-0  9]  21-[9  16]  31-[-0  11]  1-[-0  9] -> 3
 57-[-0  11]  38-[-0  16]  43-[-0  16]  35-[-0  10]  23-[-0  7]  34-[-0  9]  55-[-0  1]  42-[-0  15]  22-[-0  15]  6-[-0  13]  26-[-0  10]  50-[9  13]  58-[5  13]  8-[-0  13]  38-[-0  10]  11-[1  9]  28-[6  16]  14-[-0  16]  8-[-0  2]  40-[-0  5]  38-[-0  14]  15-[-0  6] -> 3
 3-[9  15]  14-[1  9]  9-[-0  6]  33-[-0  10]  34-[0  8]  37-[11  16]  30-[-0  2]  7-[-0  1]  62-[-0  11]  9-[-0  5]  5-[-0  15]  47-[-0  12]  46-[7  16]  31-[-0  4]  35-[8  14]  14-[-0  14]  40-[-0  1]  51-[1  8]  30-[-0  15]  42-[-0  12]  54-[8  12]  63-[-0  1] -> 3
 23-[-0  -0]  6-[-0  6]  33-[-0  13]  38-[1  11]  7-[-0  12]  39-[-0  1]  28-[5  15]  63-[-0  15]  36-[2  10]  37-[8  16]  2-[3  12]  50-[5  11]  50-[1  15]  58-[1  4]  28-[6  16]  59-[1  16]  50-[8  16]  7-[-0  3]  57-[-0  7]  60-[10  15]  13-[1  14]  19-[0  4] -> 3
 23-[-0  12]  12-[3  16]  58-[3  15]  46-[8  13]  33-[-0  14]  40-[-0  16]  16-[-0  3]  40-[-0  5]  20-[6  16]  21-[2  11]  37-[9  16]  45-[5  15]  30-[0  7]  16-[-0  5]  13-[5  16]  52-[3  16]  57-[-0  16]  55-[-0  2]  11-[2  12]  35-[4  16]  12-[9  16]  38-[3  14] -> 3
 13-[3  16]  59-[14  16]  29-[0  8]  33-[-0  9]  38-[-0  9]  33-[-0  2]  49-[-0  2]  27-[6  16]  38-[-0  10]  13-[6  16]  60-[12  16]  58-[4  16]  16-[-0  2]  2-[15  16]  3-[1  16]  4-[12  16]  22-[1  8]  9-[0  9]  51-[5  14]  17-[-0  7]  58-[4  16]  56-[-0  13] -> 3
 44-[-0  10]  2-[3  15]  33-[-0  15]  38-[-0  5]  33-[-0  11]  15-[-0  14]  52-[1  11]  33-[-0  2]  41-[-0  6]  57-[-0  10]  42-[-0  5]  25-[-0  14]  27-[2  16]  37-[3  12]  28-[6  15]  8-[-0  3]  17-[1  5]  41-[-0  14]  20-[8  16]  9-[2  12]  8-[-0  2]  16-[-0  4] -> 3
 28-[14  16]  43-[6  16]  55-[-0  13]  17-[-0  11]  46-[-0  14]  48-[-0  7]  13-[5  16]  50-[-0  12]  32-[-0  16]  28-[1  15]  38-[-0  12]  43-[13  16]  36-[10  16]  21-[12  16]  50-[-0  1]  30-[-0  6]  29-[1  14]  35-[1  16]  14-[-0  16]  20-[5  10]  40-[-0  1]  49-[-0  14] -> 3
 57-[-0  16]  22-[-0  6]  36-[11  15]  41-[-0  14]  24-[-0  6]  45-[11  14]  4-[2  16]  39-[-0  15]  6-[-0  14]  2-[5  12]  23-[-0  13]  62-[2  9]  48-[-0  2]  48-[-0  6]  15-[-0  2]  24-[-0  7]  26-[-0  15]  25-[-0  6]  56-[-0  10]  18-[1  13]  25-[-0  13]  61-[7  15] -> 3
 37-[1  16]  42-[-0  8]  56-[-0  16]  18-[0  5]  19-[5  14]  18-[0  5]  47-[-0  6]  23-[-0  13]  10-[13  15]  51-[0  3]  39-[-0  -0]  17-[1  16]  21-[1  10]  11-[4  10]  52-[-0  4]  7-[-0  12]  46-[4  14]  9-[12  16]  21-[1  15]  15-[-0  13]  29-[-0  5]  34-[1  12] -> 3
 28-[5  16]  35-[7  15]  4-[6  13]  15-[-0  9]  34-[-0  2]  35-[6  11]  13-[7  16]  46-[7  14]  10-[7  16]  5-[0  16]  28-[12  16]  53-[10  16]  20-[4  16]  17-[1  7]  19-[0  6]  42-[5  12]  48-[-0  8]  51-[3  12]  29-[6  14]  11-[5  13]  41-[-0  8]  49-[2  11] -> 3
 17-[1  8]  20-[11  16]  37-[5  16]  58-[2  12]  23-[-0  4]  57-[-0  10]  26-[-0  7]  7-[-0  3]  33-[-0  16]  45-[5  16]  57-[-0  10]  48-[-0  1]  22-[-0  13]  32-[-0  6]  53-[10  15]  24-[-0  2]  37-[3  16]  47-[-0  15]  14-[-0  1]  40-[-0  1]  49-[-0  14]  23-[-0  5] -> 3
 54-[-0  7]  34-[-0  2]  45-[1  16]  41-[-0  6]  17-[-0  16]  39-[-0  10]  22-[-0  2]  16-[-0  1]  52-[1  15]  5-[3  15]  31-[-0  15]  43-[-0  14]  50-[1  16]  26-[1  4]  54-[-0  10]  40-[-0  14]  5-[3  9]  32-[-0  7]  61-[3  12]  14-[-0  16]  32-[-0  10]  37-[1  16] -> 3
 39-[-0  4]  15-[-0  14]  12-[4  16]  2-[1  14]  49-[1  14]  44-[-0  3]  12-[10  16]  19-[0  14]  40-[-0  6]  39-[-0  15]  11-[6  16]  41-[-0  1]  49-[1  10]  14-[-0  12]  2-[5  14]  57-[-0  8]  61-[5  13]  24-[-0  4]  61-[3  14]  21-[1  4]  43-[-0  10]  23-[-0  15] -> 3
 16-[-0  14]  57-[0  9]  22-[1  6]  60-[11  16]  9-[7  15]  50-[5  15]  24-[-0  14]  7-[-0  16]  33-[-0  8]  28-[1  16]  60-[5  16]  6-[2  12]  23-[-0  11]  15-[-0  5]  15-[-0  7]  16-[-0  14]  63-[-0  5]  43-[0  4]  45-[4  12]  33-[-0  3]  30-[-0  16]  40-[-0  5] -> 3
 7-[-0  11]  34-[2  5]  45-[11  15]  45-[3  16]  20-[7  14]  9-[2  15]  38-[4  12]  48-[-0  13]  22-[-0  7]  13-[9  16]  24-[-0  8]  37-[-0  4]  58-[10  13]  6-[-0  13]  39-[-0  8]  6-[-0  4]  45-[2  16]  62-[-0  13]  42-[-0  4]  12-[10  15]  19-[0  11]  10-[12  16] -> 3
 23-[-0  6]  37-[5  8]  25-[-0  8]  51-[2  8]  61-[3  9]  26-[-0  16]  40-[-0  8]  54-[-0  10]  16-[-0  13]  49-[1  5]  8-[-0  5]  15-[-0  15]  4-[9  16]  43-[-0  15]  23-[-0  2]  62-[-0  8]  11-[6  13]  28-[2  16]  2-[5  14]  17-[-0  14]  57-[-0  10]  5-[7  16] -> 3
 39-[-0  16]  51-[7  15]  47-[-0  11]  48-[-0  16]  33-[1  16]  48-[-0  2]  37-[4  16]  62-[-0  8]  38-[1  10]  37-[3  16]  7-[-0  14]  22-[2  11]  58-[-0  11]  47-[-0  5]  11-[5  16]  47-[-0  8]  43-[5  16]  23-[-0  8]  62-[-0  10]  9-[-0  7]  11-[12  16]  54-[-0  2] -> 4
 12-[-0  9]  17-[-0  5]  11-[4  16]  13-[1  4]  30-[-0  13]  14-[-0  13]  15-[-0  16]  37-[4  15]  14-[-0  -0]  7-[-0  1]  46-[-0  5]  62-[-0  8]  62-[-0  14]  7-[-0  14]  7-[-0  4]  3-[13  16]  1-[-0  4]  24-[-0  4]  60-[9  16]  10-[1  10]  62-[-0  14]  57-[-0  14] -> 4
 38-[0  7]  52-[10  16]  50-[-0  3]  22-[1  16]  9-[-0  14]  53-[-0  16]  61-[-0  6]  6-[-0  4]  61-[-0  13]  15-[-0  14]  46-[-0  14]  62-[-0  7]  15-[-0  13]  29-[13  16]  7-[-0  8]  22-[10  16]  35-[8  16]  37-[5  16]  43-[1  8]  20-[-0  12]  45-[2  5]  17-[1  11] -> 4
 8-[-0  1]  41-[-0  10]  10-[2  13]  41-[-0  5]  37-[7  15]  24-[-0  1]  34-[4  16]  22-[7  16]  50-[-0  16]  56-[-0  4]  3-[2  15]  41-[-0  15]  43-[8  11]  43-[5  12]  33-[4  15]  26-[11  16]  29-[13  15]  50-[-0  12]  4-[2  15]  46-[-0  7]  37-[8  16]  25-[1  5] -> 4
 42-[10  15]  18-[1  12]  4-[9  14]  47-[-0  11]  61-[3  10]  46-[0  8]  46-[0  4]  23-[-0  12]  59-[1  7]  1-[-0  14]  62-[-0  6]  9-[-0  5]  21-[3  9]  34-[10  16]  40-[-0  16]  22-[3  10]  51-[-0  3]  2-[-0  13]  50-[-0  6]  40-[-0  9]  43-[10  16]  6-[-0  6] -> 4
 29-[9  16]  46-[-0  15]  5-[3  15]  34-[5  16]  31-[-0  6]  58-[-0  11]  17-[-0  13]  40-[-0  11]  16-[-0  3]  38-[1  16]  3-[0  12]  12-[15  16]  48-[-0  4]  26-[5  11]  20-[10  16]  43-[6  13]  58-[-0  14]  41-[-0  2]  42-[1  12]  31-[-0  3]  50-[-0  5]  39-[-0  15] -> 4
 16-[-0  9]  29-[4  16]  20-[-0  7]  18-[8  15]  3-[7  14]  45-[0  6]  58-[-0  3]  4-[5  14]  22-[2  12]  56-[-0  1]  34-[6  16]  42-[2  14]  58-[-0  16]  63-[-0  5]  57-[-0  6]  61-[-0  15]  8-[-0  16]  9-[-0  7]  39-[-0  16]  25-[2  15]  14-[12  16]  30-[3  5] -> 4
 20-[3  8]  43-[1  16]  9-[-0  5]  19-[3  16]  59-[-0  11]  17-[-0  12]  16-[-0  9]  60-[5  15]  47-[-0  9]  16-[-0  13]  40-[-0  11]  29-[4  16]  46-[0  9]  29-[7  16]  60-[8  15]  13-[1  7]  23-[-0  4]  53-[7  16]  15-[-0  16]  46-[-0  14]  14-[-0  5]  63-[-0  15] -> 4
 42-[9  15]  56-[-0  12]  15-[-0  5]  8-[-0  12]  28-[-0  11]  22-[1  9]  27-[7  15]  55-[-0  1]  50-[-0  6]  60-[5  16]  59-[2  5]  23-[-0  8]  27-[9  14]  48-[-0  2]  23-[-0  2]  45-[3  16]  31-[-0  3]  44-[12  16]  63-[-0  8]  46-[1  5]  14-[-0  15]  63-[-0  16] -> 4
 58-[-0  7]  48-[-0  4]  56-[-0  2]  51-[2  13]  23-[-0  5]  10-[-0  12]  13-[-0  13]  19-[4  16]  1-[-0  13]  13-[-0  10]  16-[-0  3]  48-[-0  13]  32-[-0  11]  63-[-0  12]  31-[-0  16]  26-[15  16]  25-[1  13]  25-[2  9]  15-[-0  15]  52-[11  16]  49-[-0  12]  15-[-0  7] -> 4
 49-[-0  8]  55-[-0  8]  54-[-0  3]  20-[-0  1]  8-[-0  11]  50-[-0  13]  6-[-0  16]  63-[-0  4]  48-[-0  4]  8-[-0  16]  62-[-0  14]  10-[-0  6]  14-[3  13]  55-[-0  7]  14-[2  13]  11-[3  14]  1-[-0  7]  11-[3  14]  58-[-0  4]  36-[2  15]  61-[-0  15]  8-[-0  12] -> 4
 41-[-0  16]  55-[-0  1]  55-[-0  7]  43-[3  16]  52-[4  11]  39-[-0  14]  42-[0  12]  63-[-0  14]  27-[3  7]  60-[-0  11]  29-[11  16]  19-[-0  11]  8-[-0  1]  49-[-0  16]  60-[-0  11]  1-[-0  11]  2-[2  15]  44-[14  16]  5-[-0  12]  1-[-0  5]  44-[6  15]  40-[0  9] -> 4
 22-[-0  15]  27-[1  13]  53-[6  11]  28-[-0  7]  43-[8  16]  47-[-0  12]  50-[7  13]  25-[0  12]  56-[-0  16]  33-[2  10]  5-[6  9]  22-[-0  8]  51-[15  16]  50-[5  10]  59-[1  16]  51-[3  16]  48-[-0  13]  47-[-0  10]  36-[0  13]  16-[-0  3]  41-[6  13]  46-[2  14] -> 4
 19-[3  13]  54-[-0  10]  17-[1  13]  7-[-0  11]  39-[-0  7]  53-[4  7]  8-[-0  2]  63-[-0  12]  15-[-0  13]  23-[-0  7]  3-[3  11]  55-[-0  13]  60-[12  14]  5-[4  10]  10-[2  11]  40-[-0  14]  37-[2  16]  19-[7  16]  60-[12  15]  20-[-0  10]  34-[9  15]  31-[-0  2] -> 4
 63-[-0  12]  15-[-0  9]  48-[-0  11]  58-[0  14]  43-[2  15]  28-[1  8]  10-[-0  12]  54-[2  16]  44-[4  13]  19-[7  16]  36-[-0  7]  25-[-0  6]  47-[-0  4]  61-[4  16]  46-[1  7]  29-[13  16]  33-[-0  10]  5-[3  13]  4-[9  16]  58-[0  13]  14-[-0  8]  19-[5  10] -> 4
 24-[-0  9]  59-[1  15]  57-[-0  2]  59-[1  9]  38-[4  15]  11-[5  16]  40-[-0  12]  33-[2  13]  8-[-0  13]  59-[1  7]  9-[-0  5]  7-[-0  8]  6-[-0  1]  34-[14  16]  21-[1  16]  60-[2  16]  37-[7  16]  44-[10  16]  57-[-0  6]  23-[-0  14]  25-[-0  2]  33-[3  14] -> 4
 37-[1  16]  59-[9  13]  42-[6  14]  48-[-0  4]  43-[3  16]  16-[-0  3]  18-[5  11]  17-[-0  5]  19-[11  15]  52-[9  12]  48-[-0  5]  5-[-0  2]  11-[10  16]  40-[-0  10]  52-[3  12]  23-[-0  15]  50-[-0  15]  31-[-0  2]  37-[5  15]  41-[1  14]  14-[-0  9]  24-[-0  6] -> 4
 30-[-0  2]  23-[-0  8]  60-[4  10]  15-[-0  14]  43-[-0  1]  57-[-0  6]  38-[-0  3]  17-[2  15]  9-[0  4]  10-[13  16]  25-[1  11]  28-[12  16]  32-[-0  12]  55-[-0  13]  10-[9  16]  47-[-0  10]  11-[2  15]  58-[1  14]  51-[1  12]  57-[-0  2]  51-[1  11]  1-[-0  12] -> 5
 9-[1  15]  16-[-0  6]  25-[3  12]  16-[-0  8]  8-[-0  7]  20-[-0  16]  8-[-0  1]  48-[-0  5]  31-[-0  9]  24-[-0  11]  23-[-0  16]  39-[-0  2]  54-[-0  13]  32-[-0  13]  58-[4  16]  18-[3  16]  31-[-0  7]  62-[-0  12]  4-[13  16]  41-[-0  14]  20-[-0  11]  34-[11  16] -> 5
 46-[2  10]  19-[3  16]  19-[4  9]  53-[6  15]  54-[1  8]  32-[-0  5]  3-[2  14]  6-[-0  13]  21-[-0  1]  50-[1  15]  55-[-0  4]  15-[-0  5]  43-[-0  8]  39-[-0  9]  41-[-0  4]  10-[1  16]  59-[15  16]  62-[-0  3]  15-[-0  14]  54-[1  10]  45-[4  15]  44-[-0  2] -> 5
 37-[1  16]  57-[-0  9]  5-[5  11]  33-[1  6]  17-[0  15]  31-[-0  8]  2-[1  14]  40-[-0  10]  34-[2  16]  50-[-0  4]  16-[-0  11]  23-[-0  15]  14-[3  15]  7-[-0  11]  29-[2  16]  5-[4  12]  28-[10  14]  19-[2  11]  42-[2  13]  25-[1  9]  21-[-0  13]  13-[0  6] -> 5
 10-[4  14]  50-[7  12]  35-[6  16]  37-[4  13]  24-[-0  11]  18-[8  13]  26-[2  16]  40-[-0  10]  22-[-0  14]  10-[6  16]  48-[-0  10]  47-[-0  1]  33-[1  6]  20-[-0  6]  32-[-0  4]  25-[1  6]  31-[-0  16]  24-[-0  13]  36-[7  13]  27-[2  13]  28-[2  13]  37-[2  12] -> 5
 16-[-0  6]  56-[-0  10]  38-[-0  16]  28-[1  15]  34-[1  11]  52-[11  15]  16-[-0  5]  30-[-0  10]  35-[7  9]  48-[-0  10]  34-[1  8]  36-[10  14]  4-[2  16]  41-[-0  13]  50-[3  12]  45-[-0  10]  9-[5  16]  2-[5  8]  21-[-0  1]  50-[3  8]  48-[-0  12]  21-[-0  3] -> 5
 4-[15  16]  21-[-0  14]  10-[12  16]  12-[2  4]  46-[1  6]  16-[-0  8]  43-[-0  5]  51-[-0  3]  1-[-0  11]  13-[-0  16]  26-[2  16]  3-[2  15]  46-[1  11]  53-[7  16]  24-[-0  7]  39-[-0  7]  42-[-0  2]  7-[-0  7]  30-[-0  14]  8-[-0  14]  48-[-0  7]  2-[1  12] -> 5
 52-[3  16]  15-[-0  7]  10-[12  16]  35-[-0  3]  3-[11  14]  13-[9  15]  32-[-0  6]  6-[8  16]  32-[-0  3]  12-[3  15]  36-[3  12]  46-[-0  9]  45-[6  12]  59-[4  16]  35-[-0  14]  21-[1  12]  31-[-0  9]  44-[7  9]  46-[-0  1]  62-[-0  6]  43-[-0  1]  2-[3  16] -> 5
 34-[4  14]  33-[2  5]  52-[0  4]  41-[-0  11]  57-[-0  13]  3-[9  16]  26-[8  16]  36-[12  16]  38-[2  16]  7-[-0  14]  36-[1  14]  48-[-0  10]  41-[-0  1]  4-[10  16]  5-[5  16]  9-[-0  6]  9-[-0  12]  30-[-0  15]  5-[15  16]  53-[3  12]  38-[3  13]  48-[-0  8] -> 5
 9-[2  13]  39-[-0  11]  37-[4  16]  57-[-0  13]  25-[8  12]  54-[9  16]  13-[1  11]  57-[-0  3]  38-[-0  12]  22-[-0  5]  55-[-0  11]  14-[1  13]  2-[4  16]  16-[-0  5]  44-[1  9]  13-[7  16]  54-[0  2]  42-[-0  16]  7-[-0  2]  60-[11  16]  21-[-0  6]  28-[2  12] -> 5
 54-[0  9]  38-[3  9]  34-[1  7]  11-[7  12]  35-[-0  12]  35-[-0  8]  53-[1  15]  7-[-0  10]  33-[0  14]  3-[1  16]  39-[-0  6]  21-[4  10]  56-[-0  7]  59-[13  16]  5-[5  11]  40-[-0  15]  5-[7  12]  61-[-0  6]  51-[2  13]  45-[6  10]  27-[10  16]  14-[1  6] -> 5
 15-[-0  16]  23-[-0  9]  41-[-0  11]  41-[-0  12]  10-[3  16]  18-[5  15]  30-[-0  11]  45-[6  16]  25-[-0  15]  36-[3  9]  32-[-0  1]  39-[-0  9]  14-[-0  14]  42-[-0  7]  56-[-0  3]  2-[2  12]  12-[3  15]  7-[-0  10]  53-[9  14]  37-[10  15]  4-[11  13]  40-[-0  2] -> 5
 13-[4  13]  31-[-0  4]  23-[-0  5]  26-[6  16]  14-[-0  8]  51-[1  16]  32-[-0  5]  59-[15  16]  4-[8  16]  48-[-0  3]  28-[10  16]  48-[-0  1]  5-[1  16]  7-[-0  5]  45-[8  15]  22-[-0  16]  40-[-0  11]  18-[8  16]  47-[-0  13]  8-[-0  14]  27-[9  16]  9-[-0  7] -> 5
 58-[5  15]  42-[-0  4]  3-[1  16]  18-[8  12]  31-[-0  16]  47-[-0  3]  5-[3  16]  57-[-0  4]  39-[-0  6]  11-[7  14]  58-[1  8]  27-[2  9]  61-[-0  7]  2-[5  12]  33-[-0  13]  47-[-0  13]  43-[2  12]  58-[1  13]  45-[10  15]  29-[-0  8]  39-[-0  4]  21-[2  11] -> 5
 19-[0  2]  51-[8  11]  29-[-0  1]  52-[11  16]  46-[-0  14]  33-[-0  3]  49-[-0  7]  33-[-0  11]  35-[11  16]  3-[14  16]  15-[-0  8]  50-[3  7]  47-[-0  15]  31-[-0  11]  47-[-0  8]  25-[2  13]  52-[12  16]  36-[1  6]  15-[-0  9]  14-[1  6]  56-[-0  8]  5-[8  12] -> 5
 55-[-0  13]  42-[-0  3]  38-[-0  4]  44-[2  15]  48-[-0  13]  41-[-0  14]  5-[3  14]  46-[-0  3]  31-[-0  4]  27-[9  16]  6-[-0  15]  52-[5  14]  59-[2  16]  17-[-0  8]  32-[-0  9]  29-[-0  13]  31-[-0  3]  55-[-0  4]  7-[-0  9]  57-[-0  14]  59-[11  16]  35-[2  16] -> 5
 8-[-0  10]  16-[-0  16]  43-[-0  5]  1-[-0  7]  46-[-0  8]  48-[-0  12]  24-[-0  16]  26-[11  14]  32-[-0  16]  36-[8  16]  63-[-0  1]  33-[1  7]  15-[-0  10]  27-[1  14]  51-[2  11]  36-[10  16]  26-[10  13]  59-[3  16]  18-[5  13]  31-[-0  7]  7-[-0  1]  9-[0  13] -> 5
 10-[3  14]  8-[-0  7]  16-[-0  2]  57-[-0  16]  29-[-0  2]  20-[-0  15]  52-[5  15]  38-[-0  16]  32-[-0  6]  41-[3  10]  62-[-0  16]  6-[-0  10]  23-[-0  3]  17-[2  7]  29-[-0  11]  55-[-0  2]  26-[3  16]  16-[-0  3]  8-[-0  3]  57-[-0  6]  5-[-0  13]  23-[-0  1] -> 6
 46-[6  16]  25-[-0  16]  48-[-0  10]  57-[-0  8]  56-[-0  9]  27-[0  14]  29-[-0  7]  13-[-0  6]  40-[-0  8]  16-[-0  11]  57-[-0  1]  47-[-0  6]  57-[-0  1]  36-[5  16]  48-[-0  1]  8-[-0  11]  57-[-0  13]  9-[-0  1]  38-[-0  7]  30-[-0  9]  8-[-0  8]  17-[-0  4] -> 6
 33-[1  10]  32-[-0  8]  15-[-0  8]  31-[-0  15]  38-[-0  9]  61-[4  16]  16-[-0  9]  62-[2  16]  9-[-0  10]  14-[-0  2]  43-[1  16]  38-[-0  7]  43-[1  16]  51-[3  16]  61-[13  16]  23-[-0  12]  9-[-0  3]  33-[1  14]  11-[9  16]  49-[-0  8]  33-[1  6]  10-[5  11] -> 6
 33-[-0  8]  61-[2  15]  9-[-0  16]  61-[10  13]  3-[10  15]  41-[-0  8]  60-[6  16]  35-[3  10]  62-[4  15]  12-[-0  15]  9-[-0  3]  13-[-0  9]  31-[-0  10]  58-[0  4]  56-[-0  14]  9-[-0  6]  14-[-0  6]  57-[-0  2]  23-[-0  7]  32-[-0  7]  56-[-0  15]  30-[-0  4] -> 6
 29-[-0  15]  24-[-0  3]  4-[14  15]  33-[2  9]  57-[-0  4]  61-[4  16]  19-[8  15]  47-[-0  8]  36-[12  16]  42-[10  16]  12-[3  14]  19-[4  13]  47-[-0  12]  54-[12  16]  22-[-0  4]  20-[-0  16]  60-[8  16]  43-[5  13]  44-[3  14]  26-[6  16]  9-[-0  11]  60-[9  16] -> 6
 56-[-0  15]  48-[-0  11]  4-[1  15]  58-[0  10]  12-[1  15]  39-[-0  11]  46-[2  15]  9-[-0  11]  60-[7  16]  21-[-0  11]  57-[-0  3]  19-[3  16]  7-[-0  4]  6-[-0  6]  54-[9  12]  9-[-0  13]  57-[-0  10]  11-[3  16]  18-[1  15]  19-[14  16]  35-[11  16]  19-[7  16] -> 6
 61-[13  15]  61-[10  16]  19-[7  16]  41-[-0  9]  56-[-0  14]  47-[-0  2]  57-[-0  8]  27-[4  16]  15-[-0  5]  13-[-0  8]  39-[-0  -0]  40-[-0  6]  6-[-0  11]  19-[8  15]  40-[-0  13]  30-[-0  4]  55-[0  13]  9-[-0  3]  18-[4  14]  19-[5  15]  53-[3  9]  30-[-0  16] -> 6
 48-[-0  16]  29-[-0  9]  56-[-0  13]  48-[-0  4]  35-[5  16]  57-[-0  9]  37-[8  16]  14-[-0  11]  36-[6  16]  9-[-0  2]  56-[-0  12]  60-[14  16]  14-[-0  3]  54-[4  13]  5-[-0  10]  7-[-0  13]  1-[-0  16]  16-[-0  5]  32-[-0  13]  55-[-0  16]  23-[-0  16]  4-[1  16] -> 6
 23-[-0  3]  10-[5  10]  18-[6  13]  47-[-0  1]  29-[-0  13]  58-[4  15]  1-[-0  1]  6-[-0  2]  1-[-0  4]  6-[-0  11]  34-[2  16]  8-[-0  15]  16-[-0  11]  37-[-0  3]  31-[-0  16]  29-[-0  15]  3-[14  16]  7-[-0  -0]  45-[10  14]  4-[5  16]  49-[1  13]  57-[-0  14] -> 6
 6-[-0  14]  58-[-0  9]  24-[-0  4]  9-[-0  7]  10-[1  12]  25-[-0  8]  56-[-0  15]  15-[-0  9]  48-[-0  13]  5-[-0  8]  56-[-0  14]  39-[-0  7]  50-[8  15]  32-[-0  11]  24-[-0  3]  59-[1  16]  43-[3  15]  13-[-0  7]  2-[-0  7]  5-[-0  16]  49-[-0  2]  43-[5  16] -> 6
 49-[-0  13]  52-[3  11]  31-[-0  3]  28-[1  13]  30-[-0  15]  17-[-0  1]  12-[0  14]  48-[-0  1]  12-[0  11]  47-[-0  16]  5-[-0  15]  29-[-0  5]  3-[5  14]  56-[-0  4]  8-[-0  8]  20-[-0  14]  55-[-0  15]  29-[3  9]  26-[12  16]  4-[0  8]  18-[5  15]  55-[-0  4] -> 6
 7-[-0  13]  50-[2  15]  19-[13  16]  45-[3  13]  15-[-0  15]  16-[-0  11]  34-[1  16]  24-[-0  2]  11-[5  16]  21-[-0  9]  60-[10  16]  27-[3  16]  21-[-0  8]  2-[-0  4]  40-[-0  14]  26-[3  16]  20-[2  12]  11-[11  16]  39-[-0  15]  51-[13  16]  45-[4  13]  1-[-0  6] -> 6
 26-[2  16]  9-[-0  10]  55-[0  8]  48-[-0  2]  20-[4  8]  3-[1  7]  43-[4  16]  17-[-0  8]  15-[-0  3]  4-[12  16]  59-[1  12]  61-[10  16]  58-[-0  9]  32-[-0  8]  28-[2  12]  23-[-0  15]  59-[1  14]  48-[-0  4]  5-[3  10]  59-[6  15]  1-[-0  11]  27-[5  13] -> 6
 13-[-0  2]  11-[1  16]  7-[-0  11]  63-[-0  13]  43-[7  16]  41-[2  14]  5-[-0  5]  36-[1  16]  60-[15  16]  31-[-0  5]  61-[9  16]  15-[-0  16]  15-[-0  15]  59-[3  16]  58-[5  10]  15-[-0  15]  56-[-0  16]  6-[-0  5]  59-[12  16]  24-[-0  11]  60-[13  16]  36-[8  16] -> 6
 25-[-0  8]  40-[-0  9]  43-[5  10]  13-[-0  4]  61-[5  16]  27-[0  7]  45-[8  14]  4-[0  14]  55-[-0  16]  61-[12  15]  41-[1  4]  22-[-0  5]  4-[0  7]  29-[-0  8]  9-[-0  5]  12-[-0  15]  26-[11  16]  8-[-0  3]  10-[5  12]  6-[-0  16]  60-[13  16]  59-[2  15] -> 6
 12-[-0  16]  49-[-0  12]  38-[0  4]  44-[8  14]  19-[5  10]  22-[-0  15]  27-[2  13]  20-[-0  10]  44-[1  15]  25-[-0  2]  49-[-0  11]  52-[1  5]  25-[-0  7]  10-[1  13]  51-[4  15]  61-[6  15]  18-[2  14]  19-[1  15]  51-[7  14]  45-[1  11]  28-[1  7]  19-[3  10] -> 6
 38-[3  9]  14-[-0  5]  21-[-0  13]  46-[3  13]  56-[-0  3]  25-[-0  3]  8-[-0  16]  17-[-0  7]  57-[-0  7]  30-[-0  8]  15-[-0  9]  62-[1  12]  26-[3  15]  7-[-0  10]  43-[10  16]  25-[-0  15]  7-[-0  13]  25-[-0  11]  1-[-0  5]  53-[10  13]  54-[7  13]  60-[11  16] -> 6
 42-[-0  7]  39-[-0  11]  12-[1  8]  45-[1  13]  4-[4  15]  44-[7  13]  10-[1  9]  25-[-0  5]  31-[-0  15]  60-[-0  2]  63-[-0  5]  61-[-0  3]  17-[-0  11]  24-[-0  7]  8-[-0  9]  51-[12  16]  43-[1  16]  28-[10  15]  25-[-0  4]  15-[-0  9]  56-[-0  6]  36-[3  16] -> 7
 31-[-0  1]  56-[-0  6]  51-[7  13]  25-[0  9]  6-[-0  6]  45-[3  9]  15-[-0  14]  13-[15  16]  20-[3  16]  6-[-0  4]  1-[0  2]  51-[3  14]  2-[7  16]  23-[-0  3]  16-[-0  10]  5-[1  15]  50-[3  13]  23-[-0  16]  23-[-0  14]  15-[-0  7]  54-[-0  9]  38-[7  10] -> 7
 22-[3  16]  42-[-0  7]  14-[2  16]  42-[-0  5]  13-[5  16]  39-[-0  11]  37-[9  11]  5-[2  16]  9-[-0  7]  1-[-0  2]  60-[-0  2]  25-[-0  10]  62-[-0  2]  37-[9  13]  3-[4  16]  38-[2  14]  25-[1  4]  52-[0  4]  57-[-0  16]  11-[5  14]  18-[-0  6]  26-[-0  14] -> 7
 28-[9  15]  32-[-0  16]  34-[-0  13]  59-[3  14]  48-[-0  6]  21-[3  16]  33-[-0  15]  29-[1  8]  50-[8  16]  6-[2  16]  28-[7  15]  57-[-0  4]  46-[-0  9]  21-[4  16]  47-[-0  15]  2-[1  15]  29-[2  12]  43-[3  13]  37-[-0  14]  55-[-0  2]  45-[-0  5]  24-[-0  3] -> 7
 7-[-0  6]  2-[2  16]  49-[-0  4]  1-[1  16]  22-[1  8]  6-[8  14]  10-[2  13]  27-[6  14]  2-[8  16]  35-[7  16]  45-[-0  16]  45-[-0  4]  4-[1  16]  16-[-0  7]  26-[2  10]  14-[6  12]  39-[-0  5]  38-[2  14]  53-[-0  3]  51-[11  13]  45-[-0  13]  22-[-0  7] -> 7
 12-[12  15]  41-[-0  14]  40-[-0  4]  48-[-0  7]  24-[-0  6]  47-[-0  12]  44-[0  4]  41-[-0  4]  10-[4  16]  31-[-0  3]  20-[7  16]  39-[-0  13]  39-[-0  3]  55-[-0  6]  15-[-0  1]  32-[-0  7]  46-[-0  2]  2-[3  16]  60-[-0  11]  57-[3  7]  47-[-0  11]  16-[-0  11] -> 7
 13-[11  16]  9-[-0  12]  1-[-0  15]  57-[-0  6]  8-[-0  10]  50-[3  8]  36-[10  16]  63-[-0  9]  44-[9  15]  3-[8  16]  29-[11  15]  47-[-0  3]  59-[9  16]  39-[-0  6]  20-[1  12]  7-[-0  9]  3-[7  16]  45-[6  16]  61-[-0  14]  20-[1  12]  46-[0  8]  30-[-0  5] -> 7
 48-[-0  7]  62-[-0  9]  16-[-0  13]  39-[-0  12]  12-[2  13]  21-[2  16]  19-[1  5]  32-[-0  11]  14-[2  12]  4-[3  16]  43-[9  16]  52-[1  10]  50-[4  15]  60-[-0  8]  18-[3  16]  60-[-0  1]  18-[12  16]  39-[-0  5]  36-[12  16]  39-[-0  8]  17-[7  15]  19-[2  13] -> 7
 10-[4  8]  48-[-0  5]  12-[7  16]  26-[-0  7]  10-[4  16]  14-[1  4]  20-[1  9]  51-[2  15]  55-[-0  12]  18-[1  7]  45-[2  4]  48-[-0  11]  46-[-0  7]  20-[1  16]  62-[-0  10]  61-[-0  12]  43-[10  16]  14-[1  15]  9-[-0  16]  10-[8  16]  8-[-0  10]  7-[-0  14] -> 7
 47-[-0  9]  57-[-0  8]  60-[-0  2]  24-[-0  4]  15-[-0  5]  1-[-0  7]  16-[-0  13]  1-[-0  12]  51-[8  16]  40-[-0  5]  25-[-0  9]  23-[-0  5]  59-[2  15]  39-[-0  13]  3-[10  16]  5-[8  16]  23-[-0  8]  63-[-0  8]  31-[-0  15]  49-[-0  8]  28-[6  16]  39-[-0  1] -> 7
 62-[-0  1]  60-[-0  14]  48-[-0  3]  43-[3  16]  5-[5  16]  12-[4  15]  13-[11  16]  62-[-0  9]  54-[-0  2]  63-[-0  1]  34-[3  16]  49-[-0  3]  27-[1  6]  43-[8  16]  57-[-0  10]  15-[-0  14]  1-[-0  4]  39-[-0  14]  12-[3  13]  4-[4  16]  54-[-0  3]  23-[-0  13] -> 7
 36-[4  16]  34-[3  16]  42-[1  7]  35-[11  16]  48-[-0  2]  43-[1  15]  7-[1  8]  6-[2  16]  7-[-0  15]  50-[-0  4]  4-[8  16]  55-[-0  7]  4-[4  15]  14-[1  16]  42-[-0  10]  30-[-0  13]  17-[-0  11]  59-[6  16]  57-[-0  16]  7-[-0  11]  52-[3  8]  49-[-0  11] -> 7
 45-[-0  2]  41-[-0  11]  40-[-0  8]  25-[-0  2]  55-[-0  3]  54-[-0  8]  48-[-0  6]  28-[7  16]  24-[-0  13]  46-[-0  15]  60-[-0  14]  55-[-0  15]  40-[-0  16]  47-[-0  8]  56-[-0  1]  35-[8  16]  29-[11  16]  8-[-0  4]  32-[-0  12]  61-[-0  11]  39-[-0  7]  35-[9  16] -> 7
 45-[2  15]  2-[6  12]  17-[-0  14]  16-[-0  9]  53-[-0  16]  61-[-0  8]  6-[10  16]  48-[-0  5]  6-[12  16]  17-[-0  11]  53-[-0  12]  61-[-0  9]  30-[1  11]  36-[6  16]  25-[-0  1]  51-[13  16]  12-[8  14]  56-[-0  10]  11-[3  10]  33-[-0  2]  50-[3  12]  42-[-0  12] -> 7
 4-[12  16]  34-[3  16]  13-[1  16]  40-[-0  14]  24-[-0  14]  12-[3  15]  53-[-0  8]  55-[-0  14]  32-[-0  3]  3-[7  15]  43-[4  5]  42-[1  12]  12-[3  12]  25-[-0  6]  58-[0  2]  39-[-0  5]  47-[-0  13]  8-[-0  10]  37-[11  14]  38-[2  14]  49-[-0  12]  3-[8  16] -> 7
 36-[3  16]  61-[-0  8]  37-[15  16]  51-[11  16]  55-[-0  13]  57-[-0  3]  28-[4  15]  55-[-0  3]  49-[-0  12]  4-[6  16]  9-[1  16]  56-[-0  9]  31-[-0  11]  33-[-0  14]  42-[7  14]  4-[9  16]  3-[5  16]  31-[-0  16]  4-[10  16]  31-[-0  8]  52-[0  13]  8-[-0  7] -> 7
 28-[8  16]  4-[15  16]  12-[8  16]  54-[-0  15]  34-[7  16]  8-[-0  5]  24-[-0  3]  11-[4  16]  22-[-0  8]  27-[7  10]  5-[1  15]  54-[-0  7]  63-[-0  5]  51-[3  16]  55-[-0  3]  54-[-0  8]  25-[-0  10]  56-[-0  5]  26-[-0  2]  63-[-0  16]  30-[4  7]  20-[6  16] -> 7
 27-[7  15]  29-[0  7]  36-[10  15]  6-[-0  13]  61-[0  13]  62-[-0  1]  41-[-0  7]  3-[7  16]  50-[7  16]  13-[13  16]  52-[3  13]  47-[-0  1]  53-[1  16]  24-[-0  3]  30-[-0  4]  40-[-0  10]  31-[-0  10]  14-[-0  4]  35-[6  16]  32-[-0  16]  28-[6  16]  56-[-0  11] -> 8
 4-[8  16]  38-[-0  6]  18-[8  16]  56-[-0  5]  6-[0  13]  6-[0  3]  7-[-0  3]  4-[11  16]  42-[8  15]  49-[1  14]  37-[0  3]  15-[-0  2]  47-[-0  13]  24-[-0  11]  34-[3  15]  39-[-0  10]  22-[3  13]  18-[2  16]  45-[-0  7]  7-[-0  7]  3-[9  16]  56-[-0  14] -> 8
 1-[-0  13]  48-[-0  7]  59-[7  13]  48-[-0  15]  34-[3  16]  62-[3  13]  49-[-0  6]  36-[10  16]  63-[-0  12]  21-[9  16]  26-[11  16]  30-[0  5]  27-[1  12]  46-[-0  11]  9-[-0  12]  11-[3  16]  30-[0  11]  29-[13  16]  28-[10  16]  61-[-0  14]  18-[8  16]  5-[1  6] -> 8
 54-[1  13]  31-[-0  11]  37-[2  11]  55-[-0  6]  1-[0  10]  8-[-0  1]  25-[-0  4]  37-[5  10]  17-[3  11]  33-[-0  14]  12-[2  16]  51-[1  12]  59-[4  16]  45-[2  16]  24-[-0  4]  26-[7  15]  1-[0  5]  60-[8  16]  47-[-0  16]  30-[-0  1]  31-[-0  16]  42-[4  16] -> 8
 13-[7  13]  2-[1  11]  7-[-0  4]  23-[-0  16]  36-[13  16]  12-[10  16]  10-[10  16]  4-[12  16]  61-[1  14]  43-[6  16]  2-[1  9]  31-[-0  3]  23-[-0  3]  44-[6  15]  16-[-0  3]  21-[9  13]  32-[-0  12]  23-[-0  2]  48-[-0  4]  55-[-0  11]  32-[-0  4]  61-[1  14] -> 8
 34-[6  15]  12-[6  11]  25-[-0  11]  52-[9  12]  57-[-0  5]  6-[2  12]  2-[3  13]  43-[-0  13]  2-[5  14]  9-[3  7]  63-[-0  16]  16-[-0  11]  12-[3  15]  32-[-0  6]  63-[-0  1]  17-[-0  11]  3-[7  12]  29-[1  16]  24-[-0  16]  12-[6  16]  34-[6  15]  63-[-0  9] -> 8
 40-[-0  15]  50-[4  13]  14-[5  14]  59-[9  16]  8-[-0  3]  48-[-0  11]  29-[6  15]  42-[3  10]  32-[-0  4]  14-[5  14]  60-[9  16]  52-[3  12]  42-[2  9]  1-[-0  6]  40-[-0  -0]  14-[2  11]  61-[3  14]  38-[-0  1]  58-[1  7]  17-[-0  8]  30-[0  10]  56-[-0  8] -> 8
 20-[5  14]  4-[11  15]  54-[7  15]  33-[-0  4]  10-[12  16]  36-[6  16]  32-[-0  10]  43-[1  15]  56-[-0  16]  48-[-0  5]  14-[1  13]  23-[-0  1]  11-[3  13]  28-[13  16]  16-[-0  16]  5-[1  12]  8-[-0  13]  12-[1  16]  41-[-0  2]  30-[-0  9]  27-[13  16]  26-[5  15] -> 8
 14-[-0  2]  59-[1  6]  56-[-0  5]  19-[6  16]  30-[-0  1]  59-[4  9]  62-[-0  16]  38-[-0  11]  4-[2  14]  8-[-0  12]  28-[2  15]  7-[-0  6]  60-[10  15]  33-[1  14]  29-[-0  2]  8-[-0  5]  49-[-0  13]  14-[-0  7]  52-[2  14]  1-[-0  7]  29-[-0  6]  52-[11  16] -> 8
 27-[15  16]  22-[0  13]  48-[-0  6]  45-[7  12]  37-[1  4]  22-[0  11]  49-[2  12]  41-[1  11]  46-[3  6]  51-[4  13]  5-[7  16]  17-[7  9]  16-[-0  15]  43-[1  11]  56-[-0  5]  27-[4  13]  21-[10  16]  10-[8  16]  11-[4  16]  36-[3  16]  62-[-0  3]  62-[-0  1] -> 8
 57-[-0  3]  62-[-0  5]  52-[1  7]  45-[1  16]  48-[-0  2]  21-[6  15]  4-[4  16]  26-[14  15]  20-[1  15]  24-[-0  13]  9-[1  12]  29-[4  13]  12-[1  16]  33-[-0  14]  57-[-0  11]  1-[-0  6]  48-[-0  14]  34-[-0  11]  59-[14  16]  4-[2  13]  52-[3  15]  41-[-0  15] -> 8
 30-[-0  13]  43-[0  12]  41-[0  13]  21-[10  16]  2-[0  11]  15-[-0  10]  15-[-0  7]  8-[-0  1]  39-[-0  8]  46-[-0  16]  42-[3  16]  16-[-0  7]  6-[-0  14]  61-[7  16]  63-[-0  14]  28-[13  16]  35-[12  16]  32-[-0  10]  20-[2  16]  43-[2  15]  27-[2  15]  50-[5  16] -> 8
 46-[2  12]  6-[1  12]  26-[3  11]  48-[-0  2]  57-[-0  7]  50-[11  16]  22-[9  14]  19-[10  15]  22-[8  16]  43-[-0  16]  63-[-0  8]  13-[2  16]  44-[-0  12]  32-[-0  3]  33-[-0  6]  45-[15  16]  43-[-0  16]  6-[1  13]  4-[15  16]  59-[8  13]  62-[-0  11]  54-[2  9] -> 8
 23-[-0  5]  8-[-0  16]  55-[-0  13]  22-[-0  12]  8-[-0  4]  51-[0  6]  55-[-0  2]  59-[12  15]  48-[-0  7]  12-[4  16]  18-[6  14]  63-[-0  7]  32-[-0  1]  52-[2  15]  54-[-0  1]  61-[0  13]  15-[-0  10]  60-[14  16]  58-[2  16]  46-[-0  6]  58-[3  15]  14-[-0  6] -> 8
 45-[5  15]  15-[-0  2]  35-[11  15]  41-[-0  -0]  51-[2  6]  48-[-0  10]  63-[-0  13]  30-[-0  8]  57-[-0  1]  41-[-0  5]  62-[-0  16]  11-[4  15]  15-[-0  2]  55-[-0  10]  53-[9  16]  24-[-0  15]  35-[1  15]  42-[11  15]  25-[-0  7]  33-[-0  16]  2-[5  12]  24-[-0  15] -> 8
 16-[-0  6]  43-[0  2]  14-[1  12]  42-[12  16]  19-[-0  7]  39-[-0  7]  59-[4  16]  52-[1  9]  14-[1  9]  31-[-0  15]  40-[-0  5]  5-[3  16]  1-[0  12]  41-[-0  9]  52-[4  12]  32-[-0  5]  5-[1  14]  10-[12  16]  30-[-0  8]  5-[4  9]  45-[5  15]  36-[10  16] -> 8
 48-[-0  15]  28-[3  14]  14-[-0  2]  53-[2  6]  30-[2  9]  44-[5  15]  13-[9  13]  10-[8  14]  31-[-0  7]  36-[10  16]  40-[-0  10]  56-[-0  15]  12-[2  8]  52-[2  11]  14-[-0  12]  40-[-0  12]  6-[-0  3]  7-[-0  9]  41-[-0  14]  44-[4  7]  38-[-0  1]  24-[-0  8] -> 8
 7-[-0  13]  39-[-0  2]  31-[-0  9]  38-[2  15]  2-[4  13]  27-[6  16]  10-[2  16]  49-[0  9]  6-[-0  12]  40-[-0  13]  14-[-0  15]  60-[3  16]  6-[-0  11]  3-[13  16]  39-[-0  10]  4-[3  16]  3-[1  16]  4-[3  15]  20-[3  14]  18-[6  16]  63-[-0  7]  7-[-0  16] -> 9
 16-[-0  12]  57-[-0  2]  50-[5  15]  28-[8  15]  14-[0  10]  50-[1  9]  48-[-0  4]  51-[0  6]  1-[0  7]  41-[-0  10]  50-[4  12]  52-[1  3]  33-[-0  1]  3-[5  16]  13-[9  16]  33-[-0  11]  58-[5  9]  37-[2  16]  33-[-0  16]  10-[2  11]  14-[0  13]  63-[-0  4] -> 9
 33-[-0  11]  44-[8  13]  10-[6  15]  59-[14  16]  18-[9  15]  15-[-0  4]  53-[-0  14]  29-[15  16]  24-[-0  12]  30-[2  13]  11-[10  16]  23-[-0  6]  20-[7  8]  52-[0  16]  56-[-0  13]  53-[-0  6]  7-[-0  13]  30-[3  15]  4-[9  16]  50-[-0  15]  63-[-0  12]  48-[-0  12] -> 9
 30-[0  9]  58-[4  10]  16-[-0  6]  28-[6  13]  60-[14  16]  44-[-0  5]  39-[-0  3]  30-[0  7]  59-[15  16]  7-[-0  10]  33-[-0  12]  58-[2  16]  5-[1  10]  29-[3  16]  16-[-0  6]  18-[8  12]  29-[7  16]  9-[-0  12]  26-[5  13]  59-[15  16]  8-[-0  5]  38-[1  13] -> 9
 17-[4  14]  40-[-0  1]  55-[-0  4]  47-[-0  9]  17-[3  12]  47-[-0  15]  33-[-0  5]  13-[2  15]  30-[-0  5]  21-[13  16]  54-[-0  2]  40-[-0  7]  22-[1  9]  15-[-0  10]  42-[-0  2]  55-[-0  8]  15-[-0  8]  25-[2  12]  10-[9  16]  36-[8  16]  31-[-0  12]  44-[3  14] -> 9
 32-[-0  10]  24-[-0  3]  7-[-0  7]  41-[-0  13]  47-[-0  5]  39-[-0  9]  22-[1  8]  52-[1  14]  41-[-0  9]  28-[5  16]  50-[6  15]  63-[-0  6]  16-[-0  15]  17-[4  8]  4-[4  16]  56-[-0  8]  29-[9  16]  23-[-0  8]  40-[-0  7]  50-[5  15]  11-[2  16]  10-[15  16] -> 9
 22-[-0  16]  7-[-0  8]  15-[-0  10]  18-[8  13]  13-[11  16]  12-[10  13]  61-[-0  16]  47-[-0  7]  3-[6  16]  59-[14  16]  7-[-0  1]  49-[0  14]  30-[-0  2]  57-[-0  15]  50-[5  15]  28-[6  15]  2-[6  14]  7-[-0  9]  23-[-0  7]  5-[1  15]  45-[12  16]  59-[7  16] -> 9
 4-[11  15]  45-[4  10]  1-[-0  15]  57-[-0  14]  43-[-0  2]  34-[1  12]  4-[4  15]  42-[-0  16]  37-[6  8]  16-[-0  16]  2-[1  14]  55-[-0  8]  59-[3  14]  13-[7  16]  16-[-0  7]  63-[-0  1]  30-[3  10]  3-[4  15]  18-[13  14]  10-[6  15]  2-[4  15]  53-[12  16] -> 9
 14-[4  16]  14-[3  16]  45-[2  15]  58-[-0  11]  34-[3  13]  41-[-0  2]  48-[-0  10]  2-[-0  16]  61-[-0  8]  39-[-0  7]  40-[-0  13]  32-[-0  11]  44-[9  11]  7-[2  13]  3-[1  11]  57-[-0  9]  46-[-0  3]  23-[0  14]  32-[-0  9]  51-[0  8]  22-[9  16]  21-[8  11] -> 9
 25-[4  5]  30-[2  16]  12-[6  13]  26-[9  16]  49-[-0  1]  42-[2  16]  55-[-0  1]  17-[8  15]  34-[4  9]  38-[2  8]  47-[-0  1]  31-[-0  11]  45-[7  14]  2-[1  16]  58-[1  5]  51-[1  13]  57-[-0  12]  9-[3  5]  63-[-0  14]  32-[-0  13]  51-[2  13]  63-[-0  10] -> 9
 61-[13  16]  15-[-0  5]  33-[-0  3]  57-[0  4]  54-[3  16]  6-[-0  1]  32-[-0  4]  34-[-0  11]  40-[-0  10]  3-[5  16]  11-[1  14]  40-[-0  11]  10-[3  16]  23-[-0  2]  57-[0  16]  14-[-0  13]  43-[-0  6]  31-[-0  6]  61-[12  16]  36-[-0  10]  44-[-0  1]  60-[1  16] -> 9
 12-[1  16]  45-[5  15]  8-[-0  4]  38-[7  15]  39-[-0  9]  25-[2  13]  48-[-0  4]  30-[5  11]  11-[4  13]  3-[2  15]  42-[-0  3]  27-[1  15]  42-[2  15]  61-[1  12]  7-[-0  4]  51-[5  16]  4-[11  15]  13-[4  16]  25-[1  10]  2-[4  11]  16-[-0  12]  53-[5  16] -> 9
 26-[13  16]  47-[-0  8]  57-[-0  11]  63-[-0  16]  47-[-0  3]  12-[2  11]  31-[-0  16]  55-[-0  2]  59-[9  16]  2-[-0  6]  8-[-0  2]  42-[-0  6]  44-[3  16]  4-[2  16]  43-[-0  14]  2-[1  9]  39-[-0  15]  20-[1  13]  4-[14  16]  2-[1  5]  62-[-0  10]  12-[3  15] -> 9
 4-[6  16]  19-[7  14]  59-[5  15]  27-[1  6]  16-[-0  13]  23-[-0  8]  34-[-0  16]  47-[-0  4]  14-[-0  9]  12-[5  15]  27-[1  9]  15-[-0  10]  54-[-0  6]  3-[2  8]  27-[1  5]  20-[7  15]  26-[3  8]  6-[-0  12]  24-[-0  10]  33-[-0  9]  23-[-0  5]  1-[-0  12] -> 9
 54-[-0  13]  14-[3  16]  6-[4  10]  15-[-0  12]  31-[-0  11]  31-[-0  8]  19-[1  15]  46-[-0  11]  12-[2  14]  58-[-0  1]  21-[5  16]  10-[4  11]  40-[-0  13]  12-[4  11]  1-[-0  3]  38-[1  11]  22-[2  16]  13-[5  11]  29-[7  16]  55-[-0  6]  57-[-0  16]  58-[-0  7] -> 9
 26-[2  14]  2-[1  15]  14-[-0  14]  31-[-0  3]  9-[0  4]  48-[-0  11]  49-[-0  10]  37-[7  15]  48-[-0  10]  51-[-0  14]  44-[-0  1]  56-[-0  11]  50-[-0  2]  46-[3  14]  49-[-0  15]  4-[1  16]  48-[-0  14]  25-[-0  6]  57-[-0  9]  63-[-0  4]  45-[7  16]  10-[8  16] -> 9
 12-[2  9]  20-[4  11]  33-[-0  1]  40-[-0  3]  35-[6  11]  11-[8  16]  27-[6  16]  48-[-0  8]  59-[2  16]  26-[7  16]  60-[6  12]  54-[-0  10]  48-[-0  2]  60-[5  16]  56-[-0  1]  53-[-0  7]  24-[-0  15]  17-[15  16]  24-[-0  7]  25-[8  16]  18-[13  16]  29-[4  16] -> 9
ACCURACY on training set 58.4	

TEST ACCURACY 47.2671	
