best on training set at iteration 0:  27.7	
best on training set at iteration 100:  30.15	
best on training set at iteration 200:  35.55	
best on training set at iteration 300:  38.3	
best on training set at iteration 400:  40.7	
best on training set at iteration 500:  44.55	
best on training set at iteration 600:  45.95	
best on training set at iteration 700:  47.95	
best on training set at iteration 800:  50.6	
best on training set at iteration 900:  51.85	
best on training set at iteration 1000:  54.75	
best on training set at iteration 1100:  55.6	
best on training set at iteration 1200:  56.65	
best on training set at iteration 1300:  57.3	
best on training set at iteration 1400:  58.3	
best on training set at iteration 1500:  60.05	
best on training set at iteration 1600:  60.55	
best on training set at iteration 1700:  62.6	
best on training set at iteration 1800:  63.5	
best on training set at iteration 1900:  65.3	
best on training set at iteration 2000:  66.35	
best on training set at iteration 2100:  66.8	
best on training set at iteration 2200:  68	
best on training set at iteration 2300:  68.55	
best on training set at iteration 2400:  69.25	
best on training set at iteration 2500:  69.85	
best on training set at iteration 2600:  70	
best on training set at iteration 2700:  71.35	
best on training set at iteration 2800:  72.05	
best on training set at iteration 2900:  72.05	
best on training set at iteration 3000:  73.05	
best on training set at iteration 3100:  73.55	
best on training set at iteration 3200:  73.6	
best on training set at iteration 3300:  73.65	
best on training set at iteration 3400:  73.9	
best on training set at iteration 3500:  74.7	
best on training set at iteration 3600:  75	
best on training set at iteration 3700:  75.25	
best on training set at iteration 3800:  75.95	
best on training set at iteration 3900:  76.2	
best on training set at iteration 4000:  76.5	
best on training set at iteration 4100:  76.8	
best on training set at iteration 4200:  77.05	
best on training set at iteration 4300:  77.15	
best on training set at iteration 4400:  77.5	
best on training set at iteration 4500:  77.55	
best on training set at iteration 4600:  77.7	
best on training set at iteration 4700:  77.9	
best on training set at iteration 4800:  77.95	
best on training set at iteration 4900:  78.15	
best on training set at iteration 5000:  78.3	
best on training set at iteration 5100:  78.5	
best on training set at iteration 5200:  78.5	
best on training set at iteration 5300:  78.85	
best on training set at iteration 5400:  79.3	
best on training set at iteration 5500:  79.3	
best on training set at iteration 5600:  79.6	
best on training set at iteration 5700:  79.7	
best on training set at iteration 5800:  79.7	
best on training set at iteration 5900:  79.7	
best on training set at iteration 6000:  79.85	
best on training set at iteration 6100:  79.95	
best on training set at iteration 6200:  80	
best on training set at iteration 6300:  80.2	
best on training set at iteration 6400:  80.45	
best on training set at iteration 6500:  80.85	
best on training set at iteration 6600:  81.1	
best on training set at iteration 6700:  81.35	
best on training set at iteration 6800:  81.55	
best on training set at iteration 6900:  81.85	
best on training set at iteration 7000:  82.05	
best on training set at iteration 7100:  82.05	
best on training set at iteration 7200:  82.1	
best on training set at iteration 7300:  82.4	
best on training set at iteration 7400:  82.7	
best on training set at iteration 7500:  83	
best on training set at iteration 7600:  83.1	
best on training set at iteration 7700:  83.5	
best on training set at iteration 7800:  83.65	
best on training set at iteration 7900:  83.8	
best on training set at iteration 8000:  84	
best on training set at iteration 8100:  84.1	
best on training set at iteration 8200:  84.1	
best on training set at iteration 8300:  84.55	
best on training set at iteration 8400:  85.1	
best on training set at iteration 8500:  85.1	
best on training set at iteration 8600:  85.4	
best on training set at iteration 8700:  85.55	
best on training set at iteration 8800:  85.55	
best on training set at iteration 8900:  85.6	
best on training set at iteration 9000:  85.65	
best on training set at iteration 9100:  85.95	
best on training set at iteration 9200:  85.95	
best on training set at iteration 9300:  85.95	
best on training set at iteration 9400:  86.15	
best on training set at iteration 9500:  86.15	
best on training set at iteration 9600:  86.2	
best on training set at iteration 9700:  86.2	
best on training set at iteration 9800:  86.35	
best on training set at iteration 9900:  86.5	

 52-[9  16] -> 0
 37-[1  12] -> 0
 40-[-0  8] -> 0
 48-[-0  5] -> 0
 10-[3  16] -> 0
 38-[2  10] -> 0
 44-[3  10] -> 0
 57-[-0  8] -> 0
 36-[-0  8] -> 0
 42-[8  16] -> 0
 30-[4  11] -> 0
 18-[3  16] -> 0
 42-[1  16] -> 0
 27-[-0  7] -> 0
 42-[9  16] -> 0
 28-[-0  2] -> 0
 43-[-0  8] -> 0
 2-[-0  3] -> 1
 20-[6  16] -> 1
 8-[-0  11] -> 1
 10-[-0  8] -> 1
 55-[-0  11] -> 1
 19-[7  16] -> 1
 1-[-0  5] -> 1
 20-[11  16] -> 1
 52-[14  16] -> 1
 36-[6  16] -> 1
 51-[15  16] -> 1
 52-[8  13] -> 1
 14-[-0  3] -> 1
 25-[2  10] -> 1
 46-[-0  8] -> 1
 27-[10  16] -> 1
 34-[-0  13] -> 1
 63-[-0  9] -> 2
 42-[-0  12] -> 2
 39-[-0  11] -> 2
 34-[-0  6] -> 2
 48-[-0  16] -> 2
 62-[7  12] -> 2
 27-[-0  3] -> 2
 50-[14  16] -> 2
 45-[-0  11] -> 2
 38-[-0  14] -> 2
 51-[10  16] -> 2
 13-[-0  2] -> 2
 52-[13  16] -> 2
 62-[1  16] -> 2
 24-[-0  8] -> 2
 9-[3  15] -> 2
 22-[-0  10] -> 2
 61-[7  11] -> 3
 11-[9  14] -> 3
 42-[-0  1] -> 3
 18-[-0  9] -> 3
 48-[-0  10] -> 3
 55-[-0  9] -> 3
 55-[0  4] -> 3
 26-[-0  3] -> 3
 26-[-0  11] -> 3
 46-[4  13] -> 3
 51-[3  11] -> 3
 49-[0  9] -> 3
 5-[10  15] -> 3
 43-[0  11] -> 3
 30-[-0  3] -> 3
 53-[3  16] -> 3
 18-[0  8] -> 3
 10-[-0  2] -> 4
 38-[1  11] -> 4
 3-[-0  7] -> 4
 25-[2  10] -> 4
 57-[-0  4] -> 4
 30-[5  14] -> 4
 62-[-0  9] -> 4
 37-[9  16] -> 4
 28-[6  10] -> 4
 47-[-0  1] -> 4
 6-[-0  4] -> 4
 42-[8  16] -> 4
 62-[-0  4] -> 4
 10-[-0  14] -> 4
 17-[-0  4] -> 4
 2-[-0  6] -> 4
 10-[-0  13] -> 4
 21-[0  6] -> 5
 7-[-0  3] -> 5
 5-[6  15] -> 5
 40-[-0  8] -> 5
 12-[1  12] -> 5
 55-[-0  7] -> 5
 1-[-0  11] -> 5
 42-[-0  2] -> 5
 42-[-0  2] -> 5
 5-[9  16] -> 5
 5-[1  16] -> 5
 21-[-0  6] -> 5
 21-[-0  3] -> 5
 21-[-0  5] -> 5
 29-[9  16] -> 5
 59-[6  16] -> 5
 58-[3  8] -> 5
 42-[9  16] -> 6
 29-[-0  7] -> 6
 63-[1  4] -> 6
 20-[-0  9] -> 6
 25-[-0  8] -> 6
 26-[9  14] -> 6
 32-[-0  11] -> 6
 34-[11  16] -> 6
 20-[0  4] -> 6
 60-[8  16] -> 6
 29-[-0  4] -> 6
 5-[-0  5] -> 6
 21-[-0  2] -> 6
 59-[1  15] -> 6
 55-[0  8] -> 6
 61-[4  14] -> 6
 46-[1  16] -> 6
 60-[0  6] -> 7
 26-[4  12] -> 7
 31-[-0  7] -> 7
 19-[-0  12] -> 7
 13-[15  16] -> 7
 18-[-0  10] -> 7
 52-[-0  9] -> 7
 60-[-0  10] -> 7
 30-[1  11] -> 7
 63-[-0  13] -> 7
 21-[1  16] -> 7
 60-[-0  3] -> 7
 35-[10  16] -> 7
 51-[5  15] -> 7
 25-[-0  6] -> 7
 61-[-0  9] -> 7
 60-[-0  12] -> 7
 13-[8  16] -> 8
 50-[1  16] -> 8
 58-[-0  13] -> 8
 17-[3  15] -> 8
 26-[4  14] -> 8
 35-[14  16] -> 8
 61-[0  14] -> 8
 20-[1  12] -> 8
 44-[4  15] -> 8
 21-[8  14] -> 8
 42-[8  16] -> 8
 27-[7  16] -> 8
 50-[7  16] -> 8
 35-[11  16] -> 8
 6-[-0  9] -> 8
 6-[-0  3] -> 8
 57-[-0  16] -> 8
 9-[3  9] -> 9
 54-[-0  2] -> 9
 43-[-0  9] -> 9
 34-[-0  8] -> 9
 42-[-0  9] -> 9
 26-[7  16] -> 9
 18-[4  16] -> 9
 27-[7  16] -> 9
 30-[1  12] -> 9
 47-[-0  8] -> 9
 21-[5  16] -> 9
 58-[-0  8] -> 9
 46-[6  16] -> 9
 29-[6  16] -> 9
 29-[1  16] -> 9
 47-[-0  14] -> 9
 62-[2  8] -> 9
ACCURACY on training set 86.5	

TEST ACCURACY 77.2671	
