best on training set at iteration 0:  46	
best on training set at iteration 100:  46.2	
best on training set at iteration 200:  46.4	
best on training set at iteration 300:  46.5	
best on training set at iteration 400:  46.9	
best on training set at iteration 500:  47	
best on training set at iteration 600:  47.3	
best on training set at iteration 700:  47.5	
best on training set at iteration 800:  48.1	
best on training set at iteration 900:  49.5	
best on training set at iteration 1000:  50.3	
best on training set at iteration 1100:  50.6	
best on training set at iteration 1200:  50.8	
best on training set at iteration 1300:  50.9	
best on training set at iteration 1400:  51.3	
best on training set at iteration 1500:  52.1	
best on training set at iteration 1600:  52.1	
best on training set at iteration 1700:  52.1	
best on training set at iteration 1800:  52.5	
best on training set at iteration 1900:  52.8	
best on training set at iteration 2000:  53.1	
best on training set at iteration 2100:  53.2	
best on training set at iteration 2200:  53.3	
best on training set at iteration 2300:  53.3	
best on training set at iteration 2400:  53.3	
best on training set at iteration 2500:  54.1	
best on training set at iteration 2600:  54.1	
best on training set at iteration 2700:  54.5	
best on training set at iteration 2800:  54.7	
best on training set at iteration 2900:  55.5	
best on training set at iteration 3000:  55.5	
best on training set at iteration 3100:  55.6	
best on training set at iteration 3200:  56.5	
best on training set at iteration 3300:  56.6	
best on training set at iteration 3400:  57.6	
best on training set at iteration 3500:  57.8	
best on training set at iteration 3600:  57.9	
best on training set at iteration 3700:  57.9	
best on training set at iteration 3800:  58.1	
best on training set at iteration 3900:  58.2	
best on training set at iteration 4000:  58.2	
best on training set at iteration 4100:  58.3	
best on training set at iteration 4200:  58.5	
best on training set at iteration 4300:  58.7	
best on training set at iteration 4400:  58.8	
best on training set at iteration 4500:  58.9	
best on training set at iteration 4600:  58.9	
best on training set at iteration 4700:  59.1	
best on training set at iteration 4800:  59.2	
best on training set at iteration 4900:  59.8	
best on training set at iteration 5000:  60.1	
best on training set at iteration 5100:  60.2	
best on training set at iteration 5200:  60.7	
best on training set at iteration 5300:  60.8	
best on training set at iteration 5400:  61	
best on training set at iteration 5500:  61.2	
best on training set at iteration 5600:  61.5	
best on training set at iteration 5700:  61.8	
best on training set at iteration 5800:  62	
best on training set at iteration 5900:  62.3	
best on training set at iteration 6000:  62.3	
best on training set at iteration 6100:  62.3	
best on training set at iteration 6200:  62.5	
best on training set at iteration 6300:  62.5	
best on training set at iteration 6400:  62.6	
best on training set at iteration 6500:  62.8	
best on training set at iteration 6600:  62.8	
best on training set at iteration 6700:  62.8	
best on training set at iteration 6800:  62.8	
best on training set at iteration 6900:  63.1	
best on training set at iteration 7000:  63.1	
best on training set at iteration 7100:  63.1	
best on training set at iteration 7200:  63.5	
best on training set at iteration 7300:  63.6	
best on training set at iteration 7400:  63.7	
best on training set at iteration 7500:  63.8	
best on training set at iteration 7600:  64	
best on training set at iteration 7700:  64.1	
best on training set at iteration 7800:  64.4	
best on training set at iteration 7900:  64.4	
best on training set at iteration 8000:  64.4	
best on training set at iteration 8100:  64.5	
best on training set at iteration 8200:  64.6	
best on training set at iteration 8300:  64.7	
best on training set at iteration 8400:  65.4	
best on training set at iteration 8500:  65.4	
best on training set at iteration 8600:  65.5	
best on training set at iteration 8700:  65.7	
best on training set at iteration 8800:  65.8	
best on training set at iteration 8900:  65.8	
best on training set at iteration 9000:  65.9	
best on training set at iteration 9100:  66.2	
best on training set at iteration 9200:  66.2	
best on training set at iteration 9300:  66.2	
best on training set at iteration 9400:  66.2	
best on training set at iteration 9500:  66.3	
best on training set at iteration 9600:  66.4	
best on training set at iteration 9700:  66.6	
best on training set at iteration 9800:  66.6	
best on training set at iteration 9900:  66.6	

 46-[6  13]  56-[-0  9]  44-[-0  14]  4-[2  11]  32-[-0  12]  25-[3  13]  21-[10  13]  8-[-0  16]  3-[8  15]  18-[6  13]  27-[-0  3]  18-[9  15]  1-[-0  5]  62-[-0  4]  42-[7  16]  8-[-0  5]  54-[1  13]  8-[-0  15]  9-[-0  15]  5-[1  9]  9-[-0  3]  27-[-0  10] -> 0
 13-[1  10]  51-[1  16]  16-[-0  13]  14-[-0  1]  30-[7  9]  56-[-0  13]  23-[-0  11]  5-[-0  11]  48-[-0  8]  12-[7  16]  57-[-0  2]  48-[-0  3]  6-[-0  11]  17-[1  15]  42-[3  15]  60-[9  16]  41-[3  6]  61-[4  10]  54-[0  6]  24-[-0  7]  41-[2  8]  50-[11  15] -> 0
 3-[2  14]  4-[12  16]  37-[3  14]  62-[-0  5]  54-[1  5]  31-[-0  9]  37-[3  5]  44-[-0  1]  51-[5  16]  39-[-0  12]  32-[-0  4]  60-[3  12]  55-[-0  13]  23-[-0  7]  60-[3  12]  5-[2  7]  3-[6  15]  33-[2  8]  37-[1  5]  9-[-0  15]  39-[-0  12]  37-[5  7] -> 0
 22-[7  10]  13-[4  15]  13-[10  15]  36-[-0  15]  4-[9  16]  11-[10  16]  9-[-0  9]  19-[1  10]  54-[2  5]  2-[2  9]  31-[-0  14]  61-[2  16]  15-[-0  15]  6-[-0  5]  12-[5  16]  45-[6  15]  54-[3  6]  19-[2  14]  53-[10  16]  41-[2  15]  52-[7  16]  45-[2  13] -> 0
 26-[12  14]  43-[-0  9]  51-[5  13]  46-[7  16]  5-[0  16]  57-[-0  15]  13-[4  16]  22-[2  7]  3-[8  12]  28-[-0  2]  33-[1  5]  56-[-0  3]  54-[2  16]  56-[-0  13]  19-[3  11]  17-[1  11]  48-[-0  2]  20-[1  8]  62-[-0  16]  56-[-0  13]  4-[1  6]  34-[9  16] -> 0
 20-[3  15]  28-[-0  7]  18-[10  14]  46-[5  12]  25-[11  13]  38-[9  16]  18-[7  16]  31-[-0  6]  46-[2  11]  47-[-0  1]  10-[14  16]  41-[5  12]  25-[4  15]  36-[-0  10]  55-[-0  8]  28-[-0  9]  11-[11  14]  59-[12  16]  12-[7  16]  29-[10  16]  61-[1  10]  17-[5  14] -> 0
 13-[10  15]  60-[3  15]  30-[3  10]  29-[4  9]  59-[4  13]  13-[5  12]  16-[-0  4]  44-[-0  13]  36-[-0  6]  14-[-0  14]  32-[-0  8]  33-[6  11]  12-[4  11]  16-[-0  2]  39-[-0  15]  25-[3  14]  52-[3  5]  47-[-0  16]  34-[8  13]  18-[1  16]  39-[-0  3]  42-[15  16] -> 0
 52-[7  13]  16-[-0  11]  19-[4  16]  32-[-0  11]  40-[-0  5]  22-[1  9]  5-[2  14]  29-[3  13]  6-[-0  11]  45-[8  16]  34-[3  16]  50-[10  16]  58-[5  7]  49-[-0  4]  15-[-0  8]  18-[5  16]  54-[0  5]  9-[-0  14]  45-[6  16]  32-[-0  2]  60-[4  15]  12-[3  15] -> 0
 25-[3  6]  50-[4  15]  60-[2  16]  34-[6  15]  45-[2  16]  63-[-0  7]  45-[5  12]  42-[6  15]  51-[1  9]  19-[0  16]  62-[-0  9]  30-[6  8]  50-[7  14]  27-[-0  3]  5-[2  6]  27-[-0  12]  60-[1  16]  5-[-0  13]  54-[-0  4]  39-[-0  2]  15-[-0  15]  9-[-0  7] -> 0
 60-[1  16]  37-[6  16]  31-[-0  6]  43-[-0  10]  53-[10  14]  63-[-0  4]  41-[1  10]  20-[1  14]  39-[-0  5]  1-[-0  12]  56-[-0  11]  57-[-0  4]  3-[12  16]  42-[5  16]  10-[11  16]  48-[-0  4]  44-[-0  14]  42-[7  16]  5-[0  2]  33-[4  15]  42-[9  14]  35-[-0  5] -> 0
 1-[-0  8]  42-[11  12]  34-[1  13]  22-[4  16]  45-[10  16]  60-[3  13]  63-[-0  2]  53-[4  8]  60-[2  14]  24-[-0  6]  59-[8  15]  35-[-0  14]  4-[11  15]  32-[-0  16]  25-[5  16]  54-[-0  7]  3-[1  3]  19-[9  14]  49-[1  9]  56-[-0  11]  6-[1  10]  53-[1  13] -> 0
 56-[-0  12]  44-[-0  12]  53-[4  16]  18-[14  16]  43-[-0  16]  62-[-0  1]  59-[2  16]  21-[12  15]  38-[2  9]  59-[1  15]  34-[3  15]  14-[-0  1]  3-[9  15]  46-[1  13]  37-[3  13]  25-[-0  10]  1-[-0  9]  35-[-0  13]  39-[-0  1]  34-[8  15]  60-[11  16]  10-[2  14] -> 0
 20-[-0  8]  28-[-0  7]  59-[1  15]  8-[-0  11]  48-[-0  6]  13-[1  13]  20-[12  16]  2-[4  12]  61-[2  5]  41-[1  9]  37-[7  16]  24-[-0  12]  8-[-0  13]  42-[13  15]  36-[-0  16]  32-[-0  13]  8-[-0  8]  9-[-0  14]  38-[3  9]  31-[-0  5]  31-[-0  12]  59-[6  16] -> 0
 26-[3  13]  42-[4  16]  53-[14  16]  20-[1  15]  41-[4  15]  23-[-0  13]  44-[-0  10]  6-[-0  9]  16-[-0  2]  50-[7  16]  60-[2  15]  19-[7  13]  2-[1  12]  32-[-0  1]  15-[-0  1]  28-[-0  12]  26-[8  11]  54-[1  7]  41-[4  11]  21-[1  16]  58-[4  9]  34-[6  9] -> 0
 5-[2  11]  17-[1  14]  14-[-0  11]  59-[2  16]  23-[-0  6]  13-[2  14]  35-[-0  4]  31-[-0  6]  31-[-0  10]  24-[-0  6]  16-[-0  8]  58-[1  9]  57-[-0  16]  36-[-0  12]  39-[-0  9]  44-[-0  11]  22-[1  8]  18-[1  16]  35-[-0  9]  47-[-0  15]  30-[2  12]  10-[1  15] -> 0
 3-[8  11]  47-[-0  11]  5-[2  16]  37-[1  16]  7-[-0  15]  47-[-0  13]  61-[3  15]  51-[6  16]  20-[-0  7]  46-[2  6]  2-[-0  11]  37-[8  16]  38-[1  6]  47-[-0  2]  17-[1  9]  8-[-0  16]  13-[1  13]  2-[-0  15]  42-[8  14]  44-[3  12]  31-[-0  8]  20-[-0  8] -> 0
 50-[1  16]  39-[-0  3]  18-[5  14]  37-[11  15]  41-[-0  10]  4-[7  13]  7-[-0  13]  22-[-0  3]  16-[-0  2]  51-[5  16]  51-[3  14]  32-[-0  9]  2-[-0  2]  46-[-0  14]  45-[7  13]  25-[-0  4]  39-[-0  6]  35-[6  13]  26-[15  16]  33-[-0  10]  1-[-0  4]  22-[-0  8] -> 0
 62-[0  11]  62-[0  7]  10-[3  16]  12-[4  15]  34-[13  16]  2-[1  12]  43-[1  5]  51-[2  16]  50-[13  16]  15-[-0  10]  40-[-0  3]  57-[-0  3]  32-[-0  9]  36-[-0  2]  5-[4  10]  26-[8  16]  52-[3  13]  27-[-0  4]  18-[3  16]  43-[1  11]  6-[-0  15]  35-[-0  16] -> 0
 17-[1  12]  17-[4  14]  32-[-0  7]  24-[-0  8]  17-[1  15]  17-[2  10]  2-[2  12]  25-[8  13]  51-[5  10]  21-[11  16]  25-[7  14]  6-[-0  2]  26-[7  12]  13-[4  12]  3-[10  16]  22-[3  8]  39-[-0  16]  10-[13  16]  57-[-0  1]  7-[-0  4]  31-[-0  9]  39-[-0  5] -> 0
 44-[-0  2]  46-[3  11]  1-[-0  4]  27-[-0  6]  6-[-0  16]  5-[3  5]  40-[-0  9]  37-[2  13]  34-[7  13]  12-[7  16]  55-[-0  14]  56-[-0  14]  25-[4  14]  17-[1  10]  34-[3  16]  40-[-0  3]  54-[1  5]  29-[7  16]  3-[6  15]  62-[-0  14]  37-[2  7]  15-[-0  4] -> 0
 11-[8  16]  32-[-0  7]  59-[10  16]  36-[-0  8]  2-[2  15]  38-[7  14]  21-[5  14]  47-[-0  9]  34-[2  16]  15-[-0  2]  38-[1  10]  21-[2  14]  10-[3  16]  59-[12  16]  59-[9  15]  29-[5  16]  60-[7  16]  30-[4  16]  48-[-0  1]  62-[-0  7]  31-[-0  3]  28-[-0  11] -> 0
 60-[14  16]  52-[6  15]  2-[4  15]  18-[15  16]  56-[-0  6]  48-[-0  15]  39-[-0  2]  45-[1  15]  57-[-0  8]  46-[4  16]  50-[8  16]  25-[4  15]  38-[4  16]  35-[-0  6]  61-[1  13]  25-[2  12]  55-[-0  8]  2-[5  10]  52-[2  14]  55-[-0  6]  4-[1  16]  50-[8  16] -> 0
 32-[-0  5]  25-[2  9]  23-[-0  -0]  44-[-0  5]  26-[7  16]  45-[8  10]  50-[1  16]  37-[5  14]  24-[-0  13]  12-[7  16]  45-[7  11]  33-[2  12]  31-[-0  4]  19-[13  16]  18-[14  16]  22-[-0  9]  17-[2  7]  54-[-0  15]  27-[9  15]  39-[-0  8]  10-[13  16]  12-[1  16] -> 0
 33-[2  8]  20-[0  4]  31-[-0  11]  49-[0  11]  9-[-0  5]  8-[-0  6]  22-[1  4]  59-[7  15]  34-[1  15]  52-[6  10]  54-[1  15]  47-[-0  16]  37-[4  6]  16-[-0  2]  41-[3  10]  31-[-0  8]  10-[10  15]  33-[4  10]  11-[4  16]  26-[4  11]  5-[0  8]  47-[-0  4] -> 0
 28-[-0  2]  34-[2  15]  23-[-0  16]  15-[-0  5]  12-[3  16]  25-[1  11]  11-[14  16]  46-[4  9]  44-[-0  3]  17-[3  7]  50-[2  14]  59-[10  16]  45-[4  13]  8-[-0  9]  13-[4  13]  4-[1  10]  34-[7  11]  4-[1  15]  16-[-0  9]  2-[8  16]  32-[-0  4]  51-[1  8] -> 0
 17-[2  12]  27-[-0  5]  29-[2  10]  48-[-0  15]  2-[2  12]  26-[6  14]  33-[5  10]  28-[-0  12]  62-[-0  2]  41-[3  14]  50-[7  16]  8-[-0  13]  38-[3  15]  32-[-0  14]  14-[-0  4]  28-[-0  8]  32-[-0  3]  25-[4  16]  39-[-0  2]  10-[6  16]  15-[-0  11]  51-[5  16] -> 0
 36-[-0  6]  6-[-0  13]  50-[13  16]  19-[3  8]  35-[-0  8]  38-[6  16]  9-[-0  15]  35-[-0  13]  57-[-0  7]  57-[-0  14]  12-[-0  2]  11-[11  13]  15-[-0  2]  38-[1  16]  45-[2  15]  56-[-0  1]  31-[-0  5]  41-[1  16]  26-[5  16]  53-[2  16]  11-[11  15]  19-[1  8] -> 0
 23-[-0  5]  56-[-0  6]  39-[-0  2]  50-[7  16]  45-[5  16]  60-[9  16]  61-[4  14]  36-[-0  7]  25-[3  16]  3-[4  15]  12-[6  16]  32-[-0  4]  8-[-0  10]  26-[10  13]  24-[-0  16]  9-[-0  14]  34-[2  14]  33-[3  9]  31-[-0  4]  46-[3  14]  45-[6  10]  21-[9  16] -> 0
 60-[5  15]  14-[-0  14]  7-[-0  5]  42-[1  14]  61-[3  11]  5-[-0  1]  18-[2  16]  16-[-0  10]  26-[6  12]  49-[-0  13]  48-[-0  13]  10-[2  16]  7-[-0  9]  23-[-0  7]  58-[1  8]  32-[-0  9]  18-[7  16]  22-[-0  12]  18-[13  16]  27-[-0  8]  5-[-0  11]  42-[6  15] -> 0
 47-[-0  13]  62-[-0  6]  9-[-0  8]  44-[-0  9]  7-[-0  1]  17-[3  8]  39-[-0  15]  15-[-0  14]  18-[4  15]  32-[-0  12]  37-[2  11]  27-[-0  9]  47-[-0  14]  30-[5  16]  15-[-0  9]  6-[-0  12]  13-[6  15]  17-[2  13]  14-[-0  15]  34-[5  14]  45-[1  16]  16-[-0  12] -> 0
 48-[-0  6]  7-[-0  3]  2-[5  9]  54-[2  5]  51-[6  13]  45-[1  16]  39-[-0  12]  37-[1  16]  15-[-0  3]  35-[-0  2]  18-[6  16]  10-[7  16]  25-[4  7]  32-[-0  7]  58-[1  8]  26-[4  11]  32-[-0  12]  40-[-0  2]  1-[-0  15]  18-[4  16]  18-[3  16]  11-[3  10] -> 0
 17-[2  16]  6-[-0  7]  48-[-0  12]  48-[-0  8]  5-[8  16]  48-[-0  5]  30-[3  16]  35-[-0  16]  29-[1  9]  50-[2  12]  5-[-0  16]  8-[-0  11]  55-[-0  4]  52-[6  16]  54-[2  12]  48-[-0  12]  44-[-0  12]  49-[-0  1]  7-[-0  1]  31-[-0  15]  16-[-0  11]  8-[-0  2] -> 0
 1-[-0  5]  14-[-0  1]  20-[-0  3]  31-[-0  7]  25-[1  4]  51-[9  14]  34-[11  16]  47-[-0  14]  7-[-0  3]  49-[-0  14]  25-[1  16]  44-[1  14]  29-[10  12]  1-[-0  7]  21-[2  16]  49-[-0  14]  3-[7  16]  43-[2  4]  63-[-0  13]  2-[1  5]  19-[2  6]  19-[3  12] -> 0
 52-[9  16]  34-[8  16]  11-[4  9]  46-[-0  4]  1-[-0  6]  46-[-0  14]  31-[-0  9]  46-[-0  8]  54-[-0  10]  34-[4  16]  59-[11  13]  16-[-0  9]  14-[-0  12]  53-[4  10]  52-[3  16]  33-[-0  -0]  55-[-0  4]  37-[3  16]  33-[-0  13]  37-[1  7]  18-[2  11]  31-[-0  11] -> 1
 8-[-0  4]  9-[-0  8]  43-[14  16]  35-[13  16]  39-[-0  7]  50-[-0  12]  47-[-0  14]  15-[-0  14]  63-[-0  13]  58-[-0  2]  60-[6  16]  41-[-0  1]  55-[-0  12]  61-[3  10]  47-[-0  3]  40-[-0  6]  6-[-0  2]  62-[-0  4]  52-[8  16]  60-[6  16]  10-[-0  15]  46-[-0  11] -> 1
 33-[-0  16]  53-[2  16]  24-[-0  6]  16-[-0  8]  44-[2  16]  37-[-0  16]  4-[-0  8]  35-[3  16]  13-[-0  16]  59-[4  16]  48-[-0  -0]  29-[-0  10]  29-[-0  11]  15-[-0  3]  62-[7  16]  51-[7  16]  27-[15  16]  8-[-0  8]  31-[-0  6]  22-[-0  14]  2-[6  14]  50-[5  16] -> 1
 1-[-0  15]  34-[6  16]  55-[-0  5]  15-[-0  6]  45-[-0  13]  43-[5  16]  19-[8  16]  15-[-0  5]  9-[-0  9]  39-[-0  14]  44-[11  16]  25-[-0  4]  27-[10  16]  19-[12  16]  26-[4  16]  35-[4  16]  6-[-0  10]  23-[-0  7]  18-[11  15]  9-[-0  2]  26-[4  16]  32-[-0  10] -> 1
 25-[1  12]  16-[-0  13]  21-[2  13]  31-[-0  14]  62-[3  8]  59-[-0  10]  34-[-0  11]  43-[-0  7]  57-[-0  6]  6-[-0  10]  42-[-0  7]  10-[-0  2]  10-[-0  8]  21-[5  16]  16-[-0  3]  62-[3  8]  44-[7  16]  46-[-0  9]  10-[-0  2]  38-[-0  1]  29-[7  12]  19-[1  15] -> 1
 25-[0  9]  54-[-0  9]  2-[-0  2]  60-[6  15]  55-[-0  13]  43-[5  15]  8-[-0  1]  10-[-0  15]  47-[-0  8]  13-[11  16]  7-[-0  10]  49-[-0  2]  19-[8  13]  2-[-0  10]  35-[4  16]  61-[6  16]  43-[0  10]  25-[0  3]  7-[-0  15]  13-[13  16]  39-[-0  9]  20-[1  16] -> 1
 34-[1  10]  37-[1  10]  55-[-0  3]  6-[-0  7]  34-[1  10]  40-[-0  11]  19-[9  16]  4-[5  13]  15-[-0  5]  30-[-0  1]  19-[1  16]  26-[8  16]  59-[3  11]  14-[-0  13]  25-[-0  9]  6-[-0  11]  12-[2  16]  56-[-0  4]  11-[12  16]  32-[-0  15]  18-[2  15]  25-[-0  1] -> 1
 34-[-0  8]  51-[-0  6]  3-[0  6]  26-[8  16]  5-[14  16]  8-[-0  16]  15-[-0  2]  12-[3  16]  24-[-0  11]  37-[3  16]  51-[-0  14]  59-[-0  16]  12-[12  16]  60-[9  15]  48-[-0  14]  38-[-0  1]  61-[4  16]  24-[-0  12]  35-[-0  15]  41-[-0  4]  45-[3  16]  40-[-0  4] -> 1
 23-[-0  11]  26-[4  12]  48-[-0  7]  24-[-0  14]  11-[3  16]  36-[15  16]  49-[-0  12]  3-[2  16]  5-[-0  8]  51-[6  12]  60-[7  16]  42-[-0  6]  50-[1  8]  8-[-0  6]  17-[-0  11]  27-[7  16]  57-[-0  15]  13-[-0  12]  25-[-0  6]  20-[8  16]  58-[2  14]  32-[-0  6] -> 1
 17-[-0  8]  20-[4  16]  42-[6  8]  45-[1  12]  17-[-0  12]  32-[-0  9]  27-[1  16]  13-[1  9]  18-[-0  14]  11-[1  13]  16-[-0  14]  35-[4  12]  42-[3  13]  12-[1  16]  48-[-0  1]  43-[0  16]  53-[2  12]  52-[11  16]  40-[-0  4]  19-[8  12]  18-[-0  14]  9-[-0  15] -> 1
 21-[8  16]  47-[-0  14]  9-[-0  3]  28-[7  16]  39-[-0  13]  58-[0  13]  30-[-0  16]  14-[-0  5]  23-[-0  8]  43-[4  16]  15-[-0  13]  47-[-0  3]  5-[4  11]  45-[7  16]  19-[2  16]  34-[1  13]  61-[-0  2]  21-[2  15]  43-[11  16]  2-[1  12]  16-[-0  8]  23-[-0  16] -> 1
 26-[13  16]  9-[-0  9]  3-[1  11]  57-[-0  16]  25-[2  15]  42-[-0  11]  48-[-0  16]  21-[4  15]  48-[-0  7]  37-[6  15]  33-[2  14]  15-[-0  14]  21-[10  16]  29-[4  16]  57-[-0  1]  12-[2  16]  2-[-0  8]  52-[11  16]  45-[8  16]  30-[-0  1]  38-[-0  13]  29-[3  13] -> 1
 38-[-0  9]  14-[5  14]  28-[4  15]  2-[-0  16]  59-[-0  1]  47-[-0  9]  59-[7  13]  38-[-0  9]  33-[-0  13]  11-[4  16]  56-[-0  11]  51-[-0  10]  2-[-0  6]  58-[-0  6]  47-[-0  14]  51-[-0  3]  17-[6  12]  18-[15  16]  6-[6  11]  14-[8  14]  4-[3  14]  38-[-0  4] -> 1
 44-[1  5]  46-[1  6]  8-[-0  10]  39-[-0  16]  17-[0  6]  38-[1  12]  29-[14  16]  58-[-0  2]  54-[1  12]  48-[-0  14]  22-[1  7]  58-[-0  8]  51-[-0  3]  11-[0  9]  9-[-0  2]  57-[-0  10]  13-[5  16]  27-[5  9]  26-[4  15]  57-[-0  11]  22-[3  5]  36-[3  13] -> 1
 47-[-0  2]  55-[-0  10]  32-[-0  13]  1-[-0  7]  27-[12  16]  32-[-0  4]  28-[4  16]  44-[5  16]  7-[-0  3]  52-[3  16]  7-[-0  2]  10-[-0  5]  1-[-0  16]  63-[-0  14]  22-[-0  4]  40-[-0  13]  12-[2  16]  14-[0  10]  22-[-0  4]  49-[-0  13]  5-[2  16]  47-[-0  12] -> 1
 29-[-0  2]  47-[-0  2]  53-[2  15]  17-[-0  16]  45-[2  12]  13-[-0  10]  12-[1  7]  24-[-0  3]  44-[2  16]  1-[-0  8]  34-[-0  13]  19-[12  16]  21-[-0  14]  32-[-0  15]  27-[3  16]  54-[3  14]  19-[3  16]  27-[5  16]  4-[-0  16]  47-[-0  4]  47-[-0  10]  20-[2  7] -> 1
 6-[-0  2]  18-[-0  14]  40-[-0  15]  26-[-0  7]  63-[-0  3]  31-[-0  6]  24-[-0  8]  13-[1  12]  62-[-0  9]  32-[-0  2]  62-[-0  2]  51-[8  16]  57-[-0  13]  39-[-0  12]  17-[-0  5]  18-[-0  15]  46-[-0  11]  36-[1  16]  34-[6  14]  60-[10  14]  24-[-0  15]  40-[-0  3] -> 1
 51-[13  16]  33-[-0  8]  24-[-0  11]  42-[1  10]  34-[1  9]  14-[-0  9]  47-[-0  13]  61-[3  9]  44-[7  16]  17-[-0  15]  27-[10  16]  12-[2  16]  41-[-0  3]  19-[3  16]  51-[12  16]  22-[-0  15]  15-[-0  9]  52-[7  16]  5-[3  13]  3-[11  16]  1-[-0  7]  55-[-0  16] -> 1
 31-[-0  9]  9-[-0  16]  46-[2  4]  36-[4  8]  32-[-0  4]  44-[3  11]  63-[-0  5]  60-[10  15]  40-[-0  7]  40-[-0  2]  23-[-0  15]  27-[-0  11]  2-[-0  14]  21-[7  16]  20-[12  14]  9-[-0  5]  14-[1  6]  26-[13  16]  52-[6  9]  6-[-0  4]  25-[1  13]  55-[-0  7] -> 1
 57-[-0  2]  31-[-0  4]  57-[-0  16]  46-[2  9]  32-[-0  2]  62-[1  12]  39-[-0  13]  5-[8  16]  51-[-0  15]  25-[1  7]  50-[-0  3]  1-[-0  2]  40-[-0  6]  50-[-0  4]  62-[2  10]  62-[4  14]  45-[2  16]  34-[-0  16]  26-[6  10]  7-[-0  9]  46-[3  16]  30-[-0  1] -> 1
 28-[3  10]  26-[5  13]  45-[0  15]  14-[-0  6]  58-[3  13]  39-[-0  4]  44-[13  16]  21-[-0  3]  60-[13  16]  39-[-0  5]  46-[-0  15]  36-[2  12]  52-[15  16]  43-[6  15]  36-[3  12]  6-[-0  4]  49-[-0  7]  10-[7  14]  16-[-0  9]  43-[5  12]  57-[-0  5]  12-[0  15] -> 1
 34-[-0  4]  35-[3  14]  20-[11  16]  11-[11  16]  50-[-0  2]  23-[-0  13]  44-[7  16]  62-[-0  16]  52-[13  15]  34-[-0  15]  13-[2  11]  52-[9  15]  48-[-0  9]  16-[4  8]  59-[6  15]  4-[2  16]  13-[3  10]  4-[3  16]  33-[-0  15]  16-[4  7]  41-[-0  8]  3-[9  15] -> 1
 61-[12  16]  35-[9  15]  1-[-0  4]  9-[-0  11]  30-[-0  5]  13-[-0  8]  2-[1  15]  6-[-0  9]  13-[-0  11]  24-[-0  8]  35-[5  11]  47-[-0  1]  48-[-0  5]  10-[5  14]  63-[4  14]  10-[4  11]  59-[6  16]  29-[-0  3]  29-[-0  10]  41-[-0  7]  1-[-0  13]  19-[13  16] -> 1
 9-[-0  6]  53-[3  15]  25-[3  12]  22-[-0  1]  28-[10  16]  50-[6  14]  38-[-0  10]  17-[-0  15]  39-[-0  14]  2-[3  16]  22-[-0  12]  24-[-0  12]  8-[-0  5]  8-[-0  7]  34-[7  16]  12-[6  16]  47-[-0  4]  23-[-0  1]  43-[6  16]  44-[6  16]  49-[-0  4]  49-[-0  4] -> 1
 57-[-0  12]  12-[13  16]  57-[-0  5]  3-[-0  5]  36-[5  13]  8-[-0  9]  42-[-0  7]  44-[5  15]  43-[-0  6]  35-[-0  12]  32-[-0  15]  13-[13  16]  4-[3  15]  40-[-0  15]  42-[-0  11]  13-[11  16]  40-[-0  11]  59-[-0  2]  58-[-0  3]  7-[-0  14]  23-[-0  12]  45-[3  16] -> 1
 45-[-0  15]  62-[-0  4]  6-[-0  15]  8-[-0  6]  58-[-0  13]  13-[5  7]  58-[-0  11]  29-[-0  10]  50-[3  13]  11-[10  16]  15-[-0  6]  46-[-0  5]  8-[-0  5]  57-[-0  16]  19-[12  16]  26-[13  16]  7-[-0  6]  50-[4  7]  44-[5  16]  57-[-0  8]  26-[12  16]  56-[-0  2] -> 1
 23-[-0  1]  25-[-0  15]  15-[-0  1]  51-[2  16]  60-[10  16]  1-[-0  13]  29-[2  6]  19-[7  16]  12-[11  16]  60-[11  14]  18-[3  14]  5-[2  10]  32-[-0  12]  60-[9  16]  53-[0  9]  45-[0  2]  31-[-0  12]  39-[-0  14]  23-[-0  15]  21-[5  13]  60-[4  15]  56-[-0  11] -> 1
 25-[-0  10]  40-[-0  1]  40-[-0  4]  59-[4  15]  18-[2  16]  1-[-0  13]  27-[1  14]  32-[-0  13]  54-[5  12]  27-[10  13]  1-[-0  7]  23-[-0  5]  16-[-0  5]  35-[0  10]  31-[-0  11]  43-[-0  4]  54-[2  10]  46-[-0  10]  9-[-0  1]  27-[8  15]  2-[1  16]  55-[2  11] -> 1
 43-[-0  12]  27-[0  5]  7-[-0  16]  4-[2  8]  32-[-0  10]  58-[-0  11]  28-[2  14]  23-[-0  5]  41-[-0  16]  55-[-0  15]  18-[12  16]  2-[-0  13]  13-[2  16]  48-[-0  12]  17-[3  16]  31-[-0  13]  23-[-0  5]  50-[-0  1]  45-[10  16]  43-[-0  9]  53-[8  16]  31-[-0  11] -> 1
 17-[8  15]  62-[6  13]  24-[-0  1]  43-[-0  2]  31-[-0  12]  16-[-0  10]  22-[5  13]  32-[-0  5]  19-[5  14]  37-[4  16]  5-[3  16]  33-[-0  1]  26-[2  8]  52-[6  13]  56-[-0  7]  22-[3  16]  42-[-0  10]  14-[4  12]  46-[-0  1]  35-[-0  4]  43-[-0  4]  16-[-0  4] -> 1
 11-[3  10]  13-[11  16]  5-[14  16]  9-[-0  9]  28-[8  16]  52-[2  13]  6-[0  13]  13-[2  16]  61-[15  16]  23-[-0  6]  47-[-0  4]  43-[-0  6]  9-[-0  16]  24-[-0  14]  11-[4  13]  53-[5  14]  63-[-0  15]  7-[-0  5]  38-[-0  2]  61-[14  16]  14-[1  14]  51-[-0  2] -> 1
 18-[3  16]  37-[-0  12]  11-[1  16]  40-[-0  10]  45-[4  13]  4-[0  9]  40-[-0  4]  10-[4  11]  62-[2  16]  10-[2  13]  29-[-0  2]  1-[-0  6]  34-[7  10]  45-[1  6]  34-[3  16]  28-[5  12]  18-[6  15]  47-[-0  10]  60-[3  16]  57-[-0  3]  62-[11  16]  37-[-0  6] -> 1
 28-[10  16]  2-[6  8]  4-[0  5]  24-[-0  4]  12-[7  10]  11-[3  16]  45-[8  16]  60-[5  16]  50-[3  13]  17-[4  11]  54-[3  15]  58-[3  16]  2-[6  10]  48-[-0  10]  38-[-0  10]  58-[1  13]  8-[-0  8]  39-[-0  2]  27-[10  15]  20-[2  14]  40-[-0  14]  53-[7  16] -> 1
 48-[-0  10]  41-[-0  15]  47-[-0  8]  35-[5  7]  60-[7  16]  7-[-0  3]  26-[0  3]  47-[-0  4]  6-[-0  14]  20-[7  15]  34-[-0  9]  28-[14  16]  61-[3  16]  22-[-0  4]  4-[1  5]  48-[-0  1]  16-[-0  14]  26-[0  4]  59-[6  16]  32-[-0  16]  43-[4  11]  29-[-0  1] -> 2
 53-[5  16]  55-[-0  14]  62-[2  9]  17-[1  16]  16-[-0  14]  58-[5  16]  28-[13  16]  25-[-0  13]  6-[-0  14]  53-[5  16]  19-[1  11]  28-[4  16]  33-[-0  13]  62-[1  15]  50-[4  15]  39-[-0  2]  8-[-0  9]  59-[11  16]  32-[-0  16]  4-[1  7]  28-[10  16]  49-[0  3] -> 2
 19-[1  10]  1-[2  12]  56-[-0  4]  51-[12  16]  32-[-0  11]  56-[-0  3]  8-[-0  13]  48-[-0  14]  37-[1  8]  24-[-0  15]  24-[-0  14]  63-[-0  3]  11-[6  15]  53-[4  16]  13-[-0  3]  38-[-0  12]  37-[1  4]  61-[3  16]  2-[8  16]  14-[-0  9]  63-[-0  13]  53-[5  16] -> 2
 60-[11  16]  60-[9  16]  17-[1  16]  56-[-0  6]  8-[-0  2]  39-[-0  11]  10-[10  16]  33-[-0  9]  28-[3  16]  56-[-0  14]  42-[0  16]  33-[-0  16]  41-[-0  5]  31-[-0  12]  59-[4  16]  18-[2  15]  25-[-0  13]  24-[-0  14]  55-[-0  5]  52-[6  16]  62-[2  16]  55-[-0  10] -> 2
 22-[-0  7]  17-[1  13]  47-[-0  5]  4-[1  9]  43-[10  15]  14-[-0  14]  39-[-0  2]  46-[-0  12]  15-[-0  1]  50-[9  14]  54-[1  15]  56-[-0  2]  1-[0  11]  17-[6  13]  46-[-0  15]  17-[6  12]  41-[-0  15]  1-[0  11]  50-[1  12]  47-[-0  14]  51-[5  16]  61-[10  15] -> 2
 45-[-0  5]  22-[-0  12]  15-[-0  13]  55-[-0  10]  33-[-0  11]  52-[5  16]  34-[-0  13]  26-[-0  4]  33-[-0  3]  31-[-0  14]  7-[-0  4]  60-[8  14]  23-[-0  4]  44-[1  3]  3-[8  16]  39-[-0  5]  4-[6  9]  58-[5  16]  18-[-0  15]  43-[13  16]  36-[2  13]  54-[1  9] -> 2
 27-[-0  8]  26-[3  6]  21-[1  15]  32-[-0  7]  60-[10  16]  56-[-0  11]  53-[1  11]  50-[-0  13]  1-[-0  11]  8-[-0  6]  9-[3  16]  53-[1  6]  52-[11  14]  51-[4  11]  56-[-0  8]  43-[-0  5]  51-[6  16]  35-[3  14]  50-[-0  5]  25-[3  14]  30-[-0  10]  44-[4  13] -> 2
 29-[1  9]  58-[7  16]  43-[6  15]  24-[-0  2]  25-[0  6]  4-[1  10]  19-[3  8]  12-[4  14]  63-[-0  4]  37-[-0  16]  44-[1  16]  28-[12  16]  20-[3  16]  30-[-0  13]  51-[12  16]  7-[-0  5]  35-[5  11]  16-[-0  14]  33-[-0  2]  38-[-0  12]  31-[-0  14]  9-[3  14] -> 2
 63-[-0  5]  9-[8  14]  57-[1  16]  55-[-0  11]  41-[-0  12]  31-[-0  8]  12-[2  15]  19-[2  7]  21-[-0  3]  41-[-0  12]  56-[-0  3]  39-[-0  3]  60-[2  14]  4-[0  14]  62-[5  12]  22-[-0  7]  14-[-0  13]  18-[6  15]  24-[-0  15]  45-[-0  14]  41-[-0  9]  20-[11  15] -> 2
 49-[2  13]  38-[-0  12]  48-[-0  3]  52-[8  15]  7-[-0  15]  38-[-0  10]  60-[14  16]  13-[-0  1]  24-[-0  8]  21-[-0  15]  2-[10  16]  45-[-0  9]  28-[8  16]  34-[-0  10]  57-[2  9]  39-[-0  7]  50-[10  16]  16-[-0  3]  45-[-0  6]  61-[5  16]  57-[1  5]  25-[0  10] -> 2
 40-[-0  12]  47-[-0  4]  24-[-0  11]  19-[8  14]  1-[-0  4]  17-[-0  11]  5-[-0  6]  28-[1  12]  51-[4  12]  60-[7  16]  40-[-0  6]  8-[-0  12]  20-[3  14]  54-[1  16]  25-[-0  9]  3-[1  16]  45-[5  16]  8-[-0  14]  5-[1  12]  41-[-0  4]  29-[13  16]  14-[-0  9] -> 2
 4-[2  11]  57-[-0  2]  7-[-0  9]  9-[-0  13]  24-[-0  12]  3-[4  16]  38-[-0  2]  54-[1  16]  47-[-0  16]  39-[-0  16]  39-[-0  1]  46-[-0  5]  2-[3  15]  48-[-0  -0]  63-[0  6]  57-[-0  5]  57-[-0  6]  48-[-0  12]  27-[-0  16]  47-[-0  8]  63-[0  14]  53-[4  12] -> 2
 38-[-0  16]  35-[7  14]  40-[-0  4]  59-[8  16]  13-[-0  1]  39-[-0  3]  1-[0  5]  60-[1  16]  57-[-0  1]  50-[5  15]  3-[12  16]  11-[12  15]  61-[3  14]  17-[6  14]  5-[-0  16]  3-[8  16]  38-[-0  16]  52-[5  15]  18-[5  16]  9-[4  8]  8-[-0  4]  52-[1  16] -> 2
 8-[-0  13]  42-[2  9]  43-[9  16]  16-[-0  11]  17-[7  14]  23-[-0  4]  22-[-0  12]  4-[-0  5]  8-[-0  6]  14-[-0  6]  30-[-0  8]  17-[7  13]  54-[3  16]  5-[-0  4]  2-[5  16]  52-[3  9]  36-[-0  5]  20-[1  8]  44-[-0  3]  52-[4  12]  3-[5  11]  11-[3  16] -> 2
 14-[-0  3]  62-[5  14]  12-[1  16]  32-[-0  14]  9-[-0  2]  58-[1  8]  29-[-0  15]  33-[-0  11]  62-[7  16]  20-[2  16]  38-[-0  2]  56-[-0  12]  5-[-0  9]  62-[12  14]  5-[-0  8]  43-[3  7]  53-[9  16]  5-[-0  4]  50-[6  14]  27-[-0  11]  44-[14  15]  15-[-0  13] -> 2
 2-[8  15]  57-[0  10]  58-[3  13]  12-[8  16]  60-[4  10]  33-[-0  2]  18-[8  13]  52-[8  15]  26-[1  7]  63-[-0  3]  26-[1  12]  62-[-0  9]  63-[-0  9]  59-[8  16]  20-[10  15]  3-[1  13]  31-[-0  6]  36-[1  14]  31-[-0  1]  15-[-0  14]  4-[1  11]  14-[-0  12] -> 2
 20-[5  14]  30-[-0  12]  10-[5  13]  16-[-0  14]  47-[-0  7]  33-[-0  3]  37-[-0  4]  42-[3  10]  48-[-0  10]  42-[2  10]  50-[1  15]  10-[7  16]  52-[6  14]  19-[-0  5]  32-[-0  15]  53-[1  3]  24-[-0  5]  7-[-0  8]  15-[-0  8]  26-[1  13]  15-[-0  5]  22-[-0  10] -> 2
 25-[0  3]  53-[1  16]  14-[-0  2]  7-[-0  12]  54-[5  13]  43-[7  11]  57-[-0  7]  51-[3  16]  7-[-0  12]  54-[8  12]  43-[7  11]  53-[2  16]  24-[-0  1]  18-[3  15]  51-[14  16]  61-[2  16]  22-[-0  15]  47-[-0  8]  49-[-0  16]  13-[-0  8]  3-[9  16]  18-[6  13] -> 2
 23-[-0  16]  31-[-0  12]  31-[-0  13]  15-[-0  14]  36-[6  13]  52-[2  16]  38-[-0  15]  37-[5  15]  53-[4  11]  27-[1  6]  29-[3  9]  18-[3  13]  57-[-0  5]  59-[11  16]  39-[-0  4]  51-[4  16]  21-[4  14]  44-[8  16]  17-[-0  15]  46-[-0  16]  14-[-0  13]  59-[14  16] -> 2
 41-[-0  1]  51-[12  16]  49-[0  14]  8-[-0  4]  41-[-0  11]  33-[-0  14]  56-[-0  10]  8-[-0  14]  49-[3  7]  10-[11  16]  24-[-0  5]  38-[-0  16]  16-[-0  4]  3-[9  16]  14-[-0  11]  60-[9  14]  6-[-0  11]  8-[-0  16]  53-[3  16]  30-[-0  16]  6-[-0  8]  16-[-0  12] -> 2
 17-[1  10]  43-[4  13]  54-[7  14]  35-[1  12]  36-[5  16]  20-[5  14]  16-[-0  7]  44-[1  12]  41-[-0  12]  14-[-0  14]  18-[4  15]  27-[2  7]  59-[6  15]  29-[-0  8]  44-[4  14]  13-[-0  7]  38-[-0  14]  57-[-0  13]  30-[-0  12]  40-[-0  5]  61-[6  15]  30-[-0  11] -> 2
 60-[13  16]  43-[3  15]  2-[1  16]  35-[-0  6]  10-[8  14]  23-[-0  12]  12-[10  16]  59-[8  14]  33-[-0  10]  12-[6  14]  17-[1  10]  2-[1  8]  57-[-0  5]  52-[7  15]  28-[1  16]  3-[8  14]  28-[1  12]  28-[2  7]  27-[-0  7]  46-[-0  9]  39-[-0  5]  47-[-0  11] -> 2
 28-[5  12]  27-[-0  15]  9-[-0  13]  26-[-0  5]  17-[-0  11]  28-[1  8]  50-[5  16]  18-[6  13]  35-[0  2]  62-[10  14]  41-[-0  13]  43-[8  10]  23-[-0  12]  58-[5  12]  38-[-0  16]  22-[3  9]  34-[-0  4]  9-[-0  11]  62-[5  14]  40-[-0  4]  30-[-0  7]  22-[3  12] -> 2
 39-[-0  13]  49-[-0  16]  50-[3  15]  58-[3  8]  52-[12  16]  53-[4  16]  2-[4  8]  58-[4  12]  9-[-0  8]  53-[7  16]  54-[4  16]  29-[4  10]  52-[1  16]  58-[5  12]  60-[1  10]  46-[1  14]  33-[-0  12]  33-[-0  2]  37-[6  15]  40-[-0  7]  55-[1  11]  50-[5  8] -> 2
 36-[2  12]  45-[-0  12]  50-[4  16]  56-[-0  6]  20-[12  16]  44-[-0  2]  62-[2  16]  53-[1  11]  17-[0  8]  41-[1  10]  12-[10  16]  46-[-0  13]  42-[2  16]  47-[-0  5]  5-[0  16]  48-[-0  3]  60-[9  13]  19-[-0  1]  8-[-0  1]  49-[3  7]  40-[-0  6]  30-[-0  15] -> 2
 20-[8  16]  32-[-0  7]  49-[1  14]  49-[3  15]  31-[-0  3]  35-[8  15]  32-[-0  14]  54-[4  15]  14-[-0  8]  44-[4  11]  23-[-0  3]  17-[4  15]  34-[0  12]  35-[13  15]  37-[-0  4]  30-[-0  3]  5-[-0  15]  1-[1  9]  43-[10  16]  57-[1  7]  33-[-0  16]  42-[4  15] -> 2
 19-[-0  11]  59-[7  16]  36-[3  12]  21-[6  16]  37-[4  11]  43-[9  12]  40-[-0  14]  57-[-0  2]  27-[-0  5]  20-[1  9]  5-[-0  12]  53-[6  15]  13-[9  15]  57-[-0  5]  59-[7  15]  4-[3  13]  48-[-0  15]  38-[-0  3]  2-[7  15]  18-[1  14]  42-[-0  11]  14-[-0  16] -> 2
 28-[9  16]  26-[-0  2]  10-[11  15]  47-[-0  4]  36-[0  16]  49-[2  5]  5-[1  8]  14-[-0  10]  15-[-0  4]  21-[4  15]  43-[4  14]  22-[-0  10]  54-[1  4]  6-[-0  5]  42-[3  16]  46-[-0  13]  51-[5  10]  48-[-0  7]  49-[1  10]  54-[1  7]  48-[-0  16]  55-[-0  11] -> 2
 22-[-0  16]  3-[2  16]  11-[7  15]  53-[14  16]  35-[3  9]  55-[-0  11]  36-[3  15]  1-[0  7]  41-[-0  15]  25-[0  10]  28-[10  16]  5-[-0  15]  4-[1  12]  8-[-0  14]  47-[-0  11]  36-[3  15]  53-[9  16]  16-[-0  15]  29-[-0  8]  41-[-0  11]  28-[5  15]  26-[-0  14] -> 2
 16-[-0  14]  54-[3  6]  38-[-0  14]  41-[-0  12]  6-[-0  2]  34-[-0  7]  2-[9  14]  17-[2  16]  48-[-0  10]  8-[-0  7]  25-[-0  11]  22-[-0  4]  13-[-0  14]  11-[1  16]  56-[-0  16]  35-[8  16]  17-[11  16]  43-[4  16]  54-[1  7]  56-[-0  2]  51-[13  16]  28-[3  16] -> 2
 4-[2  13]  31-[-0  3]  2-[1  11]  59-[15  16]  49-[-0  10]  21-[2  8]  48-[-0  6]  11-[9  16]  35-[0  11]  30-[-0  15]  20-[7  13]  31-[-0  8]  49-[-0  4]  51-[8  16]  18-[6  13]  63-[0  3]  8-[-0  3]  14-[-0  4]  60-[1  16]  62-[7  14]  28-[9  16]  9-[2  16] -> 2
 9-[-0  3]  54-[7  11]  48-[-0  15]  24-[-0  15]  14-[-0  4]  1-[-0  11]  43-[-0  12]  34-[-0  1]  15-[-0  12]  16-[-0  4]  20-[1  13]  51-[7  16]  37-[2  16]  25-[-0  6]  53-[12  15]  4-[5  15]  3-[14  15]  31-[-0  15]  57-[-0  11]  58-[5  14]  59-[2  16]  27-[1  6] -> 2
 36-[11  16]  34-[-0  6]  36-[11  16]  21-[2  11]  6-[-0  14]  2-[1  6]  37-[1  12]  17-[1  7]  13-[1  14]  55-[1  15]  37-[1  6]  33-[-0  10]  33-[-0  14]  6-[-0  14]  24-[-0  1]  41-[-0  11]  55-[2  12]  13-[4  13]  33-[-0  3]  18-[11  16]  57-[-0  10]  21-[6  12] -> 2
 38-[4  11]  56-[-0  11]  23-[-0  14]  42-[-0  12]  32-[-0  7]  12-[3  10]  37-[11  16]  52-[11  15]  55-[-0  5]  27-[3  14]  39-[-0  7]  44-[-0  16]  53-[9  15]  26-[-0  11]  18-[-0  6]  63-[-0  5]  42-[-0  13]  24-[-0  4]  56-[-0  1]  3-[10  14]  60-[3  8]  18-[-0  7] -> 3
 31-[-0  12]  23-[-0  14]  24-[-0  7]  63-[-0  16]  6-[0  10]  13-[5  15]  46-[1  13]  52-[2  16]  20-[2  12]  16-[-0  8]  45-[8  16]  9-[4  13]  18-[5  11]  41-[-0  9]  31-[-0  2]  19-[2  16]  40-[-0  9]  25-[0  3]  60-[4  14]  12-[7  16]  7-[-0  3]  40-[-0  1] -> 3
 61-[5  12]  61-[4  11]  23-[-0  2]  8-[-0  6]  39-[-0  7]  46-[8  14]  1-[-0  4]  39-[-0  14]  26-[-0  8]  24-[-0  10]  16-[-0  7]  58-[5  15]  46-[1  16]  16-[-0  1]  49-[-0  14]  15-[-0  6]  60-[6  16]  24-[-0  5]  24-[-0  6]  60-[4  16]  40-[-0  10]  51-[7  12] -> 3
 53-[7  16]  18-[-0  4]  43-[4  15]  6-[0  9]  35-[6  16]  33-[-0  14]  17-[-0  1]  31-[-0  1]  11-[5  16]  11-[3  12]  7-[-0  9]  50-[2  10]  47-[-0  9]  24-[-0  4]  37-[-0  10]  45-[7  12]  62-[-0  3]  53-[13  15]  46-[-0  10]  26-[1  10]  15-[-0  7]  30-[-0  6] -> 3
 17-[-0  1]  2-[1  11]  25-[-0  2]  59-[2  15]  11-[5  10]  54-[0  4]  22-[0  8]  54-[0  14]  18-[-0  7]  16-[-0  13]  25-[-0  8]  26-[-0  1]  14-[0  14]  23-[-0  4]  8-[-0  1]  28-[7  16]  19-[3  15]  37-[5  14]  46-[-0  2]  43-[-0  16]  58-[2  6]  56-[-0  2] -> 3
 34-[-0  11]  32-[-0  15]  32-[-0  16]  58-[3  15]  48-[-0  13]  21-[7  16]  20-[2  16]  44-[1  5]  61-[-0  13]  3-[10  14]  14-[1  6]  32-[-0  13]  52-[4  15]  1-[-0  9]  30-[-0  15]  49-[-0  6]  6-[-0  5]  32-[-0  8]  36-[5  14]  62-[-0  11]  43-[-0  16]  34-[-0  1] -> 3
 18-[6  12]  36-[1  15]  6-[-0  5]  43-[-0  11]  41-[-0  8]  30-[-0  11]  30-[-0  7]  55-[-0  7]  55-[-0  5]  31-[-0  3]  38-[1  4]  49-[1  13]  49-[1  7]  25-[-0  12]  3-[3  15]  36-[6  11]  7-[-0  4]  10-[2  16]  35-[-0  14]  16-[-0  11]  51-[1  11]  13-[3  9] -> 3
 60-[3  16]  51-[2  8]  3-[1  16]  28-[9  16]  60-[1  16]  44-[-0  3]  61-[7  16]  26-[-0  2]  16-[-0  3]  49-[-0  9]  10-[2  16]  6-[-0  9]  32-[-0  13]  16-[-0  11]  39-[-0  14]  60-[1  16]  62-[0  4]  15-[-0  10]  42-[-0  16]  26-[-0  12]  4-[8  15]  61-[10  14] -> 3
 10-[13  16]  45-[1  12]  3-[9  15]  19-[2  9]  57-[-0  6]  51-[4  15]  61-[9  13]  33-[-0  3]  14-[-0  7]  45-[5  14]  9-[4  10]  50-[11  16]  31-[-0  14]  58-[2  6]  40-[-0  12]  2-[2  6]  37-[9  16]  10-[11  15]  33-[-0  16]  6-[-0  2]  18-[3  15]  24-[-0  16] -> 3
 54-[4  12]  18-[4  16]  59-[13  16]  51-[1  4]  30-[-0  11]  15-[-0  15]  23-[-0  1]  63-[-0  5]  32-[-0  13]  9-[4  6]  34-[-0  11]  33-[-0  13]  23-[-0  10]  45-[2  16]  2-[3  15]  60-[6  16]  5-[0  16]  30-[-0  6]  45-[9  15]  60-[15  16]  27-[2  7]  34-[-0  2] -> 3
 45-[4  13]  40-[-0  7]  12-[6  16]  30-[-0  1]  22-[-0  -0]  1-[-0  15]  29-[4  15]  9-[2  11]  56-[-0  6]  56-[-0  16]  27-[1  15]  54-[10  14]  22-[-0  1]  54-[2  12]  38-[2  10]  20-[7  16]  29-[4  8]  8-[-0  14]  7-[-0  11]  16-[-0  16]  25-[-0  14]  57-[-0  15] -> 3
 23-[-0  1]  9-[10  14]  11-[8  16]  49-[-0  5]  30-[-0  5]  57-[-0  10]  15-[-0  1]  23-[-0  4]  24-[-0  6]  44-[3  7]  16-[-0  9]  46-[2  16]  25-[-0  10]  11-[1  15]  1-[-0  8]  45-[11  13]  29-[2  10]  61-[6  16]  39-[-0  10]  62-[-0  7]  27-[5  14]  25-[-0  4] -> 3
 1-[-0  8]  16-[-0  13]  27-[3  11]  62-[-0  2]  44-[9  15]  39-[-0  10]  38-[-0  7]  57-[-0  16]  28-[3  16]  27-[10  13]  45-[7  14]  9-[-0  12]  34-[-0  12]  36-[14  16]  31-[-0  1]  37-[2  14]  36-[2  16]  4-[10  16]  40-[-0  7]  63-[-0  4]  40-[-0  13]  62-[-0  5] -> 3
 50-[-0  5]  45-[5  16]  9-[0  9]  48-[-0  2]  3-[9  16]  21-[1  15]  58-[3  16]  38-[-0  6]  33-[-0  11]  48-[-0  1]  55-[-0  2]  7-[-0  2]  48-[-0  7]  49-[-0  5]  12-[8  12]  2-[1  16]  40-[-0  15]  33-[-0  2]  35-[1  8]  25-[-0  11]  56-[-0  6]  21-[10  15] -> 3
 60-[11  16]  41-[-0  2]  54-[1  8]  50-[8  16]  46-[3  9]  45-[14  16]  17-[-0  10]  4-[7  13]  25-[-0  13]  14-[1  12]  63-[-0  11]  50-[14  16]  51-[6  13]  39-[-0  6]  6-[1  8]  55-[-0  5]  61-[1  14]  60-[1  16]  20-[5  12]  58-[8  16]  62-[-0  9]  37-[14  16] -> 3
 15-[-0  14]  60-[5  10]  40-[-0  3]  38-[-0  10]  29-[3  11]  14-[-0  2]  11-[2  15]  3-[6  16]  1-[-0  13]  57-[-0  3]  49-[1  10]  26-[-0  10]  37-[3  16]  16-[-0  14]  53-[4  15]  2-[2  16]  40-[-0  4]  27-[2  10]  49-[1  6]  4-[4  16]  37-[1  16]  7-[-0  10] -> 3
 51-[1  8]  2-[7  13]  57-[-0  7]  39-[-0  4]  38-[-0  15]  59-[5  16]  56-[-0  7]  23-[-0  16]  22-[-0  15]  51-[1  10]  4-[5  16]  18-[-0  14]  25-[-0  12]  8-[-0  3]  11-[2  10]  53-[5  14]  3-[1  16]  41-[-0  16]  38-[-0  14]  7-[-0  1]  54-[5  14]  24-[-0  16] -> 3
 5-[1  12]  16-[-0  7]  12-[9  15]  24-[-0  3]  55-[-0  15]  26-[-0  14]  23-[-0  6]  47-[-0  1]  61-[2  9]  38-[-0  14]  47-[-0  7]  46-[-0  7]  18-[1  4]  35-[3  12]  39-[-0  15]  20-[5  7]  23-[-0  1]  59-[6  16]  2-[2  12]  35-[7  16]  59-[11  16]  35-[7  12] -> 3
 48-[-0  11]  19-[-0  16]  2-[2  16]  14-[-0  12]  18-[5  14]  5-[1  4]  8-[-0  14]  13-[6  16]  8-[-0  6]  47-[-0  2]  54-[4  9]  63-[-0  7]  24-[-0  7]  9-[10  13]  34-[-0  16]  38-[1  11]  29-[5  16]  7-[-0  10]  35-[-0  14]  27-[-0  2]  61-[1  13]  39-[-0  9] -> 3
 4-[8  15]  20-[1  14]  25-[-0  6]  11-[5  8]  25-[-0  1]  57-[-0  3]  11-[4  9]  22-[-0  12]  48-[-0  6]  7-[-0  1]  25-[-0  16]  56-[-0  13]  47-[-0  8]  53-[12  16]  20-[6  13]  1-[-0  12]  34-[-0  13]  63-[-0  2]  27-[3  7]  29-[1  16]  55-[-0  5]  52-[0  9] -> 3
 50-[-0  16]  17-[4  6]  40-[-0  13]  48-[-0  4]  36-[6  13]  33-[-0  12]  55-[-0  5]  43-[7  16]  43-[7  14]  56-[-0  12]  1-[-0  3]  39-[-0  12]  37-[-0  9]  21-[5  16]  57-[-0  12]  5-[8  14]  29-[0  10]  24-[-0  10]  20-[14  16]  56-[-0  16]  11-[5  14]  14-[-0  4] -> 3
 39-[-0  11]  15-[-0  12]  24-[-0  13]  16-[-0  13]  38-[-0  3]  22-[-0  14]  63-[-0  14]  26-[-0  8]  63-[-0  2]  30-[-0  3]  27-[6  16]  22-[-0  12]  55-[-0  13]  53-[8  16]  40-[-0  1]  31-[-0  2]  12-[14  16]  41-[-0  5]  38-[-0  15]  16-[-0  11]  56-[-0  3]  29-[-0  11] -> 3
 37-[10  16]  22-[-0  1]  53-[8  16]  14-[-0  12]  12-[6  14]  57-[-0  16]  5-[9  14]  5-[3  15]  22-[-0  7]  10-[11  16]  29-[4  11]  41-[-0  9]  11-[8  15]  27-[1  15]  43-[-0  7]  55-[-0  16]  61-[3  12]  19-[1  6]  55-[-0  15]  6-[-0  2]  50-[5  16]  18-[-0  10] -> 3
 37-[1  5]  27-[1  6]  33-[-0  15]  13-[10  13]  33-[-0  12]  3-[7  16]  51-[5  16]  46-[0  9]  60-[8  16]  25-[-0  11]  22-[1  10]  7-[-0  16]  4-[9  16]  11-[6  13]  2-[1  6]  13-[1  15]  49-[-0  12]  36-[1  16]  24-[-0  3]  53-[10  16]  56-[-0  10]  8-[-0  4] -> 3
 5-[1  10]  40-[-0  15]  35-[3  13]  16-[-0  9]  56-[-0  8]  24-[-0  1]  24-[-0  2]  39-[-0  3]  42-[4  8]  39-[-0  3]  52-[2  14]  34-[1  14]  20-[9  15]  63-[-0  5]  18-[0  3]  56-[-0  15]  31-[-0  10]  15-[-0  1]  22-[-0  9]  39-[-0  3]  11-[8  10]  62-[0  12] -> 3
 50-[1  16]  55-[-0  13]  40-[-0  10]  11-[2  13]  14-[-0  13]  15-[-0  13]  16-[-0  13]  21-[5  16]  23-[-0  11]  62-[0  11]  35-[2  13]  3-[13  16]  27-[2  12]  48-[-0  10]  17-[0  2]  22-[-0  10]  61-[11  13]  38-[1  14]  17-[0  11]  58-[3  16]  21-[6  13]  33-[-0  16] -> 3
 42-[-0  9]  29-[1  14]  57-[-0  5]  33-[-0  9]  52-[4  14]  26-[13  16]  16-[-0  3]  36-[8  16]  13-[-0  4]  26-[12  16]  55-[-0  15]  24-[-0  9]  46-[4  16]  59-[11  16]  5-[-0  1]  27-[3  16]  29-[1  6]  49-[-0  7]  62-[-0  4]  44-[1  15]  32-[-0  5]  52-[1  9] -> 3
 59-[7  16]  28-[11  16]  40-[-0  7]  55-[-0  1]  29-[-0  2]  43-[-0  10]  28-[1  7]  11-[7  14]  44-[8  12]  50-[2  7]  15-[-0  1]  20-[2  9]  39-[-0  3]  49-[-0  9]  31-[-0  16]  59-[12  15]  55-[-0  8]  17-[3  12]  12-[13  15]  24-[-0  15]  14-[-0  2]  2-[2  12] -> 3
 44-[9  16]  39-[-0  8]  61-[7  14]  31-[-0  8]  44-[4  15]  1-[1  16]  5-[2  16]  55-[-0  1]  41-[-0  15]  6-[-0  2]  37-[1  10]  16-[-0  12]  13-[6  15]  61-[3  15]  30-[-0  1]  50-[1  16]  42-[0  4]  24-[-0  10]  25-[-0  16]  28-[5  13]  6-[-0  14]  46-[1  6] -> 3
 29-[3  16]  54-[1  11]  16-[-0  9]  22-[-0  10]  48-[-0  6]  58-[1  15]  26-[5  13]  30-[0  12]  45-[1  12]  52-[1  11]  47-[-0  15]  22-[-0  5]  24-[-0  15]  18-[1  13]  41-[-0  14]  47-[-0  6]  25-[-0  1]  9-[4  16]  33-[-0  12]  53-[12  16]  35-[2  16]  18-[10  13] -> 3
 61-[1  12]  23-[-0  15]  29-[3  8]  57-[-0  9]  6-[-0  13]  6-[-0  6]  30-[-0  12]  5-[2  8]  2-[2  12]  29-[1  11]  31-[-0  6]  17-[1  9]  42-[1  16]  61-[9  13]  22-[-0  1]  55-[-0  15]  37-[6  12]  52-[6  9]  58-[5  16]  29-[2  12]  34-[1  16]  50-[4  8] -> 3
 41-[-0  8]  51-[5  13]  11-[8  15]  10-[4  16]  30-[-0  4]  55-[-0  2]  18-[1  6]  2-[4  14]  55-[-0  12]  48-[-0  15]  6-[-0  14]  50-[2  13]  13-[8  16]  47-[-0  12]  14-[2  14]  19-[4  8]  61-[3  13]  14-[1  14]  32-[-0  5]  2-[5  16]  50-[1  9]  30-[-0  16] -> 3
 24-[-0  8]  52-[5  11]  31-[-0  15]  4-[1  12]  56-[-0  3]  25-[-0  14]  20-[2  8]  62-[0  15]  34-[-0  8]  8-[-0  1]  18-[2  14]  60-[7  16]  16-[-0  -0]  3-[5  16]  47-[-0  9]  40-[-0  16]  50-[3  16]  53-[4  16]  46-[4  10]  42-[1  14]  47-[-0  16]  38-[-0  14] -> 3
 28-[5  16]  18-[11  16]  21-[5  9]  4-[2  7]  52-[14  16]  58-[-0  4]  20-[-0  3]  21-[5  15]  58-[-0  2]  30-[2  13]  13-[-0  12]  46-[-0  16]  1-[-0  15]  32-[-0  9]  4-[3  15]  4-[4  11]  35-[9  16]  30-[7  12]  12-[1  5]  33-[1  9]  21-[1  9]  38-[1  11] -> 4
 29-[5  14]  63-[-0  13]  26-[12  16]  13-[-0  11]  56-[-0  16]  28-[10  14]  21-[3  8]  59-[6  14]  29-[9  16]  38-[8  13]  18-[9  14]  21-[1  10]  63-[-0  8]  19-[2  12]  34-[6  14]  37-[10  16]  11-[5  16]  36-[10  16]  6-[-0  5]  25-[1  5]  59-[2  14]  42-[8  16] -> 4
 27-[1  12]  45-[1  16]  32-[-0  5]  9-[-0  11]  55-[-0  5]  46-[4  13]  33-[0  3]  20-[5  15]  10-[-0  14]  35-[1  11]  27-[1  14]  35-[1  16]  31-[-0  15]  50-[3  9]  37-[10  15]  54-[-0  7]  32-[-0  1]  44-[8  16]  62-[-0  6]  63-[-0  -0]  36-[7  14]  8-[-0  3] -> 4
 8-[-0  16]  29-[3  16]  46-[-0  12]  61-[-0  16]  22-[1  9]  9-[-0  15]  4-[1  15]  56-[-0  3]  58-[-0  15]  22-[2  6]  41-[-0  3]  36-[7  16]  52-[2  16]  36-[1  16]  29-[4  16]  20-[-0  10]  57-[-0  7]  29-[2  16]  13-[-0  9]  31-[-0  1]  6-[-0  15]  5-[-0  1] -> 4
 15-[-0  6]  29-[1  7]  4-[-0  14]  28-[11  16]  50-[1  10]  11-[1  7]  54-[-0  7]  49-[-0  9]  16-[-0  15]  44-[1  8]  16-[-0  8]  35-[11  16]  56-[-0  9]  49-[-0  4]  48-[-0  3]  21-[11  16]  46-[-0  5]  9-[2  9]  7-[-0  16]  23-[-0  8]  52-[-0  2]  41-[-0  6] -> 4
 35-[8  15]  36-[8  16]  31-[-0  15]  38-[1  12]  7-[-0  7]  6-[-0  12]  10-[1  5]  14-[-0  11]  60-[8  11]  38-[6  10]  23-[-0  4]  47-[-0  1]  56-[-0  7]  9-[-0  5]  61-[-0  14]  27-[-0  3]  27-[-0  2]  29-[8  16]  16-[-0  13]  12-[1  12]  9-[-0  8]  3-[1  14] -> 4
 43-[12  16]  12-[7  16]  28-[2  8]  48-[-0  3]  31-[-0  9]  2-[-0  1]  13-[9  12]  43-[11  16]  51-[-0  2]  18-[-0  10]  32-[-0  10]  56-[-0  6]  25-[-0  13]  21-[2  15]  44-[1  16]  17-[-0  14]  14-[-0  8]  5-[5  15]  9-[-0  5]  37-[11  16]  27-[2  16]  1-[-0  2] -> 4
 4-[3  13]  56-[-0  7]  62-[-0  3]  25-[3  9]  42-[-0  15]  32-[-0  10]  24-[-0  3]  8-[-0  11]  62-[-0  8]  35-[5  16]  10-[2  13]  1-[-0  9]  14-[2  16]  39-[-0  7]  8-[-0  7]  19-[3  12]  34-[2  16]  26-[2  16]  45-[0  8]  30-[5  12]  18-[4  14]  44-[11  16] -> 4
 28-[5  16]  20-[5  14]  28-[12  14]  40-[-0  1]  57-[-0  8]  10-[1  7]  43-[3  16]  55-[-0  4]  19-[8  14]  15-[-0  3]  62-[-0  1]  15-[-0  2]  55-[-0  11]  7-[-0  15]  20-[6  10]  40-[-0  7]  31-[-0  11]  11-[6  16]  50-[0  1]  2-[-0  3]  54-[-0  1]  21-[6  14] -> 4
 40-[-0  11]  44-[11  14]  21-[7  14]  38-[8  15]  55-[-0  11]  42-[-0  1]  24-[-0  10]  31-[-0  11]  44-[5  14]  29-[7  16]  13-[-0  -0]  9-[-0  8]  63-[-0  5]  5-[-0  14]  15-[-0  15]  23-[-0  16]  19-[13  16]  61-[0  5]  48-[-0  2]  34-[7  12]  10-[2  14]  33-[1  12] -> 4
 59-[2  11]  24-[-0  5]  12-[4  14]  55-[-0  15]  4-[2  16]  51-[-0  10]  15-[-0  6]  31-[-0  6]  13-[-0  6]  47-[-0  15]  51-[-0  14]  36-[14  16]  45-[14  16]  28-[-0  15]  28-[-0  6]  31-[-0  11]  33-[3  16]  25-[2  14]  44-[8  15]  15-[-0  3]  25-[2  8]  3-[1  15] -> 4
 4-[3  13]  37-[2  9]  20-[-0  3]  8-[-0  5]  50-[9  16]  39-[-0  10]  63-[-0  7]  63-[-0  1]  25-[-0  9]  7-[-0  13]  46-[-0  15]  21-[-0  4]  54-[-0  13]  54-[-0  8]  20-[-0  8]  24-[-0  15]  60-[2  16]  34-[8  16]  23-[-0  12]  49-[3  16]  25-[-0  11]  35-[1  5] -> 4
 57-[-0  10]  6-[-0  11]  53-[-0  3]  47-[-0  10]  35-[12  16]  9-[-0  1]  28-[6  16]  40-[-0  13]  7-[-0  11]  53-[-0  10]  34-[11  16]  28-[8  14]  50-[0  3]  35-[13  16]  38-[4  11]  13-[1  7]  50-[0  8]  32-[-0  11]  59-[1  15]  39-[-0  4]  51-[1  15]  16-[-0  10] -> 4
 51-[12  16]  46-[1  7]  58-[-0  7]  49-[1  16]  48-[-0  2]  50-[6  14]  63-[-0  6]  2-[-0  10]  14-[-0  10]  3-[2  16]  30-[0  15]  58-[-0  9]  47-[-0  16]  41-[7  13]  56-[-0  14]  25-[3  6]  6-[-0  15]  59-[12  15]  19-[1  15]  15-[-0  1]  22-[-0  12]  51-[1  16] -> 4
 23-[-0  14]  3-[3  14]  45-[6  13]  57-[-0  7]  23-[-0  9]  32-[-0  4]  30-[1  8]  4-[9  15]  46-[1  4]  43-[10  16]  39-[-0  13]  47-[-0  15]  8-[-0  1]  27-[2  11]  45-[11  16]  4-[12  16]  50-[1  15]  23-[-0  4]  31-[-0  12]  34-[3  15]  9-[-0  8]  27-[1  8] -> 4
 46-[0  2]  31-[-0  3]  57-[-0  11]  25-[1  15]  11-[4  16]  55-[-0  5]  26-[9  16]  46-[0  6]  38-[6  15]  20-[0  12]  22-[2  11]  62-[-0  3]  62-[-0  3]  36-[1  12]  50-[4  16]  59-[1  3]  11-[2  16]  43-[11  16]  57-[-0  7]  35-[-0  10]  22-[2  7]  42-[14  16] -> 4
 13-[-0  11]  33-[3  14]  4-[12  16]  53-[3  16]  52-[5  16]  58-[-0  2]  26-[12  15]  6-[-0  3]  18-[5  15]  55-[-0  6]  57-[-0  1]  11-[11  16]  3-[2  14]  2-[-0  8]  43-[1  15]  35-[9  16]  17-[-0  2]  30-[2  14]  44-[8  16]  53-[2  5]  19-[10  16]  62-[-0  1] -> 4
 58-[-0  6]  24-[-0  -0]  15-[-0  15]  52-[6  15]  62-[-0  3]  55-[-0  2]  48-[-0  5]  7-[-0  1]  41-[10  16]  20-[1  16]  5-[0  15]  19-[1  8]  38-[-0  12]  54-[-0  14]  31-[-0  5]  43-[3  16]  15-[-0  13]  38-[-0  13]  31-[-0  3]  2-[-0  12]  33-[0  14]  31-[-0  11] -> 4
 22-[-0  5]  52-[6  16]  1-[-0  2]  39-[-0  14]  40-[-0  6]  7-[-0  12]  32-[-0  5]  20-[5  16]  54-[-0  1]  39-[-0  12]  36-[10  16]  24-[-0  1]  20-[9  13]  14-[-0  5]  56-[-0  16]  44-[5  16]  52-[14  16]  39-[-0  15]  56-[-0  6]  44-[7  16]  16-[-0  13]  1-[-0  4] -> 4
 6-[-0  9]  55-[-0  7]  52-[13  16]  17-[-0  8]  3-[2  10]  37-[8  16]  6-[-0  9]  40-[-0  4]  45-[4  9]  6-[-0  14]  27-[6  15]  2-[-0  1]  37-[4  16]  52-[7  16]  54-[-0  5]  52-[11  16]  16-[-0  9]  1-[-0  3]  19-[11  16]  27-[2  16]  1-[-0  4]  21-[2  14] -> 4
 34-[5  16]  11-[3  16]  19-[9  16]  43-[7  14]  11-[5  15]  19-[1  15]  11-[6  12]  56-[-0  11]  8-[-0  11]  12-[8  16]  13-[1  14]  55-[-0  7]  1-[-0  7]  55-[-0  14]  58-[-0  3]  60-[1  16]  21-[-0  9]  39-[-0  13]  22-[-0  1]  21-[-0  8]  14-[-0  7]  55-[-0  11] -> 4
 57-[-0  5]  3-[-0  2]  11-[2  8]  6-[-0  4]  48-[-0  7]  27-[5  15]  15-[-0  4]  14-[-0  2]  60-[9  16]  33-[4  14]  15-[-0  15]  32-[-0  6]  58-[-0  1]  63-[-0  12]  60-[13  16]  40-[-0  2]  16-[-0  1]  59-[-0  16]  58-[-0  7]  27-[6  13]  27-[6  14]  32-[-0  12] -> 4
 29-[1  15]  27-[4  9]  60-[10  16]  60-[2  16]  62-[-0  2]  49-[-0  3]  25-[2  11]  48-[-0  10]  6-[-0  16]  2-[-0  12]  17-[-0  1]  26-[13  16]  9-[-0  13]  48-[-0  15]  59-[4  13]  26-[5  16]  38-[2  16]  15-[-0  3]  11-[14  16]  23-[-0  2]  27-[4  11]  29-[11  15] -> 4
 32-[-0  8]  16-[-0  15]  36-[12  16]  63-[-0  15]  3-[3  16]  12-[1  15]  13-[-0  16]  3-[1  16]  8-[-0  10]  54-[-0  7]  23-[-0  13]  25-[2  8]  39-[-0  13]  42-[10  16]  24-[-0  10]  19-[1  12]  28-[7  15]  12-[2  11]  63-[-0  8]  9-[-0  14]  46-[1  13]  20-[1  13] -> 4
 4-[1  15]  6-[1  8]  34-[1  16]  16-[-0  10]  21-[8  14]  12-[3  16]  52-[1  16]  12-[10  14]  46-[-0  13]  14-[9  16]  4-[2  13]  48-[-0  8]  9-[-0  5]  18-[1  11]  12-[8  14]  6-[3  14]  46-[-0  5]  32-[-0  16]  22-[6  13]  34-[14  16]  23-[-0  5]  43-[4  14] -> 4
 40-[-0  3]  9-[-0  6]  17-[-0  14]  28-[-0  7]  29-[9  15]  43-[1  14]  35-[2  16]  42-[10  13]  5-[-0  11]  23-[-0  5]  63-[-0  3]  16-[-0  4]  23-[-0  8]  20-[-0  7]  13-[1  10]  2-[-0  11]  57-[-0  4]  53-[1  11]  22-[4  13]  51-[0  10]  14-[4  8]  7-[-0  1] -> 4
 5-[5  16]  42-[-0  16]  45-[1  7]  21-[14  16]  26-[1  16]  31-[-0  1]  33-[0  2]  40-[-0  16]  33-[0  3]  31-[-0  13]  6-[-0  10]  30-[6  16]  27-[3  16]  53-[-0  11]  14-[1  12]  23-[-0  10]  18-[14  16]  13-[8  16]  4-[6  15]  60-[5  16]  2-[-0  5]  43-[-0  16] -> 4
 47-[-0  10]  61-[-0  5]  62-[-0  12]  55-[-0  3]  36-[1  16]  3-[12  16]  63-[-0  3]  10-[3  12]  30-[4  16]  62-[-0  1]  31-[-0  1]  9-[-0  5]  33-[6  13]  2-[0  10]  48-[-0  11]  47-[-0  15]  59-[11  16]  50-[0  14]  62-[-0  10]  44-[13  16]  43-[15  16]  54-[-0  1] -> 4
 23-[-0  2]  2-[6  13]  55-[-0  7]  39-[-0  10]  24-[-0  13]  57-[-0  16]  38-[-0  16]  39-[-0  11]  60-[-0  12]  13-[13  16]  56-[-0  12]  51-[4  13]  13-[8  15]  1-[-0  5]  17-[5  16]  18-[13  16]  27-[12  16]  56-[-0  12]  11-[6  14]  50-[8  14]  61-[-0  13]  1-[-0  15] -> 4
 48-[-0  1]  50-[-0  15]  16-[-0  5]  26-[7  16]  4-[9  16]  34-[1  16]  53-[6  14]  57-[-0  16]  55-[-0  9]  61-[3  9]  17-[-0  1]  53-[2  15]  16-[-0  12]  40-[-0  12]  53-[3  11]  52-[1  16]  42-[2  16]  17-[-0  16]  54-[-0  15]  20-[5  11]  6-[-0  5]  2-[-0  13] -> 4
 61-[-0  4]  1-[-0  9]  40-[-0  3]  31-[-0  14]  57-[-0  5]  29-[4  16]  38-[1  16]  1-[-0  8]  41-[3  14]  55-[-0  14]  33-[1  9]  39-[-0  3]  30-[2  11]  9-[-0  6]  50-[-0  13]  42-[7  16]  17-[-0  13]  53-[2  12]  18-[1  16]  34-[1  16]  21-[2  14]  5-[-0  5] -> 4
 52-[10  16]  27-[8  10]  8-[-0  7]  35-[0  10]  55-[-0  1]  3-[1  9]  14-[-0  10]  13-[2  15]  28-[-0  13]  17-[-0  9]  25-[-0  4]  56-[-0  2]  16-[-0  12]  16-[-0  15]  30-[8  12]  59-[-0  1]  29-[5  9]  5-[6  12]  14-[-0  7]  41-[2  8]  26-[9  14]  7-[-0  3] -> 4
 60-[6  14]  16-[-0  16]  13-[1  3]  1-[-0  15]  40-[-0  16]  2-[0  4]  61-[-0  14]  6-[-0  11]  8-[-0  13]  35-[15  16]  27-[5  14]  16-[-0  9]  55-[-0  4]  54-[-0  5]  53-[1  5]  63-[-0  9]  33-[7  16]  40-[-0  15]  2-[0  6]  21-[15  16]  3-[0  8]  41-[-0  2] -> 4
 62-[-0  10]  23-[-0  14]  30-[1  6]  45-[2  11]  34-[-0  4]  38-[-0  3]  53-[6  15]  45-[5  8]  48-[-0  8]  43-[-0  14]  16-[-0  14]  35-[-0  10]  19-[6  15]  47-[-0  11]  22-[-0  10]  25-[1  8]  32-[-0  14]  31-[-0  8]  53-[13  15]  15-[-0  1]  9-[-0  9]  32-[-0  1] -> 5
 46-[3  9]  20-[-0  13]  38-[-0  6]  34-[1  10]  24-[-0  4]  28-[0  7]  36-[7  16]  19-[1  13]  28-[0  16]  18-[11  15]  32-[-0  14]  4-[1  14]  43-[1  10]  57-[-0  4]  11-[1  14]  42-[-0  2]  16-[-0  2]  20-[-0  10]  48-[-0  11]  33-[-0  2]  49-[-0  15]  58-[3  12] -> 5
 49-[0  13]  53-[5  16]  45-[3  12]  60-[12  16]  52-[3  9]  33-[0  4]  13-[3  16]  6-[4  11]  51-[1  7]  55-[-0  16]  34-[2  14]  43-[-0  2]  56-[-0  10]  48-[-0  13]  61-[2  12]  46-[4  16]  48-[-0  4]  12-[5  15]  41-[-0  10]  43-[-0  12]  25-[4  10]  58-[3  16] -> 5
 4-[1  15]  3-[4  16]  12-[4  16]  54-[-0  16]  26-[9  16]  44-[6  10]  45-[1  12]  25-[-0  13]  58-[6  14]  50-[1  16]  3-[9  16]  51-[1  13]  39-[-0  9]  52-[4  15]  19-[5  9]  62-[-0  3]  43-[-0  14]  40-[-0  9]  36-[8  16]  41-[-0  10]  13-[2  9]  5-[3  7] -> 5
 63-[-0  12]  4-[10  16]  49-[-0  15]  57-[-0  2]  41-[-0  3]  20-[-0  13]  35-[10  16]  30-[-0  11]  56-[-0  5]  3-[3  13]  22-[-0  8]  61-[3  9]  53-[13  15]  16-[-0  14]  37-[5  11]  63-[-0  9]  16-[-0  1]  12-[8  14]  57-[-0  3]  30-[-0  9]  62-[-0  2]  10-[9  11] -> 5
 36-[7  16]  9-[-0  7]  50-[0  14]  5-[12  16]  45-[3  13]  35-[2  16]  50-[0  3]  43-[-0  13]  28-[1  9]  42-[-0  14]  39-[-0  7]  9-[-0  9]  5-[2  16]  17-[0  10]  54-[9  11]  54-[3  11]  55-[-0  12]  62-[3  13]  3-[6  16]  11-[3  16]  56-[-0  1]  61-[14  16] -> 5
 7-[-0  4]  40-[-0  1]  42-[-0  10]  48-[-0  6]  35-[2  5]  10-[13  16]  43-[-0  16]  6-[-0  10]  48-[-0  6]  44-[0  5]  55-[-0  13]  20-[0  5]  11-[4  13]  59-[5  16]  44-[0  3]  13-[2  10]  18-[1  16]  18-[12  16]  63-[-0  2]  8-[-0  4]  17-[0  16]  33-[-0  4] -> 5
 2-[9  15]  38-[-0  5]  55-[-0  10]  11-[8  16]  1-[6  15]  63-[-0  11]  18-[12  16]  42-[3  10]  15-[-0  8]  4-[14  16]  29-[-0  11]  30-[-0  5]  11-[15  16]  9-[4  14]  20-[-0  3]  30-[-0  11]  37-[-0  3]  50-[4  16]  24-[-0  11]  49-[1  4]  26-[2  16]  56-[-0  5] -> 5
 60-[12  16]  59-[1  16]  58-[9  15]  6-[-0  12]  22-[-0  1]  19-[2  12]  61-[3  16]  58-[1  16]  43-[-0  16]  35-[-0  4]  15-[-0  8]  52-[1  11]  47-[-0  13]  19-[3  12]  1-[-0  3]  8-[-0  10]  35-[-0  4]  52-[1  12]  7-[-0  11]  33-[0  7]  11-[1  12]  25-[1  10] -> 5
 57-[0  3]  44-[7  11]  54-[-0  10]  18-[1  14]  16-[-0  9]  17-[3  15]  60-[1  7]  40-[-0  9]  3-[13  16]  40-[-0  11]  1-[-0  1]  58-[10  16]  55-[-0  5]  20-[2  11]  44-[6  15]  17-[13  14]  10-[7  16]  3-[1  16]  21-[-0  5]  57-[0  10]  54-[-0  2]  28-[11  16] -> 5
 9-[-0  11]  2-[0  3]  54-[-0  -0]  35-[-0  7]  19-[11  13]  10-[5  10]  34-[0  6]  59-[4  16]  44-[2  13]  58-[0  13]  61-[-0  10]  32-[-0  13]  9-[-0  9]  23-[-0  1]  20-[2  16]  7-[-0  9]  53-[1  7]  5-[3  16]  23-[-0  1]  48-[-0  12]  23-[-0  6]  41-[-0  13] -> 5
 58-[1  10]  13-[4  14]  12-[7  11]  11-[3  15]  28-[3  11]  45-[14  16]  21-[-0  3]  23-[-0  10]  21-[-0  15]  62-[-0  11]  18-[3  16]  18-[9  16]  52-[6  15]  53-[12  16]  43-[-0  5]  45-[12  16]  7-[-0  5]  50-[3  11]  32-[-0  12]  40-[-0  1]  3-[9  16]  23-[-0  9] -> 5
 51-[2  11]  7-[-0  1]  41-[-0  9]  5-[3  16]  29-[-0  2]  39-[-0  15]  51-[2  14]  50-[2  13]  7-[-0  16]  20-[-0  5]  33-[-0  2]  53-[3  11]  61-[-0  1]  24-[-0  16]  40-[-0  4]  11-[3  16]  41-[-0  4]  16-[-0  1]  39-[-0  11]  29-[-0  8]  53-[2  15]  17-[0  3] -> 5
 37-[-0  1]  41-[-0  3]  31-[-0  1]  56-[-0  3]  23-[-0  1]  58-[4  12]  46-[-0  16]  52-[7  16]  54-[-0  10]  19-[3  14]  50-[6  10]  47-[-0  5]  41-[-0  16]  11-[5  16]  59-[4  16]  18-[3  14]  30-[-0  1]  36-[2  15]  36-[4  12]  50-[2  10]  2-[1  16]  5-[1  14] -> 5
 8-[-0  5]  9-[-0  10]  10-[7  11]  31-[-0  4]  39-[-0  2]  23-[-0  7]  39-[-0  6]  16-[-0  7]  19-[5  16]  7-[-0  -0]  30-[-0  4]  24-[-0  12]  23-[-0  13]  26-[2  15]  22-[-0  7]  51-[10  16]  13-[6  12]  16-[-0  14]  18-[3  15]  8-[-0  10]  29-[-0  6]  13-[3  10] -> 5
 6-[2  12]  47-[-0  1]  39-[-0  4]  15-[-0  9]  59-[8  13]  26-[7  16]  33-[0  16]  30-[-0  14]  39-[-0  8]  56-[-0  12]  17-[5  9]  48-[-0  12]  37-[2  15]  47-[-0  11]  24-[-0  7]  28-[-0  14]  42-[-0  2]  12-[5  16]  57-[1  5]  27-[1  16]  58-[13  14]  38-[-0  13] -> 5
 39-[-0  16]  29-[0  8]  38-[-0  14]  49-[-0  13]  16-[-0  3]  22-[-0  10]  62-[-0  6]  51-[2  7]  21-[-0  4]  39-[-0  16]  6-[-0  5]  15-[-0  7]  20-[-0  11]  49-[-0  7]  51-[1  11]  26-[12  16]  56-[-0  12]  57-[-0  11]  31-[-0  -0]  16-[-0  10]  56-[-0  4]  32-[-0  9] -> 5
 53-[2  11]  16-[-0  6]  55-[-0  13]  2-[2  12]  56-[-0  10]  38-[-0  3]  27-[8  16]  57-[-0  3]  30-[-0  7]  5-[6  14]  42-[-0  -0]  33-[-0  5]  44-[6  16]  31-[-0  15]  21-[-0  4]  3-[2  16]  38-[-0  13]  43-[-0  8]  42-[-0  4]  61-[-0  7]  6-[-0  12]  54-[-0  16] -> 5
 45-[2  16]  13-[4  8]  41-[-0  8]  18-[3  15]  1-[-0  10]  23-[-0  13]  45-[9  16]  43-[-0  8]  31-[-0  4]  41-[-0  16]  49-[-0  3]  26-[4  13]  9-[-0  2]  30-[-0  9]  16-[-0  2]  57-[-0  10]  48-[-0  3]  26-[5  15]  24-[-0  1]  27-[2  16]  11-[7  13]  35-[1  9] -> 5
 28-[2  16]  51-[4  13]  36-[3  13]  48-[-0  11]  48-[-0  9]  12-[4  16]  51-[6  15]  6-[2  14]  58-[9  12]  48-[-0  11]  37-[7  15]  48-[-0  10]  36-[10  11]  8-[-0  14]  46-[-0  4]  20-[5  12]  13-[10  13]  27-[9  15]  30-[-0  12]  16-[-0  7]  2-[9  16]  17-[-0  8] -> 5
 25-[1  12]  17-[3  7]  47-[-0  9]  62-[-0  14]  2-[7  15]  8-[-0  11]  50-[4  9]  11-[3  14]  39-[-0  16]  17-[2  7]  46-[7  10]  28-[2  16]  26-[3  16]  6-[1  14]  19-[-0  15]  18-[2  14]  53-[12  16]  29-[4  15]  53-[6  16]  10-[14  16]  15-[-0  15]  34-[1  9] -> 5
 5-[1  9]  13-[0  5]  5-[2  10]  6-[-0  9]  9-[-0  9]  17-[0  10]  62-[-0  7]  62-[-0  5]  53-[6  9]  51-[1  4]  19-[2  14]  40-[-0  3]  28-[5  16]  51-[1  15]  22-[-0  2]  47-[-0  13]  12-[2  10]  48-[-0  14]  53-[7  9]  30-[2  4]  32-[-0  12]  48-[-0  2] -> 5
 35-[-0  5]  60-[1  16]  5-[8  16]  52-[3  10]  31-[-0  16]  46-[2  14]  48-[-0  8]  55-[-0  16]  14-[-0  10]  49-[0  9]  14-[-0  5]  42-[-0  9]  2-[13  15]  5-[10  14]  39-[-0  11]  53-[5  16]  51-[3  13]  31-[-0  16]  44-[-0  13]  51-[3  8]  45-[3  14]  59-[1  16] -> 5
 8-[-0  6]  7-[-0  14]  56-[-0  1]  47-[-0  11]  25-[-0  12]  35-[1  16]  53-[5  8]  62-[-0  8]  2-[3  12]  38-[-0  8]  19-[1  12]  51-[0  6]  43-[2  6]  26-[7  15]  15-[-0  4]  8-[-0  8]  29-[-0  3]  9-[-0  8]  63-[-0  15]  9-[-0  16]  47-[-0  2]  39-[-0  8] -> 5
 57-[-0  4]  38-[-0  12]  54-[-0  9]  14-[-0  7]  26-[10  16]  10-[5  10]  25-[0  8]  7-[-0  11]  22-[-0  7]  19-[9  16]  22-[-0  10]  6-[-0  12]  45-[11  14]  19-[8  16]  43-[-0  7]  63-[-0  6]  59-[8  16]  46-[-0  1]  36-[14  16]  7-[-0  5]  51-[6  14]  58-[2  12] -> 5
 39-[-0  5]  17-[3  12]  39-[-0  9]  41-[-0  10]  1-[-0  9]  37-[13  16]  14-[-0  1]  46-[3  11]  17-[2  16]  27-[9  15]  4-[14  16]  62-[-0  15]  42-[-0  2]  31-[-0  16]  56-[-0  12]  4-[7  16]  26-[6  16]  59-[2  16]  3-[8  13]  28-[5  16]  18-[2  16]  32-[-0  4] -> 5
 24-[-0  8]  39-[-0  10]  3-[15  16]  61-[-0  4]  48-[-0  10]  12-[2  16]  15-[-0  16]  51-[0  3]  16-[-0  11]  41-[-0  8]  45-[6  16]  44-[1  14]  31-[-0  4]  43-[3  6]  30-[-0  11]  2-[3  11]  19-[6  11]  23-[-0  15]  46-[-0  2]  26-[1  16]  60-[10  14]  24-[-0  4] -> 5
 21-[-0  12]  14-[-0  12]  18-[2  15]  48-[-0  7]  26-[1  11]  13-[-0  8]  51-[2  15]  21-[-0  15]  29-[10  14]  13-[-0  8]  50-[0  2]  9-[-0  7]  36-[3  16]  1-[-0  10]  6-[4  12]  3-[2  15]  14-[-0  11]  40-[-0  10]  34-[4  16]  28-[8  14]  31-[-0  8]  33-[6  15] -> 5
 16-[-0  16]  20-[-0  6]  6-[-0  4]  57-[-0  8]  23-[-0  15]  36-[5  10]  24-[-0  8]  37-[-0  6]  30-[-0  1]  25-[2  14]  37-[-0  5]  21-[-0  6]  41-[-0  6]  11-[4  16]  21-[-0  7]  28-[0  9]  27-[3  16]  8-[-0  13]  28-[0  12]  16-[-0  5]  21-[-0  2]  13-[2  16] -> 5
 30-[-0  8]  4-[12  16]  16-[-0  14]  23-[-0  13]  8-[-0  2]  53-[7  12]  42-[-0  5]  45-[12  16]  28-[8  16]  36-[3  15]  52-[8  16]  21-[-0  14]  8-[-0  1]  61-[-0  14]  47-[-0  3]  9-[2  12]  60-[5  15]  61-[-0  8]  14-[3  8]  25-[3  11]  25-[1  7]  3-[7  16] -> 5
 48-[-0  13]  37-[12  14]  23-[-0  16]  18-[11  15]  25-[3  6]  30-[-0  8]  49-[-0  2]  18-[12  16]  62-[-0  9]  38-[-0  16]  60-[5  15]  12-[1  16]  23-[-0  12]  53-[1  6]  2-[2  14]  14-[-0  2]  58-[2  5]  21-[-0  16]  52-[5  15]  31-[-0  15]  48-[-0  2]  39-[-0  3] -> 5
 28-[7  16]  10-[2  16]  19-[6  8]  60-[2  7]  50-[3  14]  22-[-0  9]  39-[-0  6]  39-[-0  16]  29-[3  11]  52-[13  16]  23-[-0  8]  55-[-0  10]  18-[5  14]  59-[1  15]  29-[4  12]  9-[3  11]  54-[-0  14]  5-[11  16]  12-[0  5]  52-[10  16]  12-[0  14]  58-[7  16] -> 5
 44-[10  16]  2-[1  9]  13-[-0  8]  35-[6  14]  30-[-0  5]  10-[2  16]  46-[-0  11]  52-[6  13]  54-[-0  1]  22-[-0  14]  8-[-0  14]  60-[4  15]  13-[-0  5]  17-[1  15]  59-[12  16]  51-[10  16]  43-[3  14]  61-[-0  4]  51-[10  14]  7-[-0  8]  37-[-0  11]  53-[-0  4] -> 5
 3-[2  8]  47-[-0  15]  18-[9  15]  30-[-0  2]  10-[4  11]  38-[3  11]  61-[2  16]  9-[-0  2]  10-[3  8]  46-[5  15]  51-[12  16]  15-[-0  12]  11-[4  16]  52-[0  14]  13-[1  5]  21-[-0  1]  30-[-0  6]  26-[7  14]  10-[2  9]  6-[-0  13]  24-[-0  13]  33-[2  5] -> 6
 1-[-0  1]  19-[0  12]  24-[-0  8]  39-[-0  5]  6-[-0  1]  9-[-0  4]  17-[0  7]  31-[-0  6]  13-[-0  4]  55-[-0  8]  57-[-0  2]  8-[-0  1]  61-[11  15]  49-[0  16]  1-[-0  8]  14-[-0  4]  30-[-0  3]  21-[-0  11]  34-[3  16]  28-[-0  13]  56-[-0  3]  29-[-0  7] -> 6
 31-[-0  15]  58-[-0  2]  10-[0  4]  57-[-0  13]  32-[-0  9]  48-[-0  9]  40-[-0  14]  1-[-0  12]  25-[-0  5]  21-[-0  3]  61-[6  15]  5-[0  12]  15-[-0  14]  30-[-0  8]  45-[3  16]  2-[-0  13]  35-[7  16]  26-[2  15]  40-[-0  7]  16-[-0  15]  5-[0  10]  55-[-0  2] -> 6
 47-[-0  1]  3-[7  16]  63-[-0  3]  11-[5  15]  54-[5  10]  58-[1  16]  53-[8  16]  29-[-0  2]  5-[-0  8]  7-[-0  14]  63-[-0  -0]  25-[2  10]  2-[-0  8]  23-[-0  1]  63-[-0  16]  42-[7  16]  18-[4  16]  25-[2  8]  59-[10  16]  27-[1  12]  49-[-0  3]  5-[-0  16] -> 6
 30-[-0  6]  22-[-0  13]  24-[-0  13]  55-[0  2]  63-[-0  9]  53-[4  16]  40-[-0  4]  57-[-0  10]  55-[0  7]  21-[-0  5]  22-[-0  5]  45-[9  15]  28-[-0  2]  53-[7  15]  62-[4  8]  36-[7  16]  51-[4  16]  47-[0  14]  28-[-0  7]  53-[4  16]  49-[-0  7]  47-[-0  2] -> 6
 31-[-0  8]  24-[-0  5]  55-[-0  8]  15-[-0  6]  8-[-0  7]  21-[-0  16]  11-[10  16]  49-[-0  2]  13-[-0  9]  34-[7  16]  1-[-0  10]  61-[11  16]  12-[5  7]  10-[4  11]  60-[8  15]  37-[8  14]  57-[-0  8]  28-[0  9]  53-[7  15]  41-[1  13]  3-[4  15]  61-[8  15] -> 6
 33-[1  12]  47-[-0  13]  20-[-0  6]  63-[-0  3]  45-[3  16]  63-[-0  6]  50-[9  14]  39-[-0  16]  21-[-0  6]  63-[-0  10]  26-[5  16]  56-[-0  6]  60-[2  16]  3-[10  13]  12-[-0  5]  9-[-0  2]  31-[-0  10]  56-[-0  16]  62-[0  6]  46-[3  13]  19-[3  16]  1-[-0  5] -> 6
 59-[3  15]  25-[2  16]  61-[1  9]  21-[-0  12]  16-[-0  8]  33-[4  16]  7-[-0  16]  38-[1  8]  33-[5  8]  48-[-0  12]  33-[1  12]  10-[3  16]  16-[-0  10]  36-[9  16]  7-[-0  7]  35-[15  16]  43-[4  14]  40-[-0  11]  14-[-0  3]  34-[13  16]  6-[-0  13]  17-[0  14] -> 6
 40-[-0  1]  19-[2  7]  19-[1  13]  9-[-0  1]  33-[3  10]  11-[1  15]  44-[-0  2]  26-[1  16]  33-[6  11]  27-[8  15]  16-[-0  1]  45-[4  14]  44-[-0  14]  49-[-0  3]  58-[1  6]  6-[-0  5]  43-[4  9]  47-[-0  6]  32-[-0  10]  21-[-0  10]  1-[-0  14]  28-[11  13] -> 6
 21-[-0  12]  26-[12  15]  6-[-0  1]  36-[5  10]  63-[-0  6]  51-[7  16]  61-[12  16]  47-[-0  6]  36-[2  11]  16-[-0  3]  8-[-0  3]  28-[2  10]  47-[-0  6]  32-[-0  15]  25-[-0  1]  41-[0  3]  62-[1  9]  23-[-0  8]  4-[-0  15]  2-[-0  10]  40-[-0  1]  3-[6  13] -> 6
 7-[-0  11]  17-[-0  10]  30-[-0  16]  16-[-0  4]  43-[5  16]  50-[3  10]  14-[-0  9]  39-[-0  1]  27-[11  14]  12-[7  16]  23-[-0  4]  63-[-0  4]  13-[-0  7]  41-[-0  1]  54-[2  12]  25-[-0  2]  15-[-0  4]  61-[9  12]  11-[8  15]  42-[2  14]  38-[-0  4]  34-[3  11] -> 6
 59-[11  16]  31-[-0  16]  60-[7  15]  27-[6  12]  16-[-0  2]  51-[3  16]  61-[3  11]  45-[5  15]  32-[-0  7]  61-[1  9]  43-[15  16]  18-[2  13]  16-[-0  -0]  29-[-0  2]  33-[3  14]  3-[14  16]  57-[-0  8]  16-[-0  14]  2-[3  7]  1-[-0  12]  29-[-0  14]  22-[-0  12] -> 6
 29-[-0  13]  18-[3  10]  9-[-0  14]  42-[1  14]  32-[-0  5]  25-[-0  11]  16-[-0  7]  23-[-0  15]  25-[-0  14]  12-[4  14]  34-[1  16]  59-[2  6]  7-[-0  16]  40-[-0  12]  27-[8  15]  19-[1  16]  45-[7  15]  63-[-0  10]  20-[4  8]  21-[-0  15]  45-[6  14]  28-[1  14] -> 6
 36-[-0  9]  17-[-0  4]  34-[1  15]  2-[-0  10]  49-[-0  3]  20-[-0  5]  63-[-0  6]  21-[-0  1]  15-[-0  11]  26-[2  15]  46-[12  15]  26-[5  13]  38-[3  10]  31-[-0  16]  61-[1  16]  8-[-0  15]  41-[-0  12]  8-[-0  3]  24-[-0  14]  57-[-0  7]  35-[10  16]  10-[-0  1] -> 6
 60-[13  16]  17-[1  5]  20-[-0  4]  34-[1  16]  20-[-0  4]  51-[7  14]  37-[10  16]  41-[3  6]  30-[-0  16]  57-[-0  4]  18-[8  16]  10-[5  14]  53-[15  16]  37-[1  10]  61-[9  16]  14-[-0  1]  37-[2  12]  50-[11  16]  47-[-0  5]  42-[12  16]  10-[8  15]  51-[2  16] -> 6
 59-[10  12]  25-[1  9]  20-[-0  5]  39-[-0  8]  28-[-0  4]  31-[-0  3]  13-[-0  4]  36-[12  16]  37-[1  16]  52-[9  16]  52-[2  14]  14-[-0  1]  20-[-0  16]  48-[-0  6]  41-[3  5]  31-[-0  7]  14-[-0  7]  18-[14  16]  8-[-0  2]  7-[-0  9]  42-[5  16]  14-[-0  7] -> 6
 36-[12  16]  26-[12  16]  54-[7  16]  26-[7  16]  13-[-0  14]  36-[12  16]  29-[-0  6]  46-[2  15]  37-[10  16]  17-[0  9]  54-[3  10]  16-[-0  5]  15-[-0  12]  2-[2  7]  51-[9  13]  37-[12  16]  20-[-0  4]  52-[3  10]  3-[9  16]  52-[6  15]  60-[7  15]  35-[3  16] -> 6
 16-[-0  6]  25-[-0  4]  42-[2  16]  37-[5  15]  19-[14  16]  49-[-0  7]  31-[-0  13]  13-[-0  9]  50-[8  13]  11-[10  16]  42-[11  15]  28-[1  11]  31-[-0  13]  26-[7  16]  56-[-0  5]  1-[-0  12]  37-[4  16]  39-[-0  15]  13-[-0  15]  30-[-0  6]  61-[2  16]  30-[-0  4] -> 6
 57-[-0  6]  12-[4  16]  26-[1  16]  2-[-0  5]  14-[-0  15]  36-[1  14]  61-[9  16]  53-[2  14]  43-[5  16]  48-[-0  9]  52-[5  16]  52-[3  16]  52-[4  13]  8-[-0  6]  46-[12  16]  26-[3  7]  4-[11  15]  16-[-0  6]  48-[-0  7]  52-[7  14]  34-[2  6]  50-[1  7] -> 6
 41-[1  5]  1-[-0  7]  21-[-0  15]  6-[-0  11]  7-[-0  14]  27-[3  16]  24-[-0  8]  42-[8  16]  44-[3  14]  17-[-0  2]  33-[-0  13]  60-[2  16]  7-[-0  15]  17-[-0  5]  48-[-0  12]  58-[-0  16]  63-[-0  13]  47-[-0  2]  29-[-0  16]  8-[-0  2]  43-[11  16]  20-[-0  15] -> 6
 40-[-0  5]  6-[-0  2]  17-[-0  12]  28-[1  9]  62-[-0  13]  44-[1  15]  47-[-0  16]  49-[-0  6]  16-[-0  3]  3-[6  15]  45-[4  16]  44-[1  8]  59-[10  16]  38-[0  2]  40-[-0  2]  58-[1  11]  13-[-0  9]  38-[0  6]  31-[-0  16]  18-[13  16]  20-[-0  3]  3-[3  16] -> 6
 35-[14  16]  42-[11  15]  16-[-0  5]  14-[-0  14]  39-[-0  9]  31-[-0  9]  10-[3  10]  9-[-0  6]  44-[2  16]  38-[1  5]  16-[-0  1]  45-[6  16]  13-[3  14]  23-[-0  16]  21-[-0  4]  49-[-0  10]  45-[1  14]  48-[-0  13]  41-[-0  16]  5-[-0  11]  45-[2  16]  41-[-0  16] -> 6
 17-[-0  11]  57-[-0  1]  59-[2  9]  51-[7  16]  38-[5  16]  18-[9  16]  25-[0  7]  25-[0  5]  62-[3  12]  36-[6  16]  59-[4  11]  8-[-0  13]  43-[1  16]  17-[-0  7]  49-[-0  16]  33-[2  14]  3-[4  16]  9-[-0  12]  53-[9  16]  54-[13  16]  35-[10  16]  29-[-0  1] -> 6
 31-[-0  4]  12-[0  4]  3-[8  15]  6-[-0  13]  30-[-0  5]  6-[-0  3]  21-[-0  16]  30-[-0  6]  46-[10  12]  61-[14  16]  60-[14  16]  40-[-0  8]  24-[-0  4]  1-[-0  1]  1-[-0  16]  57-[-0  14]  20-[-0  8]  52-[4  8]  49-[-0  16]  37-[3  10]  22-[-0  10]  49-[-0  13] -> 6
 20-[-0  13]  9-[-0  2]  16-[-0  16]  20-[-0  14]  47-[-0  14]  40-[-0  13]  25-[-0  15]  32-[-0  10]  12-[4  14]  33-[-0  8]  47-[-0  5]  21-[-0  13]  3-[5  10]  56-[-0  7]  59-[5  9]  13-[0  5]  30-[-0  15]  2-[-0  9]  40-[-0  1]  50-[1  12]  44-[-0  1]  22-[-0  14] -> 6
 33-[1  11]  7-[-0  13]  50-[1  15]  18-[12  16]  15-[-0  3]  37-[5  9]  31-[-0  16]  1-[-0  8]  57-[-0  16]  46-[1  16]  22-[-0  1]  24-[-0  6]  33-[3  12]  46-[2  9]  38-[-0  13]  46-[2  5]  53-[10  16]  26-[8  16]  21-[-0  8]  8-[-0  8]  4-[2  7]  5-[-0  10] -> 6
 4-[0  6]  23-[-0  4]  19-[2  10]  48-[-0  10]  58-[0  9]  33-[5  11]  47-[-0  6]  19-[2  14]  24-[-0  4]  36-[3  14]  13-[-0  1]  20-[-0  6]  41-[1  6]  36-[3  11]  11-[4  13]  43-[-0  4]  32-[-0  16]  3-[7  14]  43-[-0  16]  19-[1  8]  1-[-0  3]  10-[7  12] -> 6
 37-[1  14]  10-[3  12]  57-[-0  12]  8-[-0  14]  25-[2  11]  48-[-0  9]  54-[6  16]  2-[-0  2]  58-[-0  16]  60-[1  16]  20-[-0  16]  18-[3  16]  62-[1  6]  33-[3  13]  52-[1  5]  21-[-0  1]  32-[-0  10]  24-[-0  1]  35-[12  16]  55-[-0  7]  21-[-0  1]  29-[0  3] -> 6
 27-[2  11]  35-[1  15]  9-[-0  2]  45-[7  15]  25-[-0  10]  9-[-0  8]  27-[2  15]  57-[-0  11]  5-[-0  13]  30-[-0  15]  38-[2  10]  53-[6  15]  55-[0  7]  58-[0  12]  31-[-0  13]  37-[11  16]  3-[6  14]  27-[1  16]  53-[10  14]  52-[3  12]  27-[2  11]  50-[4  13] -> 6
 42-[13  16]  23-[-0  8]  4-[14  16]  63-[-0  5]  6-[-0  13]  61-[10  16]  2-[-0  5]  47-[-0  3]  54-[10  13]  18-[2  7]  46-[3  15]  20-[-0  13]  56-[-0  9]  28-[-0  1]  14-[-0  6]  44-[1  12]  44-[2  15]  60-[9  16]  18-[5  15]  18-[4  16]  49-[0  14]  40-[-0  4] -> 6
 10-[4  12]  19-[14  16]  30-[-0  16]  19-[1  16]  2-[-0  9]  24-[-0  7]  10-[3  14]  44-[7  10]  58-[0  16]  42-[2  16]  16-[-0  9]  11-[2  16]  55-[-0  16]  33-[-0  6]  47-[-0  14]  14-[-0  7]  58-[-0  14]  3-[5  13]  63-[-0  14]  52-[8  12]  37-[5  16]  48-[-0  6] -> 6
 22-[-0  1]  24-[-0  14]  20-[-0  3]  56-[-0  2]  30-[-0  2]  56-[-0  11]  56-[-0  12]  27-[4  12]  26-[13  16]  6-[-0  11]  50-[1  15]  7-[-0  2]  37-[11  14]  56-[-0  4]  6-[-0  8]  51-[4  11]  51-[6  13]  12-[1  10]  38-[0  1]  18-[4  9]  17-[-0  7]  50-[13  15] -> 6
 48-[-0  11]  24-[-0  10]  6-[-0  -0]  40-[-0  8]  17-[1  7]  1-[-0  8]  34-[1  16]  50-[8  12]  17-[2  14]  28-[5  13]  2-[2  14]  59-[9  14]  62-[-0  15]  7-[-0  9]  56-[-0  14]  40-[-0  1]  42-[4  16]  11-[4  16]  18-[10  15]  32-[-0  12]  17-[1  14]  54-[4  14] -> 6
 36-[11  16]  46-[3  9]  63-[-0  3]  41-[6  15]  43-[5  15]  22-[-0  10]  61-[-0  16]  19-[2  4]  8-[-0  8]  34-[2  15]  16-[-0  8]  6-[-0  10]  42-[6  16]  60-[-0  8]  63-[-0  13]  33-[2  13]  29-[1  5]  58-[2  14]  27-[5  8]  32-[-0  11]  39-[-0  1]  36-[14  16] -> 7
 39-[-0  1]  17-[5  13]  6-[-0  14]  4-[6  16]  63-[-0  4]  43-[7  16]  24-[-0  10]  37-[2  14]  23-[-0  9]  11-[3  13]  60-[-0  15]  35-[3  16]  45-[-0  6]  23-[-0  16]  33-[-0  7]  55-[-0  2]  42-[6  14]  62-[-0  7]  12-[13  16]  23-[-0  14]  17-[9  15]  24-[-0  9] -> 7
 62-[-0  12]  21-[5  15]  3-[7  14]  36-[9  16]  53-[-0  11]  47-[-0  7]  63-[-0  8]  19-[-0  4]  7-[-0  1]  55-[-0  13]  61-[-0  -0]  61-[-0  7]  38-[-0  9]  19-[-0  14]  7-[-0  8]  43-[1  16]  12-[8  16]  16-[-0  14]  6-[-0  10]  22-[-0  6]  8-[-0  2]  54-[-0  2] -> 7
 51-[11  16]  58-[7  10]  20-[2  10]  57-[-0  12]  23-[-0  2]  37-[2  15]  27-[6  12]  26-[1  13]  26-[1  5]  39-[-0  8]  17-[-0  5]  52-[4  12]  14-[10  15]  14-[4  14]  41-[-0  12]  25-[-0  1]  39-[-0  10]  53-[-0  14]  61-[-0  8]  18-[-0  14]  4-[9  14]  1-[-0  10] -> 7
 61-[-0  2]  49-[-0  2]  28-[2  6]  32-[-0  7]  58-[1  10]  39-[-0  5]  50-[-0  7]  47-[-0  1]  7-[0  8]  60-[1  12]  55-[-0  15]  4-[15  16]  25-[-0  6]  46-[0  11]  5-[5  16]  21-[7  15]  45-[7  13]  5-[11  16]  8-[-0  5]  25-[-0  14]  22-[1  12]  10-[7  12] -> 7
 50-[6  16]  13-[3  16]  49-[1  14]  27-[5  16]  23-[-0  14]  22-[-0  13]  55-[-0  10]  30-[0  14]  22-[-0  16]  39-[-0  10]  20-[8  14]  41-[-0  9]  39-[-0  13]  32-[-0  8]  5-[3  16]  36-[6  16]  35-[1  16]  15-[-0  6]  1-[1  7]  14-[1  12]  46-[-0  10]  10-[1  13] -> 7
 16-[-0  2]  9-[-0  8]  3-[9  16]  18-[-0  9]  39-[-0  10]  13-[1  16]  38-[0  11]  3-[13  16]  36-[3  16]  56-[-0  1]  39-[-0  12]  24-[-0  10]  30-[0  6]  61-[-0  13]  16-[-0  8]  8-[-0  12]  28-[1  16]  56-[-0  9]  14-[1  13]  37-[11  16]  37-[11  16]  21-[8  14] -> 7
 6-[-0  7]  56-[-0  8]  57-[-0  12]  8-[-0  10]  19-[0  8]  28-[7  16]  38-[1  11]  59-[5  15]  57-[-0  1]  59-[9  15]  9-[-0  14]  24-[-0  16]  43-[13  16]  53-[-0  9]  10-[2  11]  3-[11  16]  10-[2  8]  9-[-0  14]  54-[-0  7]  63-[-0  7]  38-[1  11]  51-[13  16] -> 7
 30-[0  6]  52-[0  15]  44-[2  11]  44-[2  14]  46-[1  8]  49-[-0  6]  16-[-0  2]  2-[6  10]  22-[-0  10]  11-[7  14]  26-[1  14]  31-[-0  15]  48-[-0  10]  42-[5  13]  31-[-0  1]  18-[1  8]  1-[0  8]  19-[-0  6]  60-[-0  6]  36-[5  16]  13-[6  14]  48-[-0  1] -> 7
 25-[-0  9]  40-[-0  5]  37-[3  9]  51-[10  16]  60-[-0  14]  14-[12  16]  58-[3  16]  55-[-0  9]  54-[-0  2]  52-[2  14]  62-[-0  4]  1-[-0  7]  62-[-0  12]  19-[-0  13]  61-[-0  8]  6-[6  13]  41-[-0  11]  12-[2  11]  25-[-0  9]  28-[14  16]  40-[-0  16]  41-[-0  13] -> 7
 51-[15  16]  60-[1  5]  52-[3  15]  41-[0  16]  51-[4  16]  11-[2  16]  39-[-0  13]  16-[-0  12]  31-[-0  8]  15-[0  3]  52-[4  12]  1-[-0  6]  40-[-0  11]  10-[2  3]  17-[-0  3]  16-[-0  9]  19-[-0  5]  8-[-0  5]  23-[-0  8]  42-[1  11]  39-[-0  14]  47-[-0  2] -> 7
 63-[-0  15]  1-[-0  16]  31-[-0  3]  53-[-0  8]  3-[1  16]  28-[6  14]  16-[-0  5]  23-[-0  6]  51-[9  16]  30-[-0  10]  46-[3  8]  10-[3  7]  60-[-0  9]  26-[2  6]  52-[0  6]  62-[-0  8]  41-[-0  14]  27-[1  9]  43-[11  16]  23-[-0  8]  12-[3  15]  23-[-0  8] -> 7
 25-[-0  7]  23-[-0  4]  49-[-0  9]  49-[-0  11]  3-[7  16]  19-[2  8]  10-[7  13]  45-[-0  10]  22-[2  9]  39-[-0  4]  32-[-0  14]  25-[-0  11]  48-[-0  4]  59-[5  16]  48-[-0  7]  5-[2  5]  1-[-0  1]  53-[-0  6]  3-[9  16]  7-[-0  11]  60-[-0  6]  5-[1  6] -> 7
 59-[11  16]  16-[-0  16]  47-[-0  5]  17-[-0  11]  53-[-0  4]  51-[14  16]  37-[11  16]  50-[8  10]  36-[2  16]  13-[11  16]  50-[1  16]  59-[1  15]  1-[-0  5]  27-[4  10]  47-[-0  8]  59-[6  15]  49-[-0  9]  5-[7  14]  38-[-0  6]  48-[-0  13]  55-[-0  15]  32-[-0  3] -> 7
 32-[-0  3]  6-[-0  14]  9-[6  14]  57-[1  4]  52-[-0  5]  57-[1  3]  49-[-0  1]  9-[2  11]  30-[-0  4]  43-[9  16]  13-[4  8]  61-[-0  1]  10-[7  16]  8-[-0  12]  46-[-0  14]  8-[-0  9]  53-[-0  2]  9-[5  13]  14-[0  13]  25-[-0  3]  55-[-0  10]  49-[-0  14] -> 7
 4-[6  16]  54-[-0  14]  32-[-0  1]  31-[-0  6]  40-[-0  10]  62-[-0  1]  15-[-0  9]  13-[3  9]  45-[11  15]  61-[-0  12]  18-[-0  3]  54-[-0  16]  33-[3  13]  9-[0  16]  56-[-0  4]  1-[-0  8]  4-[2  16]  3-[7  16]  46-[1  9]  18-[-0  6]  13-[4  14]  26-[-0  15] -> 7
 11-[1  11]  61-[-0  1]  50-[1  7]  51-[6  14]  33-[-0  4]  30-[2  13]  59-[9  16]  4-[5  16]  60-[1  15]  33-[-0  2]  10-[2  5]  44-[7  13]  41-[-0  1]  50-[1  7]  19-[-0  15]  56-[-0  6]  20-[1  3]  15-[-0  1]  35-[5  16]  23-[-0  5]  17-[-0  5]  47-[-0  10] -> 7
 18-[-0  9]  50-[5  13]  30-[6  16]  1-[-0  14]  37-[11  15]  25-[-0  11]  30-[7  12]  59-[5  16]  56-[-0  7]  19-[-0  7]  21-[10  16]  51-[2  16]  16-[-0  16]  21-[13  16]  29-[6  16]  14-[4  15]  56-[-0  9]  22-[0  12]  18-[-0  12]  14-[3  16]  43-[3  16]  1-[-0  10] -> 7
 1-[-0  11]  35-[2  16]  4-[8  16]  48-[-0  11]  27-[1  5]  20-[6  11]  52-[2  5]  25-[-0  11]  1-[-0  13]  26-[2  11]  7-[-0  7]  33-[3  10]  52-[2  15]  45-[0  9]  38-[6  10]  5-[7  11]  25-[-0  5]  18-[-0  7]  6-[-0  2]  40-[-0  7]  46-[-0  4]  59-[4  14] -> 7
 46-[-0  7]  45-[-0  14]  45-[-0  12]  38-[5  14]  25-[-0  14]  59-[14  16]  39-[-0  6]  23-[-0  1]  6-[1  6]  54-[-0  3]  8-[-0  13]  26-[0  15]  16-[-0  3]  33-[-0  1]  43-[13  16]  50-[1  15]  45-[-0  4]  52-[5  13]  36-[1  16]  44-[1  16]  14-[6  11]  29-[4  16] -> 7
 17-[-0  15]  41-[-0  6]  8-[-0  14]  5-[4  16]  34-[1  9]  26-[-0  16]  58-[5  14]  55-[-0  13]  3-[3  12]  49-[-0  12]  63-[-0  1]  20-[4  16]  1-[-0  16]  60-[-0  6]  55-[-0  12]  45-[-0  2]  22-[1  9]  24-[-0  4]  50-[2  14]  1-[-0  14]  47-[-0  11]  29-[4  16] -> 7
 12-[8  15]  51-[8  14]  51-[12  14]  20-[-0  16]  60-[5  9]  20-[-0  14]  42-[-0  15]  37-[10  16]  12-[6  12]  5-[9  16]  22-[2  13]  50-[-0  12]  39-[-0  15]  37-[5  16]  57-[-0  14]  7-[-0  12]  32-[-0  1]  10-[5  16]  16-[-0  7]  27-[1  14]  28-[2  15]  1-[-0  9] -> 7
 19-[-0  8]  48-[-0  3]  16-[-0  4]  4-[3  15]  23-[-0  15]  57-[-0  5]  26-[0  4]  13-[4  16]  22-[1  13]  16-[-0  12]  57-[-0  16]  54-[-0  10]  35-[13  16]  37-[13  16]  19-[-0  4]  16-[-0  11]  39-[-0  16]  60-[3  8]  60-[4  10]  28-[1  16]  14-[3  10]  29-[6  16] -> 7
 44-[2  15]  39-[-0  4]  15-[-0  13]  56-[-0  11]  60-[-0  14]  27-[1  7]  7-[-0  1]  12-[4  16]  59-[4  15]  44-[2  15]  31-[-0  14]  51-[14  16]  26-[1  12]  46-[2  10]  43-[12  15]  19-[-0  14]  48-[-0  5]  8-[-0  1]  35-[5  16]  9-[-0  5]  62-[-0  9]  17-[-0  11] -> 7
 29-[5  15]  37-[6  16]  46-[-0  6]  32-[-0  16]  29-[2  10]  14-[6  16]  22-[-0  2]  32-[-0  5]  4-[4  16]  11-[2  12]  53-[-0  15]  31-[-0  10]  44-[6  14]  22-[-0  10]  30-[-0  15]  51-[7  16]  61-[-0  6]  15-[-0  12]  8-[-0  8]  58-[1  7]  63-[-0  7]  31-[-0  12] -> 7
 7-[-0  2]  48-[-0  4]  38-[1  11]  13-[3  16]  61-[-0  5]  42-[0  9]  51-[12  15]  31-[-0  14]  58-[4  11]  35-[4  16]  51-[4  16]  38-[1  9]  13-[8  16]  20-[1  10]  39-[-0  9]  11-[9  15]  16-[-0  12]  54-[-0  12]  10-[10  15]  39-[-0  8]  2-[6  15]  61-[-0  10] -> 7
 3-[3  16]  49-[-0  16]  12-[2  12]  45-[0  12]  30-[-0  14]  11-[1  9]  5-[6  14]  47-[-0  1]  25-[-0  10]  8-[-0  15]  25-[-0  14]  44-[1  13]  3-[14  16]  61-[-0  2]  10-[3  9]  25-[-0  1]  56-[-0  10]  15-[1  6]  15-[1  15]  52-[2  15]  4-[7  13]  53-[-0  16] -> 7
 16-[-0  4]  23-[-0  1]  28-[1  5]  24-[-0  10]  31-[-0  13]  30-[1  6]  43-[4  15]  53-[-0  9]  9-[-0  11]  30-[2  6]  23-[-0  2]  51-[11  16]  62-[-0  3]  45-[3  16]  62-[-0  12]  57-[-0  3]  45-[1  12]  2-[1  7]  18-[6  15]  46-[-0  9]  53-[-0  13]  15-[1  7] -> 7
 20-[-0  8]  2-[2  4]  27-[1  13]  10-[12  15]  35-[4  12]  18-[8  16]  2-[2  16]  49-[-0  4]  19-[1  10]  56-[-0  3]  20-[-0  16]  51-[5  15]  31-[-0  5]  22-[1  14]  19-[7  12]  45-[6  15]  50-[-0  12]  13-[10  16]  61-[-0  3]  5-[1  16]  10-[1  14]  26-[3  16] -> 7
 35-[3  16]  55-[-0  3]  4-[2  16]  37-[3  16]  63-[-0  14]  47-[-0  5]  56-[-0  11]  28-[1  14]  24-[-0  4]  19-[-0  4]  43-[2  16]  25-[-0  1]  11-[4  14]  3-[2  16]  52-[1  16]  17-[-0  16]  6-[4  16]  12-[2  14]  32-[-0  4]  8-[-0  1]  44-[13  16]  5-[7  16] -> 7
 51-[4  16]  33-[-0  14]  45-[-0  10]  50-[0  12]  30-[1  9]  52-[2  10]  31-[-0  13]  60-[-0  10]  62-[-0  16]  39-[-0  11]  8-[-0  16]  9-[-0  9]  33-[-0  15]  6-[2  13]  2-[2  11]  2-[2  4]  63-[-0  7]  40-[-0  3]  51-[5  16]  26-[-0  11]  23-[-0  12]  20-[-0  7] -> 7
 13-[8  16]  43-[6  16]  56-[-0  11]  21-[2  15]  51-[2  15]  55-[-0  5]  11-[10  16]  40-[-0  14]  23-[-0  10]  11-[6  16]  52-[1  3]  45-[2  13]  29-[3  7]  21-[11  15]  63-[-0  16]  54-[-0  15]  7-[-0  3]  31-[-0  1]  46-[0  12]  12-[2  15]  57-[-0  11]  42-[1  8] -> 7
 13-[6  16]  32-[-0  4]  13-[6  16]  44-[8  16]  43-[7  13]  60-[4  12]  24-[-0  7]  17-[3  9]  25-[-0  1]  35-[10  16]  9-[1  7]  63-[-0  16]  60-[2  10]  47-[-0  6]  11-[7  16]  60-[6  10]  6-[0  2]  9-[1  7]  42-[1  16]  49-[-0  7]  38-[7  16]  12-[9  16] -> 7
 9-[1  6]  32-[-0  10]  1-[-0  5]  37-[10  15]  53-[12  16]  33-[-0  6]  59-[12  16]  47-[-0  2]  58-[10  12]  19-[11  16]  31-[-0  16]  24-[-0  16]  13-[-0  12]  50-[5  15]  43-[0  7]  19-[7  16]  49-[6  10]  48-[-0  14]  21-[1  8]  36-[3  15]  59-[6  16]  11-[10  16] -> 8
 41-[-0  8]  46-[6  12]  51-[1  14]  38-[1  8]  14-[-0  6]  11-[6  14]  62-[0  13]  18-[10  16]  22-[-0  6]  35-[3  15]  13-[12  16]  25-[0  9]  32-[-0  12]  27-[12  16]  36-[6  15]  14-[-0  14]  29-[0  6]  52-[2  16]  46-[7  14]  31-[-0  11]  36-[9  14]  44-[-0  13] -> 8
 43-[2  8]  35-[15  16]  46-[-0  11]  10-[2  16]  6-[-0  4]  10-[11  16]  26-[2  12]  43-[2  9]  19-[0  6]  6-[-0  15]  1-[-0  3]  10-[8  16]  41-[0  2]  40-[-0  16]  3-[10  15]  46-[-0  8]  26-[1  14]  36-[8  16]  54-[0  13]  63-[-0  8]  35-[14  16]  29-[7  12] -> 8
 30-[-0  4]  58-[4  9]  54-[-0  5]  40-[-0  2]  32-[-0  7]  41-[2  15]  44-[6  16]  43-[-0  16]  59-[9  14]  62-[-0  12]  54-[-0  3]  26-[3  14]  52-[1  6]  25-[-0  7]  23-[-0  7]  2-[6  13]  31-[-0  13]  6-[-0  16]  19-[3  16]  54-[-0  14]  19-[9  16]  38-[-0  5] -> 8
 11-[4  15]  12-[1  8]  1-[-0  14]  55-[-0  9]  29-[1  15]  56-[-0  7]  11-[12  14]  61-[2  14]  31-[-0  11]  9-[0  14]  1-[-0  15]  62-[1  12]  34-[5  13]  27-[12  16]  42-[6  16]  40-[-0  8]  35-[15  16]  12-[1  13]  45-[4  15]  47-[-0  6]  5-[-0  13]  24-[-0  2] -> 8
 18-[8  16]  23-[-0  4]  26-[1  11]  56-[-0  3]  34-[2  13]  34-[6  15]  31-[-0  11]  13-[0  16]  6-[-0  4]  38-[-0  16]  49-[2  14]  37-[3  14]  1-[-0  8]  31-[-0  14]  39-[-0  5]  37-[1  15]  12-[2  12]  18-[8  16]  57-[0  8]  37-[1  14]  1-[-0  13]  39-[-0  14] -> 8
 47-[-0  12]  41-[0  2]  25-[1  15]  17-[5  14]  8-[-0  10]  59-[2  16]  55-[-0  15]  47-[-0  12]  41-[0  11]  14-[-0  8]  50-[5  16]  46-[5  14]  19-[0  16]  37-[9  12]  17-[6  16]  29-[4  15]  21-[1  13]  49-[-0  7]  47-[-0  5]  38-[3  15]  52-[2  9]  30-[-0  12] -> 8
 63-[-0  8]  33-[-0  4]  38-[-0  10]  58-[9  15]  28-[1  16]  63-[-0  16]  12-[6  16]  8-[-0  2]  63-[-0  16]  35-[9  16]  13-[12  16]  24-[-0  9]  1-[1  7]  59-[5  16]  47-[-0  1]  31-[-0  14]  46-[-0  6]  27-[14  16]  29-[12  14]  35-[14  16]  58-[12  15]  5-[1  16] -> 8
 32-[-0  1]  9-[-0  14]  33-[-0  14]  25-[5  10]  29-[0  16]  11-[13  16]  51-[8  13]  61-[1  7]  37-[0  5]  37-[0  8]  18-[11  16]  28-[10  16]  54-[-0  7]  61-[2  13]  48-[-0  15]  57-[-0  7]  49-[-0  10]  51-[9  11]  15-[-0  6]  11-[7  16]  18-[6  16]  58-[1  11] -> 8
 1-[-0  4]  46-[1  12]  14-[-0  11]  63-[-0  3]  32-[-0  1]  32-[-0  12]  7-[-0  3]  46-[1  16]  55-[-0  12]  59-[10  15]  23-[-0  7]  10-[3  13]  4-[5  14]  25-[-0  9]  38-[2  7]  31-[-0  3]  18-[3  16]  30-[0  10]  27-[8  14]  44-[4  5]  28-[13  16]  38-[2  9] -> 8
 9-[-0  9]  59-[4  16]  50-[0  10]  47-[-0  16]  58-[-0  5]  52-[2  14]  3-[2  13]  44-[4  9]  49-[-0  15]  34-[0  5]  20-[1  14]  61-[1  13]  8-[-0  1]  35-[7  15]  24-[-0  12]  39-[-0  1]  2-[1  3]  46-[-0  3]  51-[2  16]  13-[9  16]  3-[6  12]  9-[-0  5] -> 8
 63-[-0  15]  45-[10  16]  43-[1  8]  27-[10  13]  3-[6  15]  37-[4  11]  43-[2  6]  54-[4  15]  48-[-0  16]  55-[-0  8]  49-[-0  9]  36-[6  16]  48-[-0  3]  37-[6  13]  17-[5  12]  5-[9  14]  58-[1  10]  2-[1  12]  44-[1  15]  3-[10  14]  6-[2  5]  25-[1  4] -> 8
 39-[-0  6]  30-[-0  3]  23-[-0  16]  46-[-0  10]  8-[-0  13]  48-[-0  14]  60-[1  16]  37-[1  4]  49-[-0  15]  53-[11  16]  18-[10  16]  7-[-0  12]  57-[-0  6]  37-[1  7]  61-[3  9]  7-[-0  6]  9-[-0  14]  9-[-0  11]  11-[2  15]  14-[6  15]  51-[4  16]  39-[-0  7] -> 8
 12-[11  16]  11-[2  9]  30-[1  3]  63-[-0  7]  53-[10  13]  24-[-0  13]  39-[-0  3]  16-[-0  9]  62-[-0  10]  15-[-0  5]  48-[-0  4]  31-[-0  6]  5-[2  12]  41-[-0  9]  32-[-0  2]  12-[7  14]  20-[-0  2]  55-[-0  1]  56-[-0  5]  22-[8  14]  39-[-0  5]  5-[1  16] -> 8
 37-[-0  5]  38-[-0  14]  23-[-0  13]  21-[7  16]  35-[8  14]  18-[3  14]  15-[-0  13]  34-[10  16]  3-[8  11]  61-[-0  1]  34-[11  16]  23-[-0  4]  38-[-0  6]  9-[-0  5]  10-[1  8]  11-[1  15]  59-[3  16]  4-[4  16]  6-[-0  13]  63-[-0  16]  39-[-0  7]  33-[1  3] -> 8
 52-[0  14]  5-[10  16]  42-[8  15]  23-[-0  6]  22-[0  16]  63-[-0  4]  34-[6  14]  44-[4  8]  2-[0  4]  5-[2  13]  33-[-0  2]  51-[3  15]  45-[13  16]  8-[-0  15]  31-[-0  8]  37-[3  8]  31-[-0  12]  61-[9  16]  21-[2  16]  32-[-0  6]  38-[-0  4]  1-[-0  11] -> 8
 36-[7  12]  57-[-0  16]  38-[-0  1]  36-[7  15]  54-[3  12]  7-[-0  3]  1-[-0  11]  36-[4  13]  3-[10  16]  48-[-0  8]  62-[3  10]  25-[0  14]  9-[3  9]  37-[5  15]  44-[0  14]  24-[-0  12]  32-[-0  5]  44-[0  12]  51-[5  15]  42-[10  13]  53-[4  7]  42-[1  14] -> 8
 47-[-0  3]  44-[1  10]  60-[6  16]  3-[4  15]  39-[-0  1]  59-[9  16]  38-[-0  9]  62-[-0  12]  9-[1  4]  44-[1  13]  63-[-0  6]  10-[9  16]  25-[1  15]  4-[4  15]  52-[1  14]  48-[-0  10]  28-[5  16]  22-[3  8]  48-[-0  15]  34-[2  16]  12-[6  13]  36-[1  16] -> 8
 58-[1  14]  1-[-0  1]  44-[3  12]  24-[-0  5]  19-[1  11]  45-[8  16]  56-[-0  2]  2-[2  5]  3-[7  16]  52-[2  14]  40-[-0  11]  25-[2  12]  2-[2  6]  8-[-0  14]  60-[2  16]  14-[-0  8]  60-[13  16]  52-[1  5]  18-[3  16]  29-[2  8]  48-[-0  10]  46-[1  5] -> 8
 32-[-0  11]  8-[-0  1]  26-[5  15]  14-[4  10]  20-[-0  15]  21-[1  14]  32-[-0  5]  3-[10  13]  22-[11  13]  58-[1  15]  22-[4  15]  33-[-0  9]  15-[-0  2]  22-[1  13]  4-[2  16]  2-[1  13]  1-[-0  1]  7-[-0  11]  6-[-0  6]  26-[3  12]  13-[15  16]  57-[-0  6] -> 8
 53-[13  16]  37-[7  16]  47-[-0  13]  11-[6  16]  22-[1  8]  24-[-0  3]  55-[-0  1]  59-[4  15]  62-[0  2]  11-[7  16]  8-[-0  2]  24-[-0  1]  25-[-0  15]  31-[-0  7]  25-[-0  12]  11-[3  16]  63-[-0  11]  20-[11  13]  20-[4  13]  62-[0  2]  32-[-0  1]  41-[4  9] -> 8
 24-[-0  1]  6-[-0  2]  11-[3  15]  8-[-0  11]  19-[0  7]  14-[-0  9]  53-[5  16]  63-[-0  1]  11-[1  15]  9-[1  13]  24-[-0  -0]  50-[10  13]  15-[-0  12]  23-[-0  12]  45-[14  16]  6-[-0  15]  27-[13  16]  51-[1  9]  53-[14  16]  39-[-0  11]  19-[0  10]  42-[2  14] -> 8
 37-[0  12]  42-[1  13]  10-[10  16]  53-[1  16]  23-[-0  8]  13-[1  5]  29-[4  7]  12-[3  7]  1-[-0  15]  17-[10  13]  60-[4  12]  23-[-0  3]  25-[5  8]  27-[5  11]  29-[4  7]  25-[3  14]  6-[-0  3]  27-[7  10]  35-[7  16]  43-[9  16]  44-[7  16]  33-[-0  11] -> 8
 48-[-0  4]  60-[8  15]  44-[3  16]  46-[3  16]  11-[7  16]  23-[-0  1]  44-[1  16]  55-[-0  12]  51-[4  6]  26-[7  14]  63-[-0  12]  26-[5  15]  43-[2  4]  9-[2  7]  44-[1  9]  16-[-0  16]  58-[6  10]  63-[-0  14]  44-[1  8]  16-[-0  15]  45-[10  15]  36-[8  16] -> 8
 13-[2  15]  4-[11  16]  56-[-0  6]  47-[-0  3]  6-[0  5]  17-[2  11]  5-[4  14]  6-[0  3]  37-[-0  15]  56-[-0  10]  48-[-0  10]  56-[-0  3]  3-[2  15]  13-[4  15]  33-[-0  6]  16-[-0  15]  61-[10  16]  12-[2  10]  33-[-0  12]  62-[2  15]  31-[-0  12]  41-[1  10] -> 8
 44-[0  5]  13-[3  15]  55-[-0  1]  34-[15  16]  57-[-0  14]  10-[12  16]  53-[11  15]  44-[0  6]  12-[5  11]  56-[-0  11]  5-[2  10]  19-[3  10]  14-[-0  7]  52-[1  5]  53-[7  16]  43-[2  16]  12-[4  16]  45-[8  11]  12-[1  14]  29-[2  11]  61-[8  12]  58-[1  14] -> 8
 6-[-0  12]  51-[3  10]  39-[-0  10]  46-[-0  1]  50-[6  16]  58-[3  15]  40-[-0  2]  28-[15  16]  36-[8  16]  60-[9  16]  12-[3  14]  53-[12  16]  40-[-0  13]  59-[10  16]  13-[1  16]  31-[-0  8]  13-[3  15]  21-[7  16]  24-[-0  13]  7-[-0  5]  52-[4  14]  28-[7  16] -> 8
 20-[0  12]  54-[-0  5]  32-[-0  11]  11-[1  14]  22-[4  13]  4-[1  16]  60-[7  16]  31-[-0  10]  32-[-0  13]  60-[10  16]  30-[-0  16]  48-[-0  12]  44-[-0  8]  56-[-0  7]  32-[-0  10]  14-[6  9]  22-[5  14]  53-[3  16]  44-[1  11]  61-[2  11]  48-[-0  1]  40-[-0  5] -> 8
 40-[-0  10]  16-[-0  5]  52-[2  16]  26-[4  8]  36-[12  16]  60-[13  15]  27-[1  16]  13-[7  15]  17-[-0  15]  3-[8  16]  18-[5  11]  28-[14  16]  8-[-0  15]  45-[3  16]  16-[-0  10]  56-[-0  9]  38-[-0  10]  23-[-0  11]  56-[-0  12]  34-[5  16]  58-[9  15]  13-[-0  2] -> 8
 59-[6  16]  36-[8  16]  33-[-0  11]  60-[9  14]  19-[12  16]  61-[0  2]  62-[-0  12]  49-[1  11]  16-[-0  7]  63-[-0  13]  45-[3  10]  20-[8  16]  61-[0  8]  40-[-0  3]  46-[-0  3]  51-[5  16]  62-[-0  4]  39-[-0  4]  24-[-0  12]  7-[-0  8]  12-[2  11]  12-[1  14] -> 8
 53-[-0  3]  18-[1  13]  6-[-0  16]  32-[-0  4]  42-[12  16]  49-[-0  6]  49-[-0  5]  13-[10  16]  34-[2  11]  42-[7  16]  31-[-0  7]  16-[-0  10]  12-[1  16]  30-[-0  11]  17-[-0  13]  25-[-0  2]  38-[-0  7]  30-[-0  15]  36-[2  14]  6-[-0  5]  39-[-0  7]  32-[-0  3] -> 8
 29-[-0  1]  24-[-0  8]  48-[-0  -0]  46-[-0  8]  23-[-0  12]  59-[12  16]  52-[0  14]  36-[-0  16]  3-[2  15]  41-[3  9]  49-[2  16]  59-[7  15]  56-[-0  13]  11-[1  12]  15-[-0  7]  5-[10  16]  19-[3  15]  48-[-0  13]  53-[-0  9]  38-[-0  11]  44-[-0  8]  13-[15  16] -> 8
 38-[-0  5]  50-[8  14]  20-[5  14]  29-[6  16]  22-[4  12]  16-[-0  2]  16-[-0  3]  24-[-0  12]  9-[2  13]  49-[-0  7]  45-[3  16]  49-[-0  1]  41-[-0  11]  37-[3  14]  60-[1  16]  39-[-0  8]  36-[13  15]  28-[7  16]  36-[3  15]  38-[-0  13]  44-[1  3]  30-[0  13] -> 8
 8-[-0  14]  7-[-0  14]  60-[4  16]  29-[12  16]  11-[13  16]  55-[-0  16]  61-[8  16]  9-[-0  12]  56-[-0  6]  58-[2  7]  22-[-0  8]  31-[-0  16]  48-[-0  11]  11-[13  16]  56-[-0  2]  57-[-0  12]  32-[-0  10]  20-[15  16]  5-[3  8]  16-[-0  5]  33-[-0  4]  48-[-0  8] -> 9
 13-[1  16]  8-[-0  9]  30-[5  13]  16-[-0  7]  44-[-0  14]  47-[-0  1]  49-[0  5]  32-[-0  7]  38-[2  16]  24-[-0  11]  13-[9  16]  38-[1  15]  39-[-0  6]  53-[13  16]  45-[11  13]  43-[-0  4]  63-[-0  1]  59-[7  15]  13-[13  14]  2-[3  13]  9-[1  11]  13-[11  15] -> 9
 63-[-0  15]  5-[0  14]  24-[-0  12]  34-[1  16]  53-[1  16]  34-[-0  5]  32-[-0  7]  36-[2  7]  35-[1  15]  29-[13  16]  34-[1  14]  52-[4  13]  21-[11  16]  25-[1  10]  30-[1  7]  47-[-0  1]  48-[-0  14]  27-[5  16]  14-[-0  16]  28-[11  15]  7-[-0  9]  16-[-0  7] -> 9
 35-[2  10]  42-[-0  2]  57-[-0  16]  23-[-0  11]  23-[-0  10]  42-[-0  6]  12-[7  15]  49-[-0  14]  18-[1  15]  51-[-0  13]  57-[-0  1]  20-[1  14]  42-[-0  5]  48-[-0  4]  56-[-0  15]  44-[-0  16]  10-[5  16]  19-[-0  9]  35-[3  9]  20-[-0  1]  4-[3  14]  53-[14  16] -> 9
 51-[4  14]  56-[-0  6]  20-[3  14]  6-[-0  15]  43-[-0  14]  26-[6  16]  34-[-0  1]  22-[1  4]  45-[6  12]  4-[7  16]  32-[-0  11]  8-[-0  12]  6-[-0  15]  62-[5  10]  57-[-0  12]  29-[15  16]  39-[-0  14]  10-[4  15]  25-[1  7]  57-[-0  8]  29-[12  16]  12-[6  16] -> 9
 57-[-0  14]  39-[-0  5]  47-[-0  11]  2-[-0  7]  30-[3  9]  44-[-0  15]  54-[1  7]  3-[0  10]  26-[9  14]  8-[-0  5]  44-[-0  16]  7-[-0  13]  23-[-0  8]  29-[7  16]  37-[6  11]  28-[6  16]  49-[-0  6]  17-[1  8]  48-[-0  7]  50-[-0  5]  25-[-0  8]  39-[-0  15] -> 9
 34-[-0  16]  44-[-0  5]  39-[-0  11]  55-[-0  3]  61-[7  14]  62-[-0  16]  43-[-0  2]  2-[1  9]  25-[-0  2]  40-[-0  6]  6-[-0  2]  13-[9  16]  20-[7  16]  24-[-0  1]  26-[2  16]  32-[-0  1]  4-[6  14]  50-[3  16]  59-[6  13]  40-[-0  11]  9-[0  5]  29-[2  16] -> 9
 44-[-0  6]  36-[-0  14]  54-[2  12]  21-[4  13]  13-[5  16]  10-[5  15]  55-[-0  9]  40-[-0  11]  62-[0  13]  41-[-0  7]  31-[-0  11]  28-[4  10]  36-[-0  3]  19-[8  15]  22-[-0  2]  9-[3  9]  29-[11  16]  31-[-0  -0]  52-[4  10]  53-[2  16]  4-[8  15]  8-[-0  11] -> 9
 16-[-0  12]  10-[6  16]  43-[-0  2]  8-[-0  11]  43-[-0  10]  17-[1  14]  12-[6  16]  41-[-0  8]  39-[-0  15]  37-[1  15]  2-[5  10]  9-[1  9]  25-[1  8]  34-[2  9]  41-[-0  1]  50-[-0  15]  52-[1  9]  42-[-0  7]  50-[-0  14]  25-[1  8]  49-[-0  11]  29-[3  16] -> 9
 52-[2  8]  4-[9  12]  17-[8  13]  22-[-0  7]  28-[6  16]  19-[7  16]  5-[1  4]  43-[-0  3]  34-[-0  3]  25-[3  6]  22-[-0  12]  11-[3  10]  8-[-0  14]  32-[-0  15]  33-[-0  14]  52-[6  16]  35-[-0  10]  56-[-0  11]  35-[-0  9]  41-[-0  16]  40-[-0  -0]  16-[-0  5] -> 9
 25-[4  5]  56-[-0  11]  58-[5  16]  27-[2  10]  61-[2  11]  3-[7  16]  1-[-0  10]  44-[-0  8]  17-[-0  12]  46-[7  14]  51-[2  15]  55-[-0  7]  4-[1  15]  1-[-0  16]  61-[1  4]  44-[-0  10]  59-[14  16]  18-[5  12]  37-[7  14]  62-[-0  14]  54-[2  6]  52-[2  11] -> 9
 52-[1  9]  28-[11  16]  49-[1  16]  9-[3  15]  44-[1  3]  60-[4  16]  36-[3  13]  60-[12  16]  57-[0  12]  57-[0  15]  17-[7  12]  18-[3  16]  6-[-0  12]  24-[-0  8]  55-[-0  14]  2-[2  16]  57-[0  7]  17-[7  15]  17-[2  14]  35-[-0  11]  52-[1  4]  12-[8  14] -> 9
 27-[7  14]  43-[-0  15]  7-[-0  11]  27-[7  13]  7-[-0  15]  26-[10  14]  34-[-0  4]  58-[1  12]  16-[-0  8]  36-[0  15]  59-[6  15]  14-[-0  1]  15-[-0  12]  14-[-0  10]  48-[-0  8]  21-[8  16]  19-[-0  10]  58-[5  10]  35-[3  12]  49-[-0  8]  63-[-0  13]  56-[-0  2] -> 9
 55-[-0  4]  56-[-0  16]  42-[-0  10]  21-[12  16]  58-[5  10]  63-[-0  10]  49-[-0  5]  32-[-0  4]  54-[6  8]  25-[0  8]  32-[-0  9]  15-[-0  4]  35-[3  16]  16-[-0  10]  3-[4  16]  62-[-0  16]  46-[7  16]  16-[-0  8]  21-[1  16]  30-[2  12]  43-[-0  1]  39-[-0  16] -> 9
 17-[3  12]  33-[-0  15]  22-[2  14]  38-[4  11]  48-[-0  3]  8-[-0  1]  34-[-0  3]  7-[-0  14]  10-[7  16]  38-[3  16]  39-[-0  16]  14-[3  9]  20-[3  11]  5-[7  14]  24-[-0  14]  36-[3  16]  50-[10  14]  18-[5  16]  18-[4  15]  9-[2  13]  6-[1  6]  61-[6  9] -> 9
 47-[-0  9]  30-[1  11]  18-[15  16]  27-[6  16]  59-[3  13]  55-[-0  2]  43-[-0  2]  22-[1  11]  51-[1  7]  38-[0  11]  40-[-0  2]  58-[-0  8]  48-[-0  6]  28-[11  16]  26-[11  16]  38-[0  2]  41-[-0  8]  49-[-0  16]  2-[-0  15]  23-[-0  11]  55-[-0  4]  7-[-0  6] -> 9
 6-[-0  7]  3-[9  16]  37-[7  12]  42-[-0  7]  45-[9  16]  48-[-0  11]  59-[15  16]  23-[-0  2]  33-[-0  3]  60-[7  16]  41-[-0  16]  55-[-0  15]  46-[2  8]  32-[-0  13]  20-[8  10]  57-[-0  9]  28-[5  13]  5-[4  15]  61-[2  8]  48-[-0  14]  22-[3  10]  7-[-0  8] -> 9
 8-[-0  14]  4-[3  11]  57-[-0  16]  32-[-0  3]  25-[1  16]  7-[-0  16]  56-[-0  16]  47-[-0  7]  42-[-0  8]  22-[2  16]  20-[5  13]  63-[-0  3]  40-[-0  9]  6-[1  16]  51-[1  16]  6-[2  10]  45-[4  7]  21-[5  16]  30-[-0  13]  15-[-0  1]  52-[6  13]  36-[1  16] -> 9
 31-[-0  5]  1-[-0  7]  32-[-0  11]  2-[5  12]  63-[-0  1]  27-[6  16]  32-[-0  5]  52-[4  11]  61-[1  12]  51-[3  10]  33-[-0  4]  31-[-0  14]  5-[1  6]  13-[7  11]  52-[8  15]  30-[3  12]  47-[-0  9]  31-[-0  6]  45-[9  16]  42-[-0  16]  43-[-0  9]  42-[-0  8] -> 9
 21-[8  14]  37-[3  10]  62-[-0  14]  19-[-0  11]  31-[-0  2]  41-[-0  4]  25-[2  5]  28-[11  16]  9-[2  13]  15-[-0  13]  7-[-0  8]  30-[0  2]  19-[-0  10]  16-[-0  6]  46-[-0  16]  28-[11  15]  52-[4  12]  43-[4  16]  24-[-0  7]  34-[0  2]  21-[9  15]  2-[1  5] -> 9
 53-[-0  3]  28-[7  15]  36-[13  16]  46-[-0  12]  45-[0  11]  60-[8  12]  36-[10  15]  59-[1  16]  50-[-0  13]  2-[-0  6]  63-[-0  12]  37-[5  9]  37-[3  12]  11-[4  13]  57-[-0  16]  63-[-0  16]  22-[3  9]  8-[-0  8]  48-[-0  15]  18-[4  15]  1-[-0  2]  7-[-0  2] -> 9
 31-[-0  11]  5-[2  8]  6-[-0  14]  22-[3  13]  6-[-0  11]  54-[3  16]  4-[13  16]  4-[6  16]  13-[12  15]  36-[1  12]  44-[-0  11]  50-[9  15]  18-[1  13]  38-[4  16]  49-[2  14]  37-[8  15]  28-[11  16]  57-[-0  14]  24-[-0  9]  21-[2  16]  3-[2  15]  36-[1  6] -> 9
 51-[5  14]  43-[-0  2]  56-[-0  1]  56-[-0  14]  13-[3  10]  26-[4  15]  60-[5  13]  7-[-0  1]  39-[-0  10]  14-[-0  1]  7-[-0  5]  5-[0  3]  12-[9  15]  59-[5  16]  8-[-0  3]  13-[2  16]  1-[-0  16]  10-[7  12]  26-[4  13]  26-[2  14]  28-[10  16]  32-[-0  3] -> 9
 24-[-0  10]  51-[1  8]  62-[-0  7]  26-[12  14]  13-[11  16]  55-[-0  4]  28-[3  13]  23-[-0  5]  58-[1  12]  57-[-0  5]  6-[-0  11]  25-[0  6]  15-[-0  6]  21-[5  16]  25-[-0  15]  35-[2  6]  54-[1  5]  58-[1  12]  63-[-0  16]  56-[-0  15]  12-[4  12]  34-[0  8] -> 9
 56-[-0  10]  38-[2  12]  10-[12  14]  26-[3  10]  13-[3  10]  50-[0  3]  6-[-0  12]  10-[3  16]  18-[12  15]  31-[-0  5]  23-[-0  10]  11-[3  14]  54-[3  15]  14-[-0  7]  28-[3  12]  12-[7  11]  2-[2  15]  4-[12  15]  34-[-0  11]  50-[0  7]  40-[-0  -0]  45-[2  7] -> 9
 13-[7  11]  7-[-0  14]  27-[3  8]  35-[-0  12]  16-[-0  1]  34-[-0  4]  40-[-0  4]  44-[-0  7]  10-[7  16]  34-[-0  2]  57-[-0  10]  29-[6  16]  32-[-0  7]  20-[10  12]  28-[3  16]  41-[-0  14]  50-[7  9]  61-[1  16]  44-[-0  12]  19-[9  14]  20-[3  13]  8-[-0  5] -> 9
 62-[-0  3]  44-[3  16]  1-[-0  2]  7-[-0  13]  34-[-0  7]  52-[9  16]  20-[7  16]  62-[-0  3]  15-[-0  6]  53-[1  7]  14-[13  16]  58-[-0  9]  43-[-0  6]  30-[9  16]  61-[-0  2]  45-[5  12]  10-[2  9]  4-[4  16]  36-[-0  13]  27-[7  11]  10-[2  8]  55-[-0  8] -> 9
 40-[-0  16]  13-[7  13]  42-[-0  2]  2-[3  10]  56-[-0  15]  40-[-0  2]  48-[-0  9]  49-[0  7]  11-[1  15]  17-[-0  13]  54-[1  13]  1-[-0  13]  4-[6  10]  5-[3  8]  48-[-0  6]  1-[-0  13]  46-[7  10]  42-[-0  7]  41-[-0  14]  49-[0  10]  39-[-0  4]  39-[-0  12] -> 9
 57-[-0  1]  40-[-0  9]  37-[1  9]  22-[6  16]  22-[5  12]  27-[12  15]  57-[-0  2]  54-[-0  8]  25-[1  7]  36-[3  16]  25-[2  8]  60-[-0  4]  49-[-0  5]  21-[14  16]  25-[1  7]  57-[-0  10]  48-[-0  7]  1-[-0  9]  30-[0  6]  60-[-0  -0]  25-[1  8]  49-[-0  11] -> 9
 15-[-0  12]  4-[8  16]  15-[-0  4]  47-[-0  11]  22-[1  5]  15-[-0  7]  54-[10  16]  12-[8  16]  3-[1  16]  45-[2  16]  12-[7  16]  59-[5  15]  7-[-0  11]  26-[6  14]  37-[5  16]  44-[-0  9]  48-[-0  15]  7-[-0  15]  7-[-0  10]  55-[-0  3]  21-[13  16]  1-[0  5] -> 9
 3-[8  16]  44-[-0  14]  4-[6  16]  46-[2  12]  18-[10  14]  53-[9  16]  57-[-0  -0]  17-[3  6]  8-[-0  3]  41-[-0  14]  17-[2  15]  7-[-0  15]  54-[2  7]  1-[-0  16]  10-[1  16]  41-[-0  14]  29-[3  16]  31-[-0  2]  17-[2  16]  1-[-0  13]  21-[9  16]  41-[-0  4] -> 9
 29-[3  16]  43-[-0  2]  28-[4  16]  4-[10  11]  56-[-0  13]  62-[-0  14]  41-[-0  7]  13-[1  15]  58-[4  12]  63-[-0  1]  55-[-0  6]  63-[-0  4]  37-[7  16]  53-[8  16]  1-[-0  14]  3-[10  16]  47-[-0  5]  52-[2  12]  47-[-0  3]  18-[1  16]  11-[5  16]  11-[4  14] -> 9
 26-[1  16]  61-[7  13]  51-[4  9]  8-[-0  2]  33-[-0  15]  5-[1  8]  59-[11  16]  29-[12  16]  16-[-0  6]  45-[8  15]  18-[11  13]  40-[-0  10]  49-[-0  3]  63-[-0  11]  32-[-0  5]  41-[-0  8]  38-[1  10]  37-[9  16]  15-[-0  16]  7-[-0  5]  56-[-0  10]  62-[-0  1] -> 9
ACCURACY on training set 66.8	

TEST ACCURACY 35.1896	
