best on training set at iteration 0:  17.8	
best on training set at iteration 100:  17.8	
best on training set at iteration 200:  17.8	
best on training set at iteration 300:  17.8	
best on training set at iteration 400:  17.8	
best on training set at iteration 500:  17.8	
best on training set at iteration 600:  17.8	
best on training set at iteration 700:  17.8	
best on training set at iteration 800:  17.8	
best on training set at iteration 900:  17.8	
best on training set at iteration 1000:  17.8	
best on training set at iteration 1100:  17.9	
best on training set at iteration 1200:  17.9	
best on training set at iteration 1300:  17.9	
best on training set at iteration 1400:  17.9	
best on training set at iteration 1500:  17.9	
best on training set at iteration 1600:  18.2	
best on training set at iteration 1700:  18.2	
best on training set at iteration 1800:  18.2	
best on training set at iteration 1900:  18.2	
best on training set at iteration 2000:  18.2	
best on training set at iteration 2100:  18.2	
best on training set at iteration 2200:  18.3	
best on training set at iteration 2300:  18.3	
best on training set at iteration 2400:  18.3	
best on training set at iteration 2500:  18.3	
best on training set at iteration 2600:  18.3	
best on training set at iteration 2700:  18.3	
best on training set at iteration 2800:  18.3	
best on training set at iteration 2900:  18.3	
best on training set at iteration 3000:  18.3	
best on training set at iteration 3100:  18.3	
best on training set at iteration 3200:  18.3	
best on training set at iteration 3300:  18.3	
best on training set at iteration 3400:  18.3	
best on training set at iteration 3500:  18.4	
best on training set at iteration 3600:  18.4	
best on training set at iteration 3700:  18.4	
best on training set at iteration 3800:  18.4	
best on training set at iteration 3900:  18.4	
best on training set at iteration 4000:  18.4	
best on training set at iteration 4100:  18.4	
best on training set at iteration 4200:  18.4	
best on training set at iteration 4300:  18.4	
best on training set at iteration 4400:  18.4	
best on training set at iteration 4500:  18.5	
best on training set at iteration 4600:  18.6	
best on training set at iteration 4700:  18.6	
best on training set at iteration 4800:  18.6	
best on training set at iteration 4900:  18.6	
best on training set at iteration 5000:  18.6	
best on training set at iteration 5100:  18.6	
best on training set at iteration 5200:  18.6	
best on training set at iteration 5300:  18.6	
best on training set at iteration 5400:  18.6	
best on training set at iteration 5500:  18.6	
best on training set at iteration 5600:  18.7	
best on training set at iteration 5700:  18.8	
best on training set at iteration 5800:  18.8	
best on training set at iteration 5900:  18.9	
best on training set at iteration 6000:  18.9	
best on training set at iteration 6100:  18.9	
best on training set at iteration 6200:  18.9	
best on training set at iteration 6300:  18.9	
best on training set at iteration 6400:  18.9	
best on training set at iteration 6500:  18.9	
best on training set at iteration 6600:  18.9	
best on training set at iteration 6700:  18.9	
best on training set at iteration 6800:  18.9	
best on training set at iteration 6900:  18.9	
best on training set at iteration 7000:  18.9	
best on training set at iteration 7100:  18.9	
best on training set at iteration 7200:  18.9	
best on training set at iteration 7300:  18.9	
best on training set at iteration 7400:  18.9	
best on training set at iteration 7500:  18.9	
best on training set at iteration 7600:  18.9	
best on training set at iteration 7700:  18.9	
best on training set at iteration 7800:  19	
best on training set at iteration 7900:  19	
best on training set at iteration 8000:  19	
best on training set at iteration 8100:  19.1	
best on training set at iteration 8200:  19.1	
best on training set at iteration 8300:  19.1	
best on training set at iteration 8400:  19.2	
best on training set at iteration 8500:  19.2	
best on training set at iteration 8600:  19.2	
best on training set at iteration 8700:  19.2	
best on training set at iteration 8800:  19.2	
best on training set at iteration 8900:  19.2	
best on training set at iteration 9000:  19.3	
best on training set at iteration 9100:  19.4	
best on training set at iteration 9200:  19.4	
best on training set at iteration 9300:  19.4	
best on training set at iteration 9400:  19.5	
best on training set at iteration 9500:  19.5	
best on training set at iteration 9600:  19.5	
best on training set at iteration 9700:  19.5	
best on training set at iteration 9800:  19.5	
best on training set at iteration 9900:  19.5	

 45-[2  15]  47-[-0  11]  39-[-0  15]  20-[2  5]  59-[13  16]  28-[-0  14]  57-[-0  7]  55-[-0  8]  34-[9  16]  50-[8  14]  24-[-0  1]  55-[-0  11]  51-[7  10]  54-[-0  3]  49-[0  16]  57-[-0  5]  52-[1  14]  21-[5  11]  34-[10  15]  38-[4  12]  36-[-0  12]  34-[1  12]  23-[-0  6]  55-[-0  2]  49-[0  11]  37-[3  12]  18-[9  16]  17-[0  11]  30-[1  12]  26-[12  16]  1-[-0  4]  52-[10  15]  3-[14  16]  33-[2  15]  47-[-0  1]  33-[1  6]  49-[0  15]  45-[10  14]  56-[-0  11]  9-[-0  3]  59-[7  16]  47-[-0  1]  56-[-0  4] -> 0
 7-[-0  7]  7-[-0  8]  3-[10  14]  45-[1  11]  25-[1  15]  45-[3  11]  4-[7  16]  20-[-0  8]  8-[-0  8]  21-[8  15]  9-[-0  6]  10-[7  16]  38-[2  11]  60-[6  16]  10-[6  14]  1-[-0  12]  35-[-0  6]  20-[-0  10]  32-[-0  9]  20-[-0  15]  53-[7  15]  35-[-0  14]  21-[6  16]  54-[-0  6]  22-[-0  11]  24-[-0  10]  44-[-0  9]  20-[-0  9]  22-[-0  16]  49-[1  5]  23-[-0  9]  10-[3  16]  14-[-0  6]  31-[-0  2]  12-[5  7]  20-[-0  12]  53-[3  15]  12-[3  11]  22-[-0  14]  18-[8  15]  34-[5  12]  50-[7  16]  43-[-0  4] -> 0
 23-[-0  8]  46-[3  5]  40-[-0  4]  38-[1  12]  4-[7  11]  56-[-0  11]  63-[-0  6]  16-[-0  5]  21-[11  15]  16-[-0  7]  44-[-0  5]  2-[1  5]  4-[9  11]  9-[-0  10]  14-[-0  14]  30-[5  8]  40-[-0  14]  20-[-0  13]  39-[-0  7]  4-[6  12]  15-[-0  3]  12-[4  16]  1-[-0  13]  59-[7  16]  19-[-0  3]  59-[4  15]  41-[2  11]  42-[10  15]  15-[-0  2]  6-[-0  3]  31-[-0  1]  33-[3  7]  14-[-0  9]  15-[-0  14]  32-[-0  13]  19-[-0  1]  7-[-0  14]  7-[-0  4]  36-[-0  16]  16-[-0  4]  7-[-0  15]  62-[-0  5]  8-[-0  10] -> 0
 23-[-0  4]  47-[-0  8]  34-[11  14]  44-[-0  13]  55-[-0  2]  29-[8  15]  26-[10  14]  31-[-0  5]  16-[-0  10]  16-[-0  14]  49-[0  5]  3-[3  14]  57-[-0  1]  40-[-0  5]  41-[3  5]  27-[-0  2]  59-[3  16]  42-[15  16]  27-[-0  1]  49-[0  14]  2-[2  10]  16-[-0  4]  42-[3  16]  36-[-0  3]  48-[-0  1]  50-[5  16]  3-[7  12]  49-[0  13]  18-[6  16]  44-[-0  10]  36-[-0  4]  52-[4  16]  63-[-0  6]  58-[2  13]  36-[-0  11]  47-[-0  14]  55-[-0  6]  1-[-0  14]  28-[-0  15]  48-[-0  15]  15-[-0  2]  41-[2  12]  5-[2  10] -> 0
 58-[-0  6]  37-[5  15]  51-[7  16]  38-[4  15]  42-[9  16]  17-[3  5]  4-[3  16]  48-[-0  14]  10-[2  15]  43-[1  11]  22-[-0  10]  54-[-0  14]  22-[-0  16]  45-[14  16]  62-[-0  6]  18-[8  16]  7-[-0  3]  9-[-0  12]  17-[3  11]  9-[-0  13]  16-[-0  5]  16-[-0  16]  58-[-0  16]  2-[-0  13]  50-[3  14]  46-[3  15]  58-[-0  15]  8-[-0  8]  39-[-0  9]  54-[-0  -0]  8-[-0  5]  34-[5  16]  34-[7  16]  12-[8  16]  3-[7  15]  60-[4  16]  25-[1  16]  61-[2  12]  60-[4  15]  58-[-0  3]  29-[8  16]  40-[-0  4]  25-[3  9] -> 0
 48-[-0  16]  6-[-0  9]  63-[-0  7]  55-[-0  6]  53-[1  16]  59-[12  16]  20-[4  15]  14-[-0  10]  61-[1  7]  56-[-0  4]  36-[-0  15]  58-[2  16]  60-[5  14]  7-[-0  8]  22-[2  15]  52-[6  13]  21-[3  16]  38-[5  12]  15-[-0  12]  56-[-0  15]  37-[10  14]  19-[3  13]  15-[-0  6]  58-[3  13]  29-[3  14]  20-[2  10]  50-[1  16]  57-[-0  5]  32-[-0  15]  41-[3  8]  18-[12  16]  1-[-0  10]  48-[-0  11]  41-[1  13]  53-[8  16]  1-[-0  14]  14-[-0  11]  6-[-0  9]  51-[8  13]  23-[-0  8]  40-[-0  10]  29-[7  13]  42-[6  16] -> 0
 1-[-0  6]  54-[-0  4]  13-[8  15]  23-[-0  14]  59-[8  15]  45-[12  16]  63-[-0  16]  13-[2  14]  11-[5  16]  51-[6  14]  15-[-0  8]  55-[-0  16]  8-[-0  15]  29-[3  15]  16-[-0  12]  56-[-0  10]  35-[-0  16]  55-[-0  2]  8-[-0  10]  34-[8  15]  59-[5  16]  44-[2  11]  13-[2  14]  62-[-0  9]  46-[1  6]  43-[-0  11]  11-[11  16]  45-[8  16]  38-[6  16]  50-[14  16]  63-[-0  15]  13-[8  14]  7-[-0  16]  17-[1  9]  54-[-0  4]  62-[-0  9]  62-[-0  7]  53-[3  8]  39-[-0  13]  42-[6  15]  49-[3  14]  40-[-0  14]  37-[6  16] -> 0
 55-[-0  10]  26-[4  16]  63-[-0  2]  14-[-0  1]  23-[-0  14]  45-[10  15]  40-[-0  16]  45-[4  15]  14-[-0  10]  13-[6  16]  34-[9  15]  56-[-0  14]  27-[-0  7]  42-[6  16]  60-[8  16]  7-[-0  4]  17-[1  10]  29-[4  15]  31-[-0  13]  3-[14  16]  60-[11  16]  48-[-0  4]  20-[2  14]  2-[1  14]  40-[-0  8]  1-[-0  8]  56-[-0  6]  3-[2  16]  42-[7  16]  44-[-0  5]  50-[3  16]  4-[6  12]  11-[1  16]  36-[-0  14]  10-[5  15]  59-[5  14]  11-[8  16]  8-[-0  11]  61-[3  15]  56-[-0  7]  13-[3  14]  57-[-0  3]  21-[2  16] -> 0
 16-[-0  1]  51-[6  16]  56-[-0  4]  36-[-0  7]  42-[14  16]  52-[2  16]  37-[3  16]  30-[7  13]  41-[3  5]  46-[3  13]  23-[-0  9]  38-[7  13]  24-[-0  14]  8-[-0  12]  38-[6  13]  12-[4  14]  46-[5  12]  2-[4  9]  23-[-0  9]  29-[4  9]  2-[3  12]  2-[1  12]  15-[-0  9]  52-[2  16]  20-[-0  2]  43-[-0  9]  27-[-0  13]  41-[3  12]  7-[-0  4]  56-[-0  3]  23-[-0  8]  52-[13  16]  40-[-0  3]  11-[7  14]  42-[9  16]  12-[5  10]  5-[1  3]  60-[7  16]  53-[10  16]  44-[1  10]  25-[1  11]  16-[-0  2]  53-[14  16] -> 0
 33-[5  14]  3-[13  16]  30-[4  9]  35-[-0  4]  60-[14  16]  29-[2  14]  2-[3  11]  25-[3  8]  58-[2  5]  5-[1  11]  54-[1  14]  62-[-0  12]  28-[-0  13]  15-[-0  11]  1-[-0  16]  12-[7  13]  55-[-0  9]  22-[2  16]  51-[8  16]  30-[1  9]  38-[6  13]  41-[2  13]  1-[-0  9]  22-[2  14]  61-[1  8]  46-[7  12]  15-[-0  5]  59-[10  16]  41-[2  15]  62-[-0  13]  44-[-0  15]  58-[3  13]  35-[-0  12]  39-[-0  10]  37-[3  13]  16-[-0  16]  17-[1  8]  63-[-0  11]  59-[3  16]  13-[3  16]  53-[9  16]  17-[1  11]  34-[3  7] -> 0
 16-[-0  4]  57-[-0  14]  46-[1  15]  24-[-0  1]  14-[-0  13]  21-[3  15]  36-[-0  5]  6-[-0  16]  6-[-0  12]  15-[-0  6]  15-[-0  11]  44-[-0  1]  38-[1  13]  24-[-0  2]  14-[-0  6]  22-[0  16]  55-[-0  13]  41-[1  11]  16-[-0  13]  30-[2  7]  41-[1  6]  39-[-0  1]  32-[-0  14]  48-[-0  6]  13-[4  16]  29-[2  9]  31-[-0  16]  45-[2  11]  15-[-0  9]  40-[-0  9]  33-[1  10]  31-[-0  14]  5-[-0  12]  60-[1  16]  13-[4  15]  47-[-0  11]  60-[1  16]  39-[-0  12]  54-[1  14]  38-[7  11]  56-[-0  6]  36-[-0  2]  30-[2  15] -> 0
 63-[-0  9]  35-[-0  16]  2-[1  10]  15-[-0  7]  12-[5  15]  51-[1  9]  46-[6  16]  27-[-0  15]  15-[-0  1]  51-[3  8]  35-[-0  5]  58-[2  9]  53-[12  16]  39-[-0  -0]  48-[-0  13]  22-[3  14]  5-[4  15]  10-[7  16]  10-[9  16]  3-[14  16]  62-[0  2]  24-[-0  11]  62-[0  15]  27-[-0  7]  61-[8  16]  31-[-0  14]  27-[-0  15]  35-[-0  1]  31-[-0  9]  55-[-0  2]  43-[3  15]  56-[-0  4]  3-[12  16]  45-[8  14]  48-[-0  9]  40-[-0  5]  57-[-0  3]  21-[4  16]  48-[-0  5]  40-[-0  10]  29-[4  11]  39-[-0  16]  23-[-0  12] -> 0
 57-[-0  5]  32-[-0  12]  28-[-0  12]  6-[-0  11]  9-[-0  2]  4-[1  16]  44-[0  16]  45-[6  16]  10-[4  16]  31-[-0  15]  62-[-0  13]  58-[1  5]  29-[7  11]  13-[10  16]  21-[3  16]  46-[1  9]  6-[-0  10]  20-[0  12]  35-[3  16]  43-[0  11]  43-[0  7]  8-[-0  9]  62-[-0  13]  35-[3  13]  52-[3  16]  49-[-0  15]  27-[4  11]  13-[2  15]  46-[5  11]  51-[11  15]  62-[-0  16]  6-[-0  16]  8-[-0  8]  12-[3  16]  1-[-0  10]  47-[-0  9]  33-[1  9]  19-[6  11]  62-[-0  6]  41-[1  8]  3-[4  16]  22-[1  13]  57-[-0  10] -> 0
 36-[-0  14]  53-[4  15]  25-[2  12]  41-[1  8]  30-[2  12]  22-[3  14]  51-[10  16]  60-[4  16]  16-[-0  6]  43-[-0  2]  26-[1  16]  28-[-0  5]  44-[-0  6]  11-[8  15]  3-[9  16]  5-[0  15]  62-[-0  16]  26-[1  10]  35-[-0  8]  33-[3  16]  56-[-0  5]  35-[-0  7]  3-[10  15]  12-[1  16]  34-[4  16]  30-[5  14]  11-[4  15]  47-[-0  2]  10-[6  15]  37-[3  6]  13-[5  15]  59-[7  14]  26-[2  10]  46-[3  12]  25-[1  9]  44-[-0  14]  2-[1  11]  24-[-0  15]  44-[-0  9]  27-[-0  5]  30-[3  12]  61-[8  10]  45-[4  11] -> 0
 17-[3  5]  29-[3  5]  55-[-0  14]  50-[3  16]  43-[0  4]  31-[-0  14]  37-[3  10]  50-[1  16]  61-[-0  -0]  33-[5  11]  33-[5  11]  50-[14  16]  49-[-0  6]  46-[2  12]  60-[3  14]  40-[-0  7]  48-[-0  4]  24-[-0  1]  11-[1  14]  3-[12  15]  5-[1  5]  34-[6  16]  61-[-0  -0]  7-[-0  2]  50-[2  16]  62-[-0  5]  38-[2  9]  4-[1  15]  45-[7  16]  49-[-0  7]  47-[-0  9]  33-[7  15]  15-[-0  1]  37-[1  10]  60-[5  10]  22-[1  10]  22-[1  9]  38-[3  16]  13-[8  15]  8-[-0  12]  51-[4  16]  21-[5  13]  42-[8  16] -> 0
 49-[-0  12]  58-[1  11]  46-[6  10]  61-[9  16]  34-[11  14]  56-[-0  12]  50-[11  16]  13-[1  13]  57-[-0  5]  36-[-0  2]  11-[8  16]  10-[4  16]  13-[6  14]  15-[-0  12]  46-[6  11]  63-[-0  13]  37-[1  9]  1-[-0  10]  28-[-0  4]  14-[-0  8]  10-[7  16]  50-[9  16]  27-[-0  7]  54-[1  12]  12-[5  16]  46-[6  12]  3-[6  12]  41-[2  9]  11-[4  16]  4-[3  6]  23-[-0  13]  31-[-0  5]  34-[3  15]  9-[-0  11]  39-[-0  10]  6-[-0  3]  44-[-0  8]  61-[9  12]  18-[13  16]  34-[3  14]  14-[-0  5]  49-[-0  11]  44-[-0  8] -> 0
 10-[5  16]  32-[-0  6]  30-[5  13]  50-[12  16]  55-[-0  1]  22-[1  10]  59-[8  16]  55-[-0  2]  44-[0  11]  10-[11  16]  11-[11  16]  25-[1  10]  55-[-0  16]  51-[3  11]  57-[-0  8]  45-[6  16]  16-[-0  6]  6-[-0  7]  16-[-0  16]  54-[1  10]  44-[0  7]  41-[2  10]  55-[-0  4]  6-[-0  8]  29-[7  13]  31-[-0  4]  61-[2  11]  52-[9  13]  48-[-0  15]  57-[-0  15]  59-[9  16]  8-[-0  7]  47-[-0  7]  58-[1  7]  53-[11  16]  10-[14  16]  33-[2  15]  5-[0  15]  24-[-0  10]  43-[0  15]  49-[0  13]  55-[-0  4]  3-[10  15] -> 0
 18-[1  11]  57-[-0  8]  63-[-0  10]  42-[1  3]  16-[-0  14]  43-[14  16]  36-[4  16]  12-[15  16]  43-[3  16]  15-[-0  7]  60-[7  16]  41-[-0  3]  21-[6  15]  62-[-0  5]  22-[-0  9]  11-[14  16]  48-[-0  14]  15-[-0  2]  15-[-0  4]  34-[1  7]  13-[4  8]  46-[1  10]  22-[-0  1]  60-[5  16]  15-[-0  16]  17-[-0  10]  33-[-0  1]  15-[-0  3]  20-[2  16]  36-[2  16]  1-[-0  8]  36-[15  16]  44-[3  16]  39-[-0  4]  10-[5  12]  3-[13  16]  56-[-0  10]  21-[5  15]  56-[-0  5]  50-[1  15]  17-[-0  11]  8-[-0  5]  24-[-0  2] -> 1
 14-[-0  8]  38-[-0  1]  43-[12  16]  48-[-0  10]  41-[0  6]  7-[-0  12]  48-[-0  8]  19-[2  16]  8-[-0  6]  59-[9  12]  54-[-0  12]  16-[-0  1]  51-[7  16]  34-[4  15]  36-[2  16]  12-[5  16]  2-[5  12]  59-[9  14]  30-[-0  7]  21-[2  14]  21-[3  9]  7-[-0  3]  58-[1  5]  23-[-0  1]  40-[-0  1]  25-[-0  10]  45-[8  15]  47-[-0  14]  58-[1  15]  52-[6  16]  13-[4  15]  57-[-0  14]  61-[3  14]  47-[-0  10]  3-[8  15]  28-[8  16]  1-[-0  4]  53-[6  12]  17-[-0  5]  44-[1  16]  35-[3  16]  48-[-0  15]  5-[4  14] -> 1
 28-[13  16]  10-[-0  4]  40-[-0  10]  60-[6  16]  61-[-0  14]  55-[-0  6]  50-[4  8]  62-[-0  7]  34-[-0  10]  46-[-0  13]  9-[-0  1]  15-[-0  3]  36-[10  16]  35-[2  16]  40-[-0  9]  59-[5  15]  58-[1  16]  27-[8  14]  33-[-0  12]  61-[-0  15]  40-[-0  1]  35-[9  16]  58-[1  10]  10-[-0  13]  39-[-0  16]  51-[15  16]  18-[-0  9]  1-[-0  6]  17-[-0  5]  7-[-0  8]  52-[12  16]  38-[-0  1]  34-[-0  3]  47-[-0  12]  38-[-0  11]  45-[1  6]  52-[2  16]  44-[4  16]  26-[-0  4]  63-[-0  15]  59-[2  16]  55-[-0  4]  57-[-0  13] -> 1
 58-[-0  13]  58-[-0  6]  61-[1  16]  17-[1  6]  13-[10  16]  12-[9  16]  40-[-0  1]  24-[-0  5]  28-[7  15]  34-[-0  9]  52-[7  16]  43-[-0  14]  16-[-0  10]  11-[9  16]  13-[1  16]  38-[-0  2]  23-[-0  -0]  14-[-0  10]  21-[2  16]  60-[13  16]  9-[-0  10]  9-[-0  13]  21-[13  16]  39-[-0  1]  59-[2  9]  63-[-0  15]  16-[-0  5]  52-[13  16]  1-[-0  11]  8-[-0  1]  61-[8  15]  46-[-0  1]  7-[-0  7]  62-[1  15]  10-[6  8]  56-[-0  11]  61-[3  15]  42-[-0  14]  12-[9  16]  45-[7  16]  48-[-0  6]  20-[11  16]  20-[3  16] -> 1
 51-[-0  11]  14-[-0  4]  42-[-0  14]  33-[-0  11]  10-[-0  3]  8-[-0  11]  42-[-0  8]  25-[3  10]  41-[-0  10]  62-[1  11]  31-[-0  10]  43-[-0  7]  21-[4  15]  53-[6  16]  8-[-0  11]  23-[-0  15]  40-[-0  4]  28-[14  16]  15-[-0  7]  28-[2  16]  3-[-0  5]  54-[1  13]  28-[3  16]  50-[-0  7]  49-[-0  10]  53-[1  16]  59-[-0  1]  16-[-0  14]  42-[-0  7]  10-[-0  6]  63-[-0  9]  17-[0  3]  58-[-0  1]  56-[-0  11]  1-[-0  11]  50-[-0  2]  47-[-0  5]  14-[-0  5]  8-[-0  6]  36-[6  16]  58-[-0  7]  19-[2  12]  40-[-0  7] -> 1
 16-[-0  9]  21-[1  6]  60-[12  16]  21-[2  6]  37-[2  9]  15-[-0  2]  53-[4  13]  23-[-0  1]  59-[8  16]  59-[11  16]  19-[12  16]  51-[9  16]  23-[-0  10]  23-[-0  9]  43-[1  16]  36-[12  16]  61-[1  13]  48-[-0  5]  16-[-0  2]  12-[15  16]  13-[1  8]  15-[-0  2]  47-[-0  14]  15-[-0  13]  54-[-0  6]  4-[5  14]  10-[5  15]  22-[-0  7]  48-[-0  4]  39-[-0  8]  35-[14  16]  50-[1  16]  23-[-0  -0]  62-[-0  8]  34-[2  11]  51-[6  16]  25-[4  15]  13-[4  9]  60-[2  16]  33-[-0  15]  31-[-0  16]  39-[-0  11]  5-[2  16] -> 1
 52-[3  16]  6-[-0  1]  11-[3  16]  47-[-0  2]  58-[0  6]  61-[8  16]  52-[12  16]  59-[5  10]  10-[1  7]  60-[4  14]  54-[0  14]  6-[-0  7]  34-[1  16]  39-[-0  1]  2-[0  3]  49-[-0  11]  4-[9  16]  49-[-0  6]  30-[-0  3]  4-[7  11]  32-[-0  15]  55-[-0  6]  53-[2  16]  57-[-0  5]  28-[2  16]  56-[-0  8]  50-[4  9]  16-[-0  7]  34-[1  3]  4-[9  14]  15-[-0  5]  42-[0  9]  4-[2  12]  34-[1  10]  46-[-0  1]  47-[-0  14]  54-[0  5]  27-[5  16]  32-[-0  2]  40-[-0  14]  42-[0  2]  62-[1  11]  10-[3  10] -> 1
 44-[1  9]  25-[2  9]  2-[-0  6]  29-[6  16]  21-[7  16]  42-[-0  13]  62-[6  11]  9-[-0  6]  55-[-0  3]  30-[-0  10]  36-[6  14]  55-[-0  2]  35-[-0  4]  16-[-0  13]  61-[12  16]  34-[-0  9]  63-[-0  1]  45-[13  16]  44-[7  15]  29-[10  16]  46-[1  5]  41-[-0  1]  6-[1  12]  54-[2  14]  11-[2  16]  63-[-0  6]  2-[-0  2]  30-[-0  10]  22-[-0  13]  20-[2  16]  47-[-0  14]  39-[-0  13]  51-[-0  12]  49-[-0  15]  35-[-0  11]  39-[-0  5]  18-[2  16]  47-[-0  10]  59-[-0  7]  11-[2  16]  30-[-0  1]  21-[14  16]  61-[7  16] -> 1
 53-[13  16]  2-[2  8]  14-[-0  7]  30-[-0  6]  18-[1  15]  43-[0  3]  53-[8  16]  10-[1  5]  22-[-0  1]  33-[-0  9]  18-[2  12]  58-[2  6]  13-[-0  4]  19-[4  16]  59-[9  16]  50-[1  15]  43-[0  12]  33-[-0  1]  46-[-0  1]  50-[1  10]  63-[6  15]  54-[8  16]  35-[2  15]  55-[5  10]  2-[3  14]  14-[-0  15]  52-[3  16]  30-[-0  10]  27-[6  16]  45-[3  15]  28-[12  14]  60-[2  16]  36-[11  16]  23-[-0  15]  62-[9  16]  15-[-0  11]  32-[-0  11]  8-[-0  1]  22-[-0  15]  28-[9  16]  14-[-0  7]  61-[6  16]  63-[1  14] -> 1
 4-[8  16]  35-[7  10]  42-[-0  15]  17-[2  14]  26-[7  14]  3-[10  12]  11-[15  16]  21-[2  6]  11-[1  16]  56-[-0  11]  50-[-0  1]  57-[-0  9]  57-[-0  7]  59-[4  9]  2-[-0  12]  54-[1  3]  34-[-0  11]  36-[3  16]  25-[2  14]  19-[10  16]  51-[1  13]  35-[1  14]  56-[-0  2]  48-[-0  11]  58-[-0  5]  26-[2  14]  43-[6  15]  60-[9  16]  3-[3  12]  29-[1  15]  17-[6  15]  42-[-0  14]  43-[3  12]  63-[-0  4]  39-[-0  2]  45-[4  15]  11-[5  16]  40-[-0  4]  41-[-0  12]  55-[-0  3]  52-[5  16]  56-[-0  6]  48-[-0  6] -> 1
 51-[9  15]  18-[6  12]  43-[9  16]  20-[5  16]  56-[-0  2]  12-[5  16]  42-[-0  5]  19-[9  16]  59-[2  12]  25-[-0  5]  35-[12  16]  46-[-0  11]  33-[-0  9]  57-[-0  14]  28-[3  16]  57-[-0  6]  26-[2  13]  4-[2  14]  54-[-0  3]  17-[-0  9]  55-[-0  7]  57-[-0  9]  61-[-0  2]  51-[12  15]  46-[-0  7]  30-[-0  12]  30-[-0  7]  17-[-0  1]  13-[2  12]  46-[-0  2]  40-[-0  1]  24-[-0  11]  8-[-0  4]  9-[-0  6]  5-[-0  8]  29-[1  14]  58-[-0  6]  40-[-0  8]  30-[-0  10]  2-[-0  2]  40-[-0  6]  28-[4  16]  32-[-0  1] -> 1
 36-[4  16]  19-[6  16]  16-[-0  1]  47-[-0  9]  51-[11  16]  53-[8  16]  22-[-0  10]  2-[3  13]  9-[-0  8]  36-[6  16]  35-[1  8]  59-[3  16]  41-[-0  16]  56-[-0  13]  20-[4  14]  18-[2  16]  62-[15  16]  41-[-0  6]  57-[-0  13]  18-[2  16]  58-[3  14]  22-[-0  14]  60-[2  16]  42-[-0  4]  19-[7  16]  56-[-0  7]  29-[0  16]  5-[-0  11]  50-[5  12]  59-[13  16]  30-[-0  2]  43-[0  7]  43-[0  9]  35-[2  10]  9-[-0  2]  54-[6  15]  3-[12  15]  48-[-0  11]  49-[-0  10]  7-[-0  10]  51-[4  16]  49-[-0  3]  52-[14  16] -> 1
 4-[-0  15]  13-[-0  4]  9-[-0  4]  55-[2  15]  59-[7  16]  1-[-0  1]  60-[3  16]  33-[-0  4]  48-[-0  8]  55-[3  13]  21-[-0  4]  2-[5  16]  27-[12  16]  21-[-0  12]  32-[-0  4]  7-[-0  13]  43-[4  10]  18-[11  15]  4-[-0  6]  60-[10  16]  40-[-0  14]  20-[2  4]  43-[3  10]  60-[9  16]  45-[-0  15]  12-[1  4]  6-[-0  13]  40-[-0  9]  27-[14  16]  17-[3  13]  19-[3  16]  10-[5  8]  30-[-0  4]  42-[-0  5]  3-[5  14]  52-[4  16]  44-[3  15]  34-[0  2]  36-[4  13]  38-[-0  13]  40-[-0  10]  39-[-0  4]  48-[-0  1] -> 1
 38-[-0  2]  30-[-0  12]  18-[5  14]  44-[6  16]  46-[-0  4]  59-[1  13]  58-[0  11]  37-[2  12]  52-[5  16]  60-[1  15]  15-[-0  8]  53-[3  16]  25-[-0  9]  6-[-0  4]  59-[10  16]  16-[-0  16]  62-[-0  16]  25-[-0  15]  4-[5  10]  53-[8  14]  31-[-0  5]  15-[-0  5]  57-[-0  11]  6-[-0  6]  2-[1  12]  30-[-0  16]  47-[-0  16]  19-[6  16]  21-[4  12]  54-[-0  3]  23-[-0  1]  12-[7  16]  12-[10  16]  19-[15  16]  37-[1  15]  51-[9  16]  4-[7  9]  11-[4  16]  8-[-0  12]  42-[2  16]  51-[13  16]  54-[-0  15]  57-[-0  11] -> 1
 22-[-0  16]  57-[-0  6]  19-[15  16]  40-[-0  7]  3-[3  11]  10-[7  11]  8-[-0  16]  59-[3  16]  7-[-0  8]  49-[-0  2]  37-[8  15]  11-[3  16]  8-[-0  7]  34-[5  14]  14-[-0  12]  61-[1  13]  35-[14  16]  62-[-0  6]  37-[9  16]  31-[-0  9]  43-[6  16]  40-[-0  7]  15-[-0  6]  59-[6  15]  59-[7  13]  51-[6  16]  48-[-0  12]  36-[4  16]  60-[4  12]  29-[3  16]  13-[2  16]  41-[-0  11]  27-[5  16]  17-[-0  14]  18-[4  14]  17-[-0  1]  17-[-0  14]  38-[-0  5]  35-[1  16]  23-[-0  11]  17-[-0  16]  49-[-0  5]  48-[-0  11] -> 1
 17-[1  7]  54-[4  7]  50-[3  8]  63-[-0  7]  11-[15  16]  5-[7  12]  35-[11  16]  19-[3  16]  3-[4  16]  9-[-0  9]  9-[-0  1]  39-[-0  16]  9-[-0  7]  19-[11  16]  3-[3  16]  22-[-0  12]  9-[-0  10]  34-[5  16]  50-[2  16]  27-[4  16]  38-[-0  9]  13-[4  15]  12-[12  16]  46-[-0  7]  33-[1  14]  48-[-0  9]  1-[-0  3]  7-[-0  13]  27-[2  16]  23-[-0  14]  10-[5  12]  46-[-0  5]  27-[9  16]  62-[1  8]  50-[2  14]  6-[-0  14]  39-[-0  15]  4-[7  16]  52-[5  16]  22-[-0  5]  9-[-0  6]  5-[2  9]  11-[9  16] -> 1
 7-[-0  7]  62-[5  14]  45-[2  16]  62-[2  7]  6-[1  14]  50-[-0  9]  45-[4  16]  24-[-0  5]  1-[-0  5]  25-[5  10]  54-[1  14]  18-[3  16]  11-[-0  12]  50-[-0  15]  54-[3  11]  53-[4  16]  13-[10  16]  23-[-0  12]  26-[8  16]  10-[-0  12]  55-[-0  3]  27-[4  15]  13-[2  16]  63-[-0  10]  26-[12  16]  1-[-0  3]  55-[-0  12]  22-[-0  2]  19-[2  16]  63-[-0  16]  47-[-0  9]  53-[7  16]  32-[-0  13]  24-[-0  10]  8-[-0  10]  8-[-0  -0]  4-[4  14]  53-[7  16]  43-[-0  3]  59-[-0  15]  8-[-0  13]  4-[8  16]  38-[-0  10] -> 1
 26-[0  10]  32-[-0  5]  60-[11  16]  63-[2  6]  25-[1  11]  29-[-0  12]  36-[2  16]  55-[-0  13]  54-[3  10]  7-[-0  14]  38-[-0  16]  26-[0  16]  55-[-0  8]  44-[4  7]  35-[10  14]  40-[-0  15]  8-[-0  6]  30-[-0  13]  49-[-0  7]  11-[5  15]  20-[10  16]  54-[1  9]  28-[2  16]  4-[3  8]  53-[4  14]  39-[-0  6]  51-[3  16]  36-[8  15]  2-[12  16]  17-[3  15]  7-[-0  14]  20-[7  16]  20-[8  16]  27-[2  15]  26-[0  7]  52-[10  14]  60-[13  16]  23-[-0  12]  41-[-0  4]  16-[-0  8]  37-[-0  4]  41-[-0  2]  62-[2  16] -> 2
 55-[-0  4]  63-[-0  15]  1-[-0  9]  29-[-0  12]  62-[4  7]  9-[5  10]  34-[1  15]  15-[-0  4]  13-[9  14]  60-[5  16]  31-[-0  3]  54-[2  8]  2-[8  14]  14-[-0  4]  7-[-0  15]  20-[8  14]  56-[-0  8]  1-[-0  1]  8-[-0  3]  12-[7  16]  42-[3  16]  29-[-0  4]  8-[-0  16]  44-[-0  10]  46-[-0  3]  13-[1  16]  9-[1  11]  44-[-0  11]  26-[-0  4]  6-[-0  13]  22-[-0  14]  18-[3  7]  31-[-0  11]  34-[1  2]  4-[3  16]  31-[-0  1]  22-[-0  10]  6-[-0  14]  22-[-0  10]  60-[1  16]  21-[3  10]  22-[-0  9]  56-[-0  5] -> 2
 54-[6  10]  3-[14  16]  39-[-0  15]  19-[6  14]  42-[-0  12]  41-[-0  12]  30-[1  13]  6-[-0  2]  9-[-0  2]  7-[-0  15]  43-[-0  8]  1-[-0  4]  45-[8  16]  41-[-0  3]  9-[-0  1]  18-[3  13]  60-[13  16]  6-[-0  15]  2-[1  15]  41-[-0  10]  44-[2  14]  50-[1  3]  36-[3  7]  51-[2  11]  31-[-0  14]  6-[-0  1]  10-[9  14]  51-[7  13]  40-[-0  12]  32-[-0  7]  16-[-0  13]  34-[-0  14]  34-[-0  4]  42-[-0  2]  26-[-0  16]  42-[-0  15]  25-[-0  6]  18-[1  10]  59-[7  15]  56-[-0  4]  16-[-0  8]  54-[5  9]  42-[-0  3] -> 2
 18-[2  12]  34-[-0  13]  3-[10  13]  61-[2  14]  46-[-0  8]  36-[2  16]  26-[-0  7]  14-[-0  11]  25-[-0  4]  2-[13  16]  30-[-0  4]  39-[-0  7]  52-[4  14]  15-[-0  14]  46-[-0  8]  3-[9  12]  51-[14  16]  45-[-0  16]  21-[-0  15]  14-[-0  5]  47-[-0  15]  12-[1  12]  25-[-0  6]  2-[7  16]  17-[1  4]  18-[5  12]  47-[-0  2]  45-[-0  11]  6-[-0  4]  49-[1  16]  15-[-0  1]  3-[5  12]  61-[6  15]  52-[5  16]  14-[-0  16]  8-[-0  9]  23-[-0  6]  62-[1  8]  35-[9  13]  22-[-0  15]  8-[-0  8]  8-[-0  3]  13-[-0  4] -> 2
 20-[2  16]  57-[1  3]  22-[-0  3]  62-[3  15]  45-[-0  3]  2-[6  15]  6-[-0  4]  42-[2  15]  62-[4  15]  55-[-0  7]  11-[2  15]  40-[-0  10]  8-[-0  13]  48-[-0  13]  19-[1  10]  13-[3  15]  2-[10  16]  25-[-0  9]  26-[-0  12]  56-[-0  11]  60-[5  16]  23-[-0  3]  41-[0  2]  60-[2  16]  25-[-0  11]  25-[-0  7]  9-[7  14]  35-[14  16]  58-[5  16]  1-[1  12]  15-[-0  7]  35-[2  16]  40-[-0  10]  57-[1  14]  4-[9  16]  15-[-0  14]  11-[2  11]  61-[13  16]  2-[8  16]  60-[5  16]  62-[2  15]  22-[-0  7]  25-[-0  5] -> 2
 8-[-0  5]  42-[6  13]  40-[-0  13]  43-[13  16]  50-[11  16]  46-[-0  12]  63-[0  2]  14-[-0  15]  33-[-0  5]  49-[2  11]  61-[6  16]  27-[2  15]  16-[-0  3]  25-[-0  5]  42-[8  12]  63-[0  11]  20-[15  16]  18-[1  10]  1-[1  14]  2-[11  15]  33-[-0  1]  3-[3  16]  61-[9  16]  23-[-0  3]  31-[-0  8]  23-[-0  10]  55-[0  6]  51-[10  14]  22-[-0  8]  15-[-0  8]  31-[-0  11]  26-[-0  12]  33-[-0  11]  25-[-0  12]  25-[-0  10]  36-[4  14]  28-[13  16]  24-[-0  12]  42-[3  16]  10-[3  16]  17-[1  16]  42-[2  12]  36-[11  14] -> 2
 1-[-0  13]  51-[5  16]  35-[0  7]  12-[8  14]  14-[2  8]  35-[0  8]  30-[-0  10]  28-[4  9]  44-[8  15]  55-[0  3]  42-[-0  5]  43-[7  10]  62-[1  13]  61-[5  16]  13-[2  16]  47-[-0  5]  25-[-0  13]  22-[3  14]  33-[-0  5]  22-[2  5]  26-[-0  8]  12-[5  15]  49-[0  15]  21-[6  16]  24-[-0  9]  35-[0  11]  23-[-0  3]  12-[1  16]  45-[1  8]  16-[-0  8]  14-[2  16]  16-[-0  12]  11-[2  15]  23-[-0  11]  24-[-0  13]  29-[11  16]  21-[15  16]  3-[6  16]  55-[0  2]  11-[8  14]  62-[7  14]  57-[-0  5]  8-[-0  8] -> 2
 42-[-0  11]  26-[0  3]  57-[-0  2]  41-[-0  8]  44-[3  16]  27-[-0  3]  51-[13  16]  32-[-0  10]  4-[2  13]  55-[-0  7]  23-[-0  1]  7-[-0  14]  45-[-0  11]  27-[-0  2]  48-[-0  11]  25-[2  5]  33-[-0  2]  10-[2  16]  47-[-0  6]  11-[5  14]  56-[-0  15]  35-[0  3]  39-[-0  3]  50-[1  8]  45-[-0  5]  35-[0  15]  55-[-0  12]  38-[-0  13]  1-[-0  6]  23-[-0  4]  8-[-0  14]  40-[-0  10]  12-[8  16]  28-[6  15]  56-[-0  15]  37-[-0  1]  34-[-0  13]  8-[-0  14]  52-[8  16]  46-[-0  14]  15-[-0  12]  1-[-0  16]  58-[4  16] -> 2
 58-[9  16]  10-[13  16]  59-[10  16]  17-[2  16]  43-[6  16]  51-[8  16]  22-[-0  15]  31-[-0  15]  31-[-0  3]  8-[-0  1]  37-[-0  16]  45-[-0  12]  63-[-0  6]  48-[-0  5]  15-[-0  6]  7-[-0  14]  6-[-0  7]  25-[-0  14]  52-[6  16]  18-[8  12]  41-[-0  2]  44-[2  13]  46-[-0  15]  50-[7  15]  58-[14  16]  55-[-0  3]  4-[2  12]  5-[-0  5]  35-[8  15]  43-[7  16]  58-[8  16]  8-[-0  13]  20-[9  16]  36-[7  14]  11-[2  16]  55-[-0  10]  29-[-0  2]  60-[8  16]  24-[-0  8]  26-[-0  8]  40-[-0  1]  36-[10  13]  50-[3  16] -> 2
 16-[-0  8]  43-[10  16]  60-[10  13]  37-[-0  12]  34-[-0  3]  55-[-0  2]  15-[-0  10]  49-[-0  9]  62-[2  4]  14-[-0  15]  1-[-0  6]  22-[-0  9]  41-[-0  2]  33-[-0  6]  25-[5  8]  28-[12  16]  6-[-0  14]  16-[-0  13]  8-[-0  13]  25-[5  7]  34-[-0  7]  60-[2  14]  4-[1  14]  17-[4  13]  28-[8  16]  44-[4  11]  16-[-0  3]  51-[4  16]  33-[-0  13]  21-[-0  6]  38-[-0  3]  31-[-0  6]  46-[0  3]  31-[-0  8]  7-[-0  8]  24-[-0  3]  50-[6  15]  60-[10  13]  41-[-0  7]  32-[-0  14]  36-[3  16]  38-[-0  16]  56-[-0  7] -> 2
 55-[0  8]  34-[-0  7]  6-[-0  16]  34-[-0  5]  4-[5  16]  56-[-0  5]  24-[-0  15]  39-[-0  7]  33-[-0  10]  48-[-0  12]  31-[-0  2]  42-[-0  11]  54-[3  15]  18-[2  13]  6-[-0  10]  35-[-0  2]  1-[-0  13]  18-[2  13]  46-[-0  7]  7-[-0  12]  28-[2  6]  21-[1  16]  38-[-0  11]  29-[4  16]  3-[10  14]  63-[1  7]  10-[6  15]  10-[9  15]  34-[-0  16]  3-[9  14]  7-[-0  16]  44-[7  16]  19-[2  12]  50-[3  12]  4-[6  12]  9-[-0  1]  56-[-0  3]  58-[2  15]  5-[0  5]  49-[-0  4]  41-[-0  6]  60-[13  16]  33-[-0  12] -> 2
 23-[-0  4]  2-[5  16]  54-[6  15]  53-[13  16]  9-[-0  13]  55-[-0  1]  24-[-0  14]  11-[8  15]  52-[14  16]  21-[-0  11]  35-[1  12]  31-[-0  14]  31-[-0  15]  3-[1  16]  33-[-0  14]  54-[10  15]  28-[2  14]  55-[-0  12]  34-[-0  12]  60-[9  15]  37-[-0  3]  49-[-0  8]  7-[-0  12]  55-[-0  12]  22-[-0  11]  30-[-0  12]  45-[2  7]  16-[-0  4]  47-[-0  13]  30-[-0  13]  30-[-0  2]  53-[12  16]  14-[-0  3]  47-[-0  5]  7-[-0  6]  9-[-0  12]  7-[-0  12]  62-[1  3]  17-[-0  6]  18-[0  5]  35-[3  14]  36-[4  11]  50-[3  15] -> 2
 19-[8  11]  23-[-0  9]  54-[3  10]  42-[3  15]  24-[-0  14]  17-[1  15]  23-[-0  9]  20-[1  16]  62-[1  14]  35-[7  15]  43-[1  16]  24-[-0  13]  26-[-0  9]  26-[-0  13]  23-[-0  11]  40-[-0  5]  32-[-0  14]  26-[-0  4]  29-[-0  8]  7-[-0  11]  36-[4  16]  43-[7  16]  59-[1  8]  34-[-0  13]  17-[1  12]  12-[1  11]  11-[3  16]  4-[1  12]  52-[2  16]  22-[-0  12]  44-[6  13]  51-[6  16]  38-[-0  6]  55-[-0  6]  19-[8  13]  50-[11  16]  24-[-0  11]  16-[-0  4]  41-[-0  16]  35-[9  14]  55-[-0  10]  39-[-0  6]  3-[7  15] -> 2
 62-[6  16]  2-[1  16]  61-[1  13]  36-[10  13]  20-[5  14]  62-[2  15]  2-[5  15]  19-[2  11]  52-[11  16]  56-[-0  13]  3-[6  15]  31-[-0  1]  42-[0  5]  15-[-0  14]  48-[-0  16]  19-[3  16]  55-[-0  15]  54-[1  8]  31-[-0  8]  55-[-0  16]  15-[-0  10]  15-[-0  15]  11-[11  16]  39-[-0  13]  37-[-0  1]  32-[-0  13]  14-[-0  12]  15-[-0  4]  26-[1  15]  19-[3  8]  6-[-0  6]  24-[-0  2]  40-[-0  1]  50-[3  14]  36-[9  13]  18-[9  14]  2-[4  14]  4-[0  12]  15-[-0  5]  14-[-0  3]  27-[4  16]  19-[1  5]  30-[-0  5] -> 2
 12-[3  16]  8-[-0  14]  32-[-0  2]  41-[-0  3]  16-[-0  9]  51-[2  16]  42-[0  13]  21-[1  13]  45-[-0  2]  56-[-0  14]  24-[-0  5]  50-[2  10]  19-[1  7]  56-[-0  3]  57-[1  15]  27-[2  11]  18-[1  10]  56-[-0  1]  26-[-0  6]  37-[-0  13]  43-[11  16]  17-[2  15]  55-[-0  6]  51-[13  16]  29-[1  8]  6-[-0  9]  19-[1  5]  22-[-0  -0]  13-[1  7]  3-[3  16]  63-[-0  8]  6-[-0  4]  22-[-0  13]  24-[-0  5]  3-[12  16]  31-[-0  8]  11-[8  11]  62-[5  13]  14-[-0  6]  29-[1  5]  60-[13  16]  34-[-0  3]  19-[1  6] -> 2
 49-[1  4]  46-[-0  9]  21-[-0  10]  33-[-0  14]  63-[-0  7]  8-[-0  2]  25-[1  8]  53-[8  16]  16-[-0  1]  21-[-0  9]  42-[3  10]  35-[6  16]  18-[4  16]  57-[-0  3]  4-[-0  3]  13-[-0  14]  18-[3  13]  42-[3  15]  22-[-0  14]  44-[-0  7]  32-[-0  16]  31-[-0  6]  51-[13  16]  26-[3  15]  8-[-0  11]  11-[2  16]  12-[1  10]  19-[6  13]  2-[10  13]  1-[-0  7]  8-[-0  4]  33-[-0  9]  55-[-0  3]  48-[-0  5]  57-[-0  6]  31-[-0  16]  43-[1  16]  11-[11  16]  47-[-0  2]  58-[3  13]  11-[4  16]  6-[-0  10]  62-[4  16] -> 2
 20-[11  16]  31-[-0  1]  10-[11  16]  28-[12  16]  1-[-0  16]  10-[8  16]  58-[4  16]  4-[2  16]  63-[-0  9]  36-[10  13]  51-[5  16]  41-[-0  16]  28-[3  16]  17-[3  11]  15-[-0  11]  6-[-0  10]  52-[14  16]  10-[11  16]  28-[7  16]  4-[1  8]  17-[1  11]  22-[-0  7]  22-[-0  10]  55-[-0  15]  37-[-0  5]  2-[3  10]  20-[2  15]  19-[5  15]  30-[-0  3]  7-[-0  5]  42-[1  7]  58-[1  10]  23-[-0  9]  10-[12  16]  20-[5  16]  10-[12  16]  63-[-0  10]  8-[-0  8]  63-[-0  12]  43-[8  16]  23-[-0  4]  53-[2  16]  15-[-0  9] -> 2
 62-[0  16]  42-[-0  13]  16-[-0  9]  23-[-0  12]  32-[-0  5]  7-[-0  14]  35-[10  16]  37-[3  16]  43-[-0  6]  33-[-0  6]  45-[14  16]  40-[-0  7]  44-[2  11]  45-[3  16]  28-[6  16]  8-[-0  1]  62-[0  14]  6-[-0  9]  33-[-0  5]  5-[2  8]  35-[1  15]  60-[3  13]  32-[-0  10]  30-[-0  11]  28-[15  16]  52-[1  14]  26-[1  16]  63-[-0  16]  18-[-0  -0]  63-[-0  4]  37-[2  15]  25-[-0  16]  2-[7  14]  40-[-0  15]  45-[13  16]  61-[2  12]  13-[11  16]  9-[0  5]  53-[7  16]  52-[11  16]  14-[1  8]  12-[12  16]  58-[6  12] -> 3
 57-[1  16]  10-[7  16]  44-[-0  7]  16-[-0  1]  26-[-0  16]  31-[-0  14]  38-[1  10]  63-[-0  4]  34-[-0  11]  30-[-0  9]  39-[-0  12]  25-[-0  13]  34-[-0  4]  33-[-0  8]  62-[0  13]  40-[-0  3]  34-[-0  3]  22-[-0  1]  42-[-0  3]  32-[-0  16]  62-[0  11]  50-[5  9]  41-[-0  13]  59-[1  12]  44-[-0  13]  32-[-0  4]  17-[-0  8]  62-[0  5]  22-[-0  13]  26-[-0  13]  4-[6  16]  5-[5  8]  44-[-0  2]  57-[1  11]  21-[1  14]  36-[9  15]  10-[7  12]  58-[5  16]  22-[-0  2]  27-[6  14]  7-[-0  8]  41-[-0  8]  23-[-0  -0] -> 3
 16-[-0  7]  6-[-0  12]  26-[1  8]  51-[0  10]  24-[-0  9]  7-[-0  11]  37-[11  16]  19-[1  12]  51-[0  4]  41-[-0  5]  13-[9  16]  40-[-0  12]  1-[1  11]  29-[1  15]  51-[0  9]  50-[9  16]  45-[10  12]  37-[11  16]  16-[-0  3]  54-[1  15]  34-[-0  12]  7-[-0  5]  48-[-0  1]  32-[-0  1]  25-[-0  16]  7-[-0  7]  34-[-0  9]  45-[6  14]  34-[-0  10]  8-[-0  7]  53-[10  15]  56-[-0  13]  45-[5  14]  41-[-0  5]  36-[6  9]  34-[-0  5]  46-[3  16]  13-[15  16]  44-[-0  8]  40-[-0  13]  27-[5  16]  11-[0  9]  25-[-0  3] -> 3
 13-[4  10]  9-[4  13]  31-[-0  16]  55-[-0  1]  10-[5  13]  52-[2  5]  16-[-0  12]  55-[-0  5]  47-[-0  5]  13-[2  12]  30-[-0  5]  33-[-0  11]  10-[2  15]  57-[0  11]  32-[-0  10]  4-[12  15]  33-[-0  8]  55-[-0  4]  30-[-0  7]  1-[1  16]  36-[4  16]  24-[-0  15]  50-[1  15]  45-[10  16]  10-[5  16]  61-[6  14]  25-[-0  6]  38-[4  14]  33-[-0  7]  2-[3  16]  26-[1  5]  44-[-0  5]  20-[1  16]  53-[10  16]  49-[2  16]  32-[-0  4]  2-[4  13]  54-[7  12]  16-[-0  8]  46-[8  16]  21-[7  10]  36-[6  14]  45-[3  16] -> 3
 9-[4  11]  18-[8  13]  47-[-0  2]  6-[-0  13]  41-[-0  13]  47-[-0  14]  53-[7  15]  62-[2  10]  17-[1  7]  20-[3  16]  58-[8  13]  52-[2  8]  20-[7  16]  11-[11  16]  25-[-0  13]  16-[-0  14]  43-[-0  8]  16-[-0  13]  29-[8  11]  29-[3  12]  45-[5  16]  13-[7  15]  37-[12  16]  57-[-0  4]  60-[14  16]  26-[-0  13]  3-[3  5]  34-[-0  8]  10-[11  16]  51-[2  8]  25-[-0  8]  33-[-0  4]  56-[-0  7]  14-[-0  7]  43-[-0  1]  15-[-0  13]  23-[-0  13]  36-[1  16]  32-[-0  7]  52-[2  7]  37-[6  16]  33-[-0  15]  17-[1  10] -> 3
 28-[4  14]  61-[1  7]  3-[2  16]  29-[2  5]  7-[-0  5]  55-[-0  -0]  36-[3  10]  60-[8  15]  13-[5  16]  32-[-0  15]  24-[-0  6]  49-[-0  1]  35-[1  16]  41-[-0  6]  10-[5  11]  30-[-0  5]  13-[2  16]  51-[4  12]  59-[7  16]  10-[1  15]  1-[0  16]  13-[15  16]  56-[-0  8]  7-[-0  1]  41-[-0  5]  10-[2  9]  28-[6  16]  6-[0  10]  56-[-0  12]  11-[1  11]  8-[-0  8]  60-[10  12]  61-[3  16]  33-[-0  11]  52-[3  14]  7-[-0  8]  51-[1  8]  61-[1  13]  22-[2  6]  51-[4  9]  43-[1  13]  61-[2  6]  62-[-0  12] -> 3
 63-[-0  14]  56-[-0  1]  40-[-0  12]  2-[4  7]  40-[-0  5]  61-[6  16]  5-[-0  14]  46-[0  10]  9-[2  15]  14-[-0  13]  47-[-0  7]  10-[4  16]  28-[1  14]  48-[-0  9]  49-[-0  4]  49-[-0  1]  34-[3  8]  38-[-0  2]  34-[3  8]  20-[4  16]  53-[2  16]  53-[6  16]  13-[1  6]  12-[9  16]  47-[-0  15]  58-[4  16]  63-[-0  2]  26-[9  14]  39-[-0  14]  1-[-0  1]  8-[-0  15]  13-[3  15]  6-[-0  4]  32-[-0  14]  39-[-0  14]  40-[-0  13]  55-[-0  2]  5-[-0  16]  40-[-0  7]  16-[-0  14]  36-[5  14]  61-[6  13]  23-[-0  12] -> 3
 22-[3  12]  7-[-0  11]  35-[2  16]  18-[4  8]  10-[5  16]  30-[-0  2]  57-[-0  4]  2-[1  16]  40-[-0  1]  16-[-0  11]  44-[2  16]  28-[5  16]  1-[-0  12]  4-[3  16]  37-[1  12]  7-[-0  7]  58-[1  10]  46-[-0  8]  10-[1  16]  25-[-0  2]  34-[5  11]  42-[2  12]  25-[-0  8]  47-[-0  9]  29-[5  7]  47-[-0  5]  51-[1  12]  29-[5  15]  2-[1  10]  44-[3  16]  20-[8  13]  18-[2  11]  46-[-0  7]  30-[-0  3]  59-[12  16]  54-[0  2]  56-[-0  8]  4-[10  16]  7-[-0  3]  51-[1  9]  62-[-0  16]  12-[13  16]  24-[-0  10] -> 3
 10-[12  16]  16-[-0  14]  55-[-0  6]  33-[-0  11]  34-[-0  -0]  44-[-0  5]  8-[-0  11]  27-[0  16]  50-[14  16]  35-[-0  3]  42-[4  7]  57-[-0  13]  22-[-0  8]  5-[0  2]  24-[-0  14]  39-[-0  14]  1-[-0  9]  32-[-0  15]  26-[-0  16]  16-[-0  3]  20-[6  16]  14-[-0  8]  6-[-0  4]  28-[6  16]  5-[0  8]  18-[6  13]  41-[-0  14]  39-[-0  13]  58-[2  12]  40-[-0  10]  5-[0  8]  1-[-0  16]  35-[-0  12]  35-[-0  13]  22-[-0  9]  4-[9  14]  3-[6  16]  43-[-0  15]  21-[2  11]  10-[14  16]  63-[-0  12]  58-[4  7]  43-[-0  11] -> 3
 41-[-0  12]  32-[-0  13]  48-[-0  12]  42-[-0  2]  36-[4  13]  33-[-0  8]  22-[-0  10]  46-[1  10]  22-[-0  4]  39-[-0  11]  58-[5  12]  28-[14  16]  51-[3  13]  29-[4  11]  38-[2  13]  16-[-0  10]  26-[-0  10]  23-[-0  5]  25-[-0  10]  49-[1  13]  61-[1  14]  29-[1  14]  6-[-0  10]  19-[-0  6]  55-[-0  13]  23-[-0  1]  53-[8  16]  35-[1  14]  19-[-0  14]  12-[1  16]  32-[-0  6]  18-[0  9]  10-[9  15]  36-[6  14]  6-[-0  7]  23-[-0  12]  10-[6  16]  44-[-0  3]  36-[1  15]  42-[-0  15]  12-[2  15]  29-[2  9]  14-[-0  15] -> 3
 37-[4  11]  45-[12  16]  55-[-0  13]  7-[-0  4]  1-[1  11]  32-[-0  6]  9-[11  16]  40-[-0  5]  47-[-0  7]  3-[9  15]  11-[5  15]  8-[-0  12]  35-[5  8]  8-[-0  10]  45-[5  16]  19-[5  11]  1-[1  4]  46-[0  7]  19-[2  10]  43-[-0  10]  2-[4  10]  32-[-0  5]  37-[5  9]  29-[1  13]  35-[2  15]  60-[4  13]  28-[12  16]  53-[6  16]  7-[-0  15]  10-[2  16]  31-[-0  7]  36-[13  16]  30-[-0  9]  34-[-0  2]  55-[-0  8]  32-[-0  9]  10-[4  16]  53-[3  16]  36-[14  16]  17-[3  8]  58-[3  13]  57-[-0  9]  53-[7  15] -> 3
 7-[-0  8]  45-[7  14]  1-[-0  15]  31-[-0  9]  39-[-0  14]  25-[-0  9]  51-[3  8]  13-[5  16]  31-[-0  15]  13-[15  16]  41-[-0  2]  10-[13  16]  56-[-0  1]  18-[0  15]  4-[9  16]  63-[-0  4]  41-[-0  3]  49-[1  12]  61-[1  16]  15-[-0  7]  3-[3  16]  20-[2  7]  13-[3  16]  63-[-0  1]  8-[-0  11]  51-[3  15]  45-[1  15]  17-[-0  16]  11-[9  15]  10-[14  15]  22-[1  6]  23-[-0  5]  20-[2  7]  36-[2  16]  35-[6  13]  56-[-0  4]  61-[1  15]  53-[11  15]  21-[15  16]  44-[-0  1]  23-[-0  10]  48-[-0  12]  63-[-0  13] -> 3
 35-[4  8]  49-[-0  16]  58-[5  14]  43-[0  11]  23-[-0  7]  37-[4  14]  60-[7  13]  8-[-0  12]  9-[3  10]  14-[-0  9]  5-[2  9]  28-[14  16]  32-[-0  2]  2-[3  13]  44-[-0  2]  8-[-0  7]  61-[3  11]  25-[-0  15]  63-[-0  14]  4-[5  16]  46-[5  15]  60-[9  14]  47-[-0  1]  7-[-0  14]  28-[5  16]  18-[10  12]  41-[-0  3]  42-[6  16]  31-[-0  6]  53-[1  16]  6-[-0  3]  25-[-0  4]  34-[1  14]  49-[-0  1]  55-[-0  5]  15-[-0  14]  26-[1  14]  22-[-0  4]  4-[10  16]  15-[-0  2]  37-[11  14]  16-[-0  8]  19-[3  12] -> 3
 1-[2  7]  19-[12  16]  52-[1  10]  50-[2  12]  40-[-0  9]  46-[1  4]  31-[-0  13]  34-[8  11]  24-[-0  16]  22-[-0  13]  47-[-0  1]  54-[2  12]  37-[1  4]  47-[-0  10]  20-[14  16]  40-[-0  5]  34-[3  15]  15-[-0  12]  16-[-0  6]  12-[14  16]  57-[1  15]  20-[11  16]  16-[-0  11]  38-[-0  1]  18-[7  16]  59-[8  15]  10-[11  16]  56-[-0  8]  63-[-0  5]  24-[-0  15]  31-[-0  9]  17-[-0  15]  8-[-0  6]  7-[-0  10]  16-[-0  6]  40-[-0  15]  61-[3  12]  44-[1  16]  12-[11  16]  38-[-0  4]  16-[-0  15]  38-[-0  11]  12-[12  16] -> 3
 20-[12  16]  42-[-0  2]  50-[1  13]  31-[-0  13]  10-[7  16]  60-[6  16]  62-[-0  8]  50-[1  15]  49-[-0  14]  10-[13  16]  38-[-0  3]  62-[-0  5]  2-[1  12]  22-[-0  9]  25-[-0  3]  62-[-0  5]  25-[-0  7]  25-[-0  9]  42-[-0  16]  60-[1  16]  16-[-0  6]  26-[2  16]  59-[13  16]  12-[11  16]  55-[-0  11]  26-[1  14]  26-[2  12]  23-[-0  4]  35-[1  5]  23-[-0  6]  34-[-0  15]  52-[6  16]  21-[8  14]  14-[-0  8]  29-[2  12]  29-[1  10]  35-[1  12]  52-[5  16]  30-[-0  9]  1-[-0  10]  49-[-0  13]  39-[-0  7]  5-[2  8] -> 3
 30-[-0  5]  62-[0  6]  3-[8  16]  13-[15  16]  63-[-0  16]  34-[-0  6]  27-[11  13]  62-[0  6]  45-[13  16]  51-[0  4]  48-[-0  1]  25-[-0  10]  37-[3  8]  44-[6  13]  41-[-0  13]  10-[1  16]  62-[0  13]  62-[0  16]  18-[2  10]  39-[-0  2]  50-[-0  9]  1-[-0  5]  16-[-0  7]  34-[-0  10]  24-[-0  2]  4-[12  16]  20-[11  16]  15-[-0  7]  6-[-0  4]  24-[-0  1]  59-[3  16]  45-[15  16]  53-[11  16]  14-[1  14]  37-[2  12]  28-[10  16]  34-[-0  1]  37-[1  7]  30-[-0  6]  43-[-0  14]  11-[4  9]  24-[-0  15]  61-[1  10] -> 3
 37-[0  4]  30-[-0  7]  9-[0  14]  13-[9  16]  9-[0  16]  37-[0  16]  18-[-0  3]  3-[6  14]  39-[-0  1]  55-[-0  4]  4-[12  16]  44-[10  16]  28-[2  7]  18-[-0  9]  34-[3  16]  32-[-0  6]  52-[7  16]  2-[5  14]  35-[11  16]  23-[-0  4]  15-[-0  8]  33-[-0  3]  28-[3  10]  25-[-0  15]  53-[6  16]  11-[4  14]  47-[-0  1]  61-[2  10]  60-[6  16]  27-[8  16]  47-[-0  3]  40-[-0  5]  10-[7  14]  53-[8  16]  63-[-0  10]  31-[-0  3]  53-[13  16]  10-[7  14]  14-[-0  6]  11-[9  15]  45-[3  12]  31-[-0  11]  47-[-0  6] -> 3
 20-[0  9]  39-[-0  16]  53-[6  14]  29-[1  9]  61-[-0  5]  47-[-0  15]  45-[3  16]  1-[-0  1]  47-[-0  13]  38-[-0  9]  1-[-0  16]  49-[11  16]  39-[-0  10]  63-[-0  10]  54-[0  6]  52-[12  16]  42-[1  16]  36-[3  16]  7-[-0  7]  57-[-0  16]  25-[0  5]  24-[-0  13]  61-[-0  16]  25-[0  3]  53-[8  15]  37-[1  14]  21-[-0  15]  2-[-0  9]  54-[0  6]  46-[2  7]  43-[2  16]  34-[8  16]  6-[-0  7]  52-[5  16]  31-[-0  10]  37-[1  6]  11-[9  16]  4-[1  16]  48-[-0  15]  33-[5  11]  43-[7  16]  16-[-0  11]  18-[1  8] -> 4
 32-[-0  6]  48-[-0  10]  23-[-0  7]  61-[1  13]  17-[-0  8]  16-[-0  10]  61-[1  10]  63-[-0  3]  49-[1  10]  59-[1  11]  32-[-0  13]  5-[-0  8]  5-[-0  5]  47-[-0  4]  42-[8  16]  50-[5  16]  24-[-0  3]  3-[9  14]  34-[13  15]  13-[-0  9]  62-[-0  16]  6-[-0  6]  20-[0  13]  62-[-0  11]  53-[2  10]  48-[-0  2]  46-[0  8]  8-[-0  8]  20-[0  16]  4-[13  15]  44-[12  16]  37-[5  16]  39-[-0  15]  12-[6  13]  22-[-0  7]  31-[-0  15]  28-[-0  3]  18-[2  11]  57-[-0  6]  60-[15  16]  54-[-0  3]  12-[8  13]  57-[-0  7] -> 4
 57-[-0  14]  44-[4  16]  4-[2  7]  13-[2  16]  5-[-0  8]  53-[-0  7]  52-[6  15]  63-[-0  4]  58-[-0  12]  19-[5  12]  62-[-0  12]  50-[0  3]  56-[-0  5]  16-[-0  13]  61-[-0  10]  36-[7  16]  51-[4  10]  5-[-0  4]  22-[-0  14]  55-[-0  16]  8-[-0  8]  47-[-0  1]  63-[-0  11]  19-[2  15]  58-[-0  13]  16-[-0  7]  28-[10  15]  23-[-0  14]  13-[2  7]  35-[11  15]  9-[-0  6]  54-[-0  6]  37-[14  16]  8-[-0  1]  27-[-0  6]  15-[-0  3]  62-[-0  8]  37-[13  16]  10-[3  13]  23-[-0  1]  26-[12  16]  22-[-0  11]  10-[1  12] -> 4
 38-[5  14]  29-[2  16]  6-[-0  2]  1-[-0  8]  23-[-0  6]  34-[3  13]  34-[6  16]  60-[6  14]  3-[2  16]  35-[9  16]  49-[-0  2]  20-[10  11]  37-[7  16]  23-[-0  9]  40-[-0  11]  60-[11  14]  39-[-0  7]  60-[3  16]  43-[4  10]  35-[5  16]  7-[-0  5]  26-[2  16]  41-[-0  12]  52-[11  16]  36-[8  16]  44-[10  16]  7-[-0  4]  63-[-0  6]  26-[5  16]  43-[6  11]  32-[-0  15]  22-[-0  9]  47-[-0  5]  61-[-0  16]  22-[-0  11]  6-[-0  4]  31-[-0  12]  47-[-0  2]  48-[-0  3]  10-[-0  8]  44-[7  16]  53-[1  15]  25-[6  10] -> 4
 48-[-0  14]  44-[2  14]  42-[7  11]  42-[4  15]  58-[1  8]  49-[-0  15]  32-[-0  6]  51-[9  15]  32-[-0  4]  37-[11  16]  3-[2  16]  11-[5  16]  21-[5  16]  59-[3  16]  7-[-0  4]  58-[2  12]  17-[-0  3]  62-[-0  15]  11-[4  16]  22-[-0  13]  31-[-0  3]  26-[13  16]  62-[-0  15]  33-[2  15]  11-[6  16]  35-[2  16]  30-[10  16]  11-[13  16]  56-[-0  6]  16-[-0  3]  54-[-0  4]  18-[13  16]  18-[10  16]  49-[-0  12]  50-[-0  7]  43-[7  15]  23-[-0  9]  18-[5  16]  56-[-0  -0]  38-[6  16]  54-[-0  13]  51-[2  15]  33-[6  14] -> 4
 57-[-0  1]  44-[4  14]  14-[4  10]  18-[3  14]  28-[2  13]  3-[-0  15]  47-[-0  10]  39-[-0  16]  31-[-0  6]  13-[4  16]  51-[-0  11]  57-[-0  12]  45-[1  9]  59-[-0  3]  17-[-0  14]  11-[6  13]  30-[2  10]  43-[-0  8]  18-[7  16]  26-[7  16]  36-[9  15]  15-[-0  9]  5-[10  15]  10-[-0  9]  41-[-0  15]  41-[-0  16]  47-[-0  7]  51-[-0  1]  37-[4  16]  29-[9  16]  42-[-0  10]  16-[-0  11]  59-[-0  16]  55-[-0  4]  40-[-0  13]  16-[-0  10]  51-[-0  12]  40-[-0  4]  1-[-0  3]  56-[-0  8]  31-[-0  14]  22-[0  2]  26-[3  16] -> 4
 24-[-0  11]  38-[0  3]  62-[-0  9]  10-[2  9]  18-[9  16]  38-[0  3]  54-[-0  2]  21-[1  12]  3-[3  10]  32-[-0  16]  18-[6  15]  28-[1  15]  55-[-0  9]  27-[9  13]  12-[4  14]  44-[8  16]  43-[4  14]  34-[14  16]  52-[9  16]  42-[9  12]  43-[9  16]  24-[-0  14]  56-[-0  5]  20-[-0  16]  19-[3  15]  4-[8  14]  31-[-0  15]  37-[6  16]  41-[-0  14]  26-[13  16]  49-[-0  4]  44-[6  16]  9-[-0  8]  47-[-0  10]  39-[-0  13]  38-[0  9]  23-[2  11]  27-[6  14]  33-[2  11]  39-[-0  10]  61-[-0  4]  11-[5  16]  57-[-0  10] -> 4
 1-[-0  7]  37-[10  16]  17-[-0  12]  13-[-0  12]  35-[3  16]  29-[2  11]  5-[3  7]  15-[-0  1]  15-[-0  3]  10-[0  16]  62-[-0  10]  52-[5  16]  62-[-0  10]  45-[13  16]  38-[1  12]  47-[-0  7]  17-[-0  8]  21-[-0  14]  63-[-0  9]  22-[-0  15]  16-[-0  15]  37-[15  16]  31-[-0  5]  7-[-0  11]  15-[-0  5]  46-[2  9]  10-[0  8]  9-[-0  11]  43-[5  12]  13-[-0  8]  4-[1  16]  51-[-0  9]  45-[7  16]  54-[-0  10]  36-[8  16]  33-[1  16]  8-[-0  3]  54-[-0  1]  47-[-0  8]  10-[0  15]  15-[-0  15]  4-[10  15]  4-[13  16] -> 4
 29-[13  16]  54-[-0  7]  53-[11  16]  33-[4  16]  17-[-0  16]  56-[-0  14]  5-[4  9]  33-[8  13]  50-[-0  12]  14-[-0  11]  32-[-0  1]  23-[-0  13]  15-[-0  13]  15-[-0  5]  57-[-0  15]  13-[1  9]  7-[-0  5]  27-[13  16]  5-[5  9]  45-[2  16]  34-[7  16]  43-[7  13]  28-[2  16]  32-[-0  9]  62-[-0  9]  53-[5  16]  8-[-0  15]  8-[-0  14]  21-[2  14]  23-[-0  7]  9-[-0  1]  43-[4  13]  18-[-0  6]  35-[8  16]  14-[-0  14]  48-[-0  8]  41-[4  9]  42-[10  13]  18-[-0  5]  53-[7  16]  28-[11  16]  34-[1  16]  34-[3  16] -> 4
 59-[-0  11]  12-[5  14]  10-[-0  8]  8-[-0  13]  24-[-0  2]  24-[-0  7]  26-[1  16]  45-[9  16]  35-[8  16]  24-[-0  13]  62-[-0  8]  16-[-0  2]  13-[1  13]  33-[0  16]  12-[2  15]  46-[1  9]  39-[-0  12]  34-[5  16]  54-[-0  15]  59-[-0  3]  56-[-0  1]  9-[-0  15]  62-[-0  9]  38-[3  8]  29-[5  11]  50-[-0  7]  16-[-0  3]  9-[-0  14]  54-[-0  7]  32-[-0  15]  32-[-0  10]  15-[-0  13]  62-[-0  13]  20-[3  16]  51-[-0  1]  25-[-0  15]  27-[6  16]  40-[-0  3]  10-[-0  13]  26-[1  15]  50-[-0  10]  38-[5  15]  61-[6  13] -> 4
 12-[9  16]  12-[5  16]  53-[2  16]  20-[12  16]  38-[1  6]  47-[-0  8]  50-[6  14]  53-[5  16]  25-[-0  13]  6-[-0  16]  16-[-0  14]  29-[8  16]  45-[14  16]  23-[-0  1]  16-[-0  3]  60-[11  16]  35-[2  16]  54-[-0  10]  29-[13  16]  54-[-0  10]  38-[1  7]  7-[-0  10]  26-[0  15]  45-[11  16]  41-[5  16]  56-[-0  7]  42-[5  16]  31-[-0  2]  20-[2  16]  33-[1  10]  42-[14  16]  48-[1  14]  9-[-0  15]  23-[-0  13]  61-[4  12]  20-[11  16]  10-[-0  15]  10-[-0  8]  6-[-0  16]  29-[13  15]  43-[9  16]  37-[3  16]  60-[11  16] -> 4
 18-[1  15]  1-[-0  7]  26-[4  15]  39-[-0  7]  2-[-0  12]  6-[-0  1]  17-[-0  15]  43-[10  15]  9-[-0  4]  54-[-0  13]  59-[2  11]  40-[-0  10]  10-[-0  6]  60-[6  16]  17-[-0  16]  6-[-0  7]  33-[5  12]  60-[11  16]  39-[-0  14]  50-[-0  4]  63-[-0  3]  8-[-0  2]  40-[-0  9]  13-[-0  3]  58-[-0  3]  16-[-0  16]  29-[5  12]  31-[-0  13]  36-[7  12]  33-[4  11]  36-[4  10]  60-[6  16]  6-[-0  9]  59-[2  5]  41-[1  8]  8-[-0  4]  52-[6  15]  38-[5  15]  3-[-0  9]  29-[9  13]  35-[2  16]  46-[0  6]  44-[2  15] -> 4
 59-[4  14]  44-[3  16]  23-[-0  16]  32-[-0  3]  35-[5  11]  44-[2  16]  5-[-0  14]  41-[3  15]  12-[0  2]  56-[-0  8]  36-[12  16]  5-[-0  11]  24-[-0  8]  57-[-0  6]  3-[5  11]  52-[9  14]  14-[-0  4]  12-[0  6]  40-[-0  5]  56-[-0  11]  36-[12  16]  54-[-0  16]  8-[-0  13]  27-[1  7]  47-[-0  3]  36-[6  16]  5-[-0  14]  8-[-0  16]  9-[-0  7]  22-[-0  14]  14-[-0  15]  36-[8  16]  35-[4  13]  12-[0  10]  55-[-0  2]  7-[-0  13]  10-[1  7]  53-[-0  11]  1-[-0  8]  48-[-0  14]  2-[-0  13]  22-[-0  1]  27-[1  11] -> 4
 14-[-0  12]  59-[1  6]  56-[-0  16]  25-[-0  1]  52-[12  16]  62-[-0  16]  62-[-0  5]  27-[9  11]  60-[2  16]  26-[4  12]  14-[-0  11]  20-[2  16]  38-[0  2]  16-[-0  11]  26-[1  16]  23-[-0  8]  46-[1  10]  26-[7  16]  38-[0  10]  30-[3  16]  9-[-0  10]  5-[-0  16]  12-[11  15]  24-[-0  13]  25-[-0  6]  34-[1  16]  50-[1  10]  52-[9  15]  19-[12  16]  23-[-0  7]  52-[7  16]  20-[4  11]  48-[-0  4]  22-[1  5]  63-[-0  5]  37-[8  16]  54-[0  16]  11-[10  15]  49-[-0  9]  15-[-0  7]  17-[-0  4]  35-[3  10]  19-[14  16] -> 4
 10-[-0  10]  10-[-0  10]  60-[13  16]  18-[-0  16]  12-[10  15]  19-[2  16]  3-[3  12]  56-[-0  13]  63-[-0  9]  7-[-0  4]  25-[-0  15]  22-[-0  6]  58-[-0  13]  23-[-0  4]  20-[2  15]  21-[-0  7]  43-[3  15]  2-[-0  7]  25-[-0  6]  25-[-0  10]  27-[10  16]  53-[3  16]  20-[1  11]  53-[3  16]  10-[-0  6]  27-[2  16]  24-[-0  16]  15-[-0  10]  13-[-0  10]  55-[-0  10]  34-[10  15]  15-[-0  13]  24-[-0  14]  10-[-0  5]  16-[-0  14]  61-[-0  11]  2-[-0  8]  57-[-0  10]  48-[0  9]  1-[-0  10]  28-[1  9]  31-[-0  8]  25-[-0  7] -> 4
 31-[-0  13]  10-[3  16]  26-[13  16]  31-[-0  11]  25-[3  8]  42-[7  16]  23-[-0  2]  63-[-0  14]  20-[3  11]  6-[-0  3]  1-[-0  2]  9-[-0  16]  54-[-0  2]  31-[-0  -0]  30-[0  9]  11-[2  15]  38-[3  15]  6-[-0  5]  59-[1  13]  61-[-0  16]  54-[-0  10]  33-[2  15]  53-[-0  5]  31-[-0  6]  27-[2  5]  62-[-0  11]  7-[-0  16]  37-[5  16]  37-[14  16]  13-[-0  7]  44-[2  16]  44-[12  16]  50-[2  13]  56-[-0  7]  5-[-0  14]  23-[-0  1]  15-[-0  12]  43-[5  16]  6-[-0  1]  30-[0  12]  23-[-0  8]  48-[-0  15]  63-[-0  1] -> 4
 53-[4  12]  44-[9  14]  9-[-0  16]  19-[2  16]  41-[1  13]  11-[7  10]  52-[11  15]  47-[-0  8]  52-[7  15]  60-[12  16]  46-[0  3]  4-[4  13]  17-[-0  7]  53-[4  14]  34-[2  16]  4-[9  12]  14-[-0  5]  21-[2  6]  48-[-0  15]  51-[-0  3]  50-[-0  9]  15-[-0  13]  25-[0  16]  51-[-0  13]  5-[1  16]  22-[1  12]  39-[-0  13]  17-[-0  2]  46-[0  12]  30-[9  11]  56-[-0  5]  40-[-0  2]  26-[6  14]  21-[3  8]  19-[5  16]  56-[-0  2]  49-[-0  7]  15-[-0  2]  4-[3  15]  42-[5  14]  40-[-0  13]  12-[10  14]  12-[5  15] -> 4
 53-[8  10]  49-[-0  11]  55-[-0  14]  2-[2  15]  50-[3  14]  3-[10  16]  40-[-0  9]  40-[-0  16]  9-[0  6]  12-[4  16]  43-[-0  1]  30-[-0  4]  48-[-0  15]  13-[6  16]  18-[9  16]  54-[-0  7]  48-[-0  3]  24-[-0  8]  7-[-0  12]  38-[-0  1]  58-[1  9]  58-[1  8]  39-[-0  3]  9-[0  16]  33-[-0  11]  51-[1  7]  62-[-0  12]  57-[-0  1]  4-[1  16]  51-[1  15]  55-[-0  11]  22-[-0  9]  63-[-0  13]  13-[1  10]  32-[-0  6]  37-[2  16]  40-[-0  1]  19-[2  5]  61-[1  11]  22-[-0  8]  43-[-0  8]  2-[3  8]  20-[-0  3] -> 5
 10-[5  16]  49-[-0  6]  43-[-0  7]  15-[-0  -0]  37-[13  16]  34-[7  14]  56-[-0  13]  42-[-0  8]  49-[-0  4]  20-[1  16]  21-[-0  11]  22-[-0  15]  50-[1  13]  62-[-0  12]  45-[7  16]  42-[-0  1]  55-[-0  12]  35-[2  6]  41-[-0  1]  61-[2  4]  53-[5  16]  13-[5  12]  46-[1  15]  57-[-0  5]  24-[-0  3]  20-[2  16]  36-[9  13]  6-[2  14]  20-[2  16]  35-[2  14]  14-[1  8]  1-[-0  7]  24-[-0  4]  1-[-0  1]  53-[11  16]  49-[-0  12]  15-[-0  5]  33-[2  7]  29-[2  9]  47-[-0  5]  47-[-0  7]  4-[7  16]  53-[3  16] -> 5
 46-[-0  13]  44-[6  14]  62-[-0  6]  32-[-0  8]  28-[3  16]  32-[-0  9]  21-[-0  4]  17-[1  10]  62-[-0  8]  30-[-0  13]  44-[7  13]  21-[-0  2]  25-[2  10]  32-[-0  4]  31-[-0  3]  61-[-0  6]  5-[3  16]  14-[1  16]  35-[0  8]  53-[1  10]  36-[6  14]  3-[12  14]  20-[4  11]  63-[-0  8]  50-[1  5]  45-[2  9]  30-[-0  14]  36-[4  14]  12-[4  10]  1-[-0  5]  15-[-0  5]  28-[12  16]  34-[1  12]  20-[2  14]  46-[-0  5]  50-[1  6]  18-[9  16]  34-[2  13]  26-[5  16]  41-[-0  1]  46-[-0  1]  17-[1  13]  18-[9  16] -> 5
 2-[10  13]  13-[3  14]  45-[2  16]  16-[-0  14]  25-[3  15]  5-[6  13]  19-[4  10]  22-[-0  3]  56-[-0  6]  47-[-0  14]  30-[-0  6]  57-[-0  3]  54-[6  8]  42-[-0  6]  2-[3  14]  22-[-0  12]  27-[6  15]  51-[3  14]  36-[0  16]  1-[1  4]  37-[11  16]  44-[-0  3]  44-[-0  13]  46-[6  14]  14-[-0  4]  29-[2  13]  49-[1  12]  58-[6  14]  41-[-0  6]  57-[-0  5]  36-[0  2]  4-[2  16]  1-[1  16]  57-[-0  2]  13-[3  13]  2-[9  14]  3-[7  13]  49-[1  3]  49-[1  12]  41-[-0  13]  2-[8  15]  19-[7  9]  23-[-0  5] -> 5
 39-[-0  12]  63-[-0  10]  37-[9  16]  34-[2  15]  53-[2  16]  47-[-0  5]  47-[-0  11]  31-[-0  15]  22-[-0  11]  2-[3  10]  24-[-0  11]  38-[-0  15]  14-[1  14]  58-[1  14]  56-[-0  3]  55-[-0  8]  31-[-0  9]  5-[11  16]  32-[-0  15]  11-[4  16]  32-[-0  10]  49-[-0  15]  39-[-0  16]  3-[1  16]  34-[1  14]  12-[1  14]  11-[14  16]  41-[-0  10]  14-[1  6]  29-[7  16]  3-[1  11]  15-[-0  5]  11-[12  15]  20-[3  7]  56-[-0  13]  43-[-0  10]  7-[-0  8]  4-[9  15]  20-[3  13]  16-[-0  12]  51-[4  16]  46-[-0  10]  23-[-0  4] -> 5
 62-[-0  3]  14-[-0  16]  19-[3  11]  48-[-0  5]  60-[8  16]  24-[-0  5]  54-[-0  9]  6-[-0  10]  15-[-0  16]  50-[-0  11]  62-[-0  14]  21-[-0  2]  58-[3  9]  58-[1  13]  56-[-0  12]  45-[5  16]  45-[3  14]  20-[-0  13]  46-[-0  2]  53-[4  14]  17-[-0  11]  15-[-0  12]  35-[14  16]  54-[-0  10]  3-[11  16]  11-[2  14]  2-[5  15]  32-[-0  6]  35-[15  16]  20-[-0  15]  60-[3  16]  19-[7  15]  45-[6  14]  24-[-0  16]  39-[-0  10]  20-[-0  13]  36-[11  14]  32-[-0  14]  53-[5  10]  28-[-0  12]  2-[5  9]  8-[-0  7]  24-[-0  4] -> 5
 62-[-0  1]  19-[5  15]  56-[-0  6]  63-[-0  9]  49-[2  14]  41-[-0  12]  39-[-0  11]  50-[11  16]  15-[-0  9]  21-[-0  15]  48-[-0  4]  42-[2  14]  6-[1  14]  47-[-0  12]  51-[3  11]  12-[12  14]  24-[-0  4]  18-[1  16]  30-[-0  1]  11-[11  16]  38-[-0  14]  8-[-0  9]  21-[-0  14]  10-[10  16]  43-[4  16]  5-[11  16]  25-[0  12]  24-[-0  12]  40-[-0  9]  48-[-0  11]  23-[-0  9]  33-[-0  4]  9-[7  11]  2-[5  16]  25-[0  10]  42-[1  16]  44-[-0  4]  11-[4  16]  11-[11  16]  38-[-0  1]  17-[3  11]  15-[-0  13]  48-[-0  2] -> 5
 18-[8  15]  4-[7  15]  54-[0  11]  12-[6  11]  19-[1  9]  40-[-0  9]  39-[-0  3]  42-[2  16]  15-[-0  16]  41-[1  10]  12-[7  10]  29-[-0  4]  57-[-0  6]  45-[12  16]  31-[-0  10]  33-[4  9]  56-[-0  9]  33-[4  11]  43-[1  6]  58-[-0  16]  10-[2  9]  8-[-0  14]  52-[3  16]  46-[1  5]  40-[-0  10]  20-[-0  5]  4-[8  14]  16-[-0  9]  11-[6  16]  48-[-0  6]  47-[-0  8]  1-[-0  5]  61-[1  6]  12-[2  9]  12-[4  10]  23-[-0  6]  20-[-0  13]  28-[1  16]  8-[-0  3]  32-[-0  16]  38-[-0  16]  63-[-0  8]  38-[-0  14] -> 5
 36-[5  16]  58-[7  11]  62-[-0  15]  44-[-0  7]  10-[1  15]  33-[1  7]  53-[6  16]  58-[1  14]  55-[-0  8]  36-[4  15]  45-[10  14]  20-[-0  5]  26-[3  16]  38-[-0  11]  39-[-0  11]  42-[1  4]  57-[-0  15]  27-[2  15]  42-[1  16]  18-[9  13]  14-[1  10]  43-[-0  3]  4-[2  15]  43-[-0  11]  36-[7  15]  30-[-0  14]  60-[14  16]  62-[-0  15]  22-[-0  6]  60-[13  16]  48-[-0  10]  45-[6  14]  9-[-0  4]  41-[-0  3]  48-[-0  4]  59-[7  16]  45-[8  14]  46-[-0  12]  40-[-0  9]  4-[8  15]  45-[9  16]  22-[-0  1]  37-[1  12] -> 5
 18-[9  16]  42-[1  13]  12-[7  15]  35-[15  16]  14-[-0  16]  38-[3  14]  57-[-0  10]  22-[-0  11]  21-[-0  12]  59-[4  15]  50-[0  15]  51-[2  13]  21-[-0  10]  24-[-0  13]  7-[-0  15]  10-[3  16]  62-[-0  3]  35-[11  16]  7-[-0  1]  49-[-0  11]  38-[6  8]  63-[-0  1]  60-[6  12]  3-[7  15]  53-[3  12]  54-[-0  1]  22-[-0  7]  44-[1  5]  38-[1  15]  12-[4  12]  46-[5  14]  39-[-0  12]  53-[3  14]  43-[0  7]  6-[-0  12]  58-[6  16]  27-[7  15]  59-[11  16]  8-[-0  14]  31-[-0  16]  32-[-0  14]  5-[1  16]  28-[7  16] -> 5
 21-[2  14]  38-[2  12]  62-[-0  1]  21-[1  15]  55-[-0  5]  57-[-0  2]  61-[-0  16]  63-[-0  1]  34-[3  12]  4-[4  16]  13-[2  10]  56-[-0  9]  44-[1  10]  44-[5  11]  60-[1  8]  13-[2  15]  13-[2  4]  7-[-0  11]  13-[1  5]  43-[-0  2]  12-[4  12]  61-[-0  5]  27-[1  15]  55-[-0  5]  30-[2  9]  15-[-0  11]  4-[2  16]  58-[7  14]  15-[-0  11]  29-[9  16]  59-[5  16]  38-[3  14]  38-[2  13]  42-[-0  13]  40-[-0  14]  25-[1  14]  33-[4  15]  61-[-0  10]  49-[-0  16]  35-[0  12]  45-[2  16]  31-[-0  14]  5-[7  16] -> 5
 21-[-0  8]  34-[10  13]  19-[6  12]  11-[1  16]  35-[8  15]  34-[9  15]  11-[14  15]  17-[3  14]  58-[3  13]  61-[-0  16]  26-[13  16]  19-[3  15]  61-[-0  6]  24-[-0  7]  30-[-0  1]  30-[-0  12]  4-[5  16]  3-[4  16]  36-[5  9]  40-[-0  3]  44-[3  8]  52-[1  5]  35-[8  16]  37-[-0  2]  59-[8  15]  60-[-0  10]  12-[1  15]  49-[-0  7]  54-[-0  10]  8-[-0  1]  3-[12  16]  43-[1  14]  58-[2  14]  56-[-0  -0]  27-[14  16]  19-[6  15]  43-[2  13]  58-[6  13]  51-[12  16]  15-[-0  8]  44-[4  12]  47-[-0  1]  48-[-0  9] -> 5
 17-[-0  8]  46-[-0  4]  8-[-0  9]  49-[-0  9]  8-[-0  12]  55-[-0  14]  15-[-0  7]  51-[4  13]  34-[4  16]  24-[-0  4]  16-[-0  1]  35-[1  16]  39-[-0  3]  39-[-0  13]  33-[-0  2]  60-[8  16]  62-[-0  13]  9-[-0  7]  27-[8  15]  11-[12  15]  39-[-0  14]  1-[-0  10]  10-[4  11]  6-[-0  8]  57-[-0  14]  58-[7  14]  19-[1  15]  30-[-0  8]  40-[-0  8]  6-[-0  13]  41-[-0  13]  3-[2  16]  28-[5  13]  37-[1  9]  53-[5  12]  59-[6  16]  44-[4  12]  17-[-0  8]  5-[6  14]  30-[-0  12]  43-[-0  11]  34-[4  15]  6-[-0  4] -> 5
 13-[3  11]  12-[2  12]  39-[-0  2]  39-[-0  5]  34-[2  8]  54-[4  7]  56-[-0  13]  59-[1  16]  24-[-0  6]  56-[-0  1]  13-[3  9]  2-[6  16]  32-[-0  12]  43-[-0  2]  39-[-0  3]  29-[2  9]  28-[14  16]  60-[14  15]  44-[-0  7]  43-[-0  7]  19-[-0  9]  29-[5  16]  15-[-0  2]  60-[6  16]  20-[-0  1]  26-[5  16]  7-[-0  11]  34-[3  12]  56-[-0  6]  25-[1  14]  45-[12  13]  31-[-0  3]  55-[-0  13]  40-[-0  8]  7-[-0  3]  8-[-0  16]  54-[2  15]  41-[-0  16]  60-[9  16]  32-[-0  10]  5-[11  14]  48-[-0  3]  21-[-0  9] -> 5
 12-[1  13]  34-[-0  12]  63-[-0  4]  11-[9  16]  35-[-0  14]  26-[0  10]  5-[1  3]  49-[1  4]  21-[1  14]  49-[1  9]  10-[6  13]  13-[0  13]  56-[-0  14]  35-[-0  16]  33-[-0  6]  51-[6  12]  30-[1  11]  36-[-0  9]  30-[1  12]  43-[0  7]  59-[8  16]  19-[1  16]  29-[10  16]  20-[1  13]  58-[3  7]  16-[-0  6]  40-[-0  1]  16-[-0  9]  29-[10  16]  39-[-0  11]  6-[-0  8]  62-[13  16]  46-[4  15]  16-[-0  1]  61-[10  16]  19-[10  16]  8-[-0  13]  23-[-0  4]  34-[-0  2]  8-[-0  3]  1-[-0  12]  34-[-0  8]  51-[9  14] -> 5
 19-[-0  4]  60-[4  13]  43-[1  4]  36-[2  14]  56-[-0  9]  32-[-0  8]  58-[6  11]  42-[-0  6]  62-[0  7]  40-[-0  10]  7-[-0  5]  47-[-0  3]  21-[-0  7]  27-[4  13]  13-[5  16]  32-[-0  9]  3-[14  16]  29-[-0  16]  18-[8  16]  13-[1  16]  61-[1  9]  8-[-0  3]  44-[6  12]  59-[10  16]  24-[-0  14]  55-[-0  1]  7-[-0  14]  14-[-0  8]  38-[-0  3]  20-[-0  2]  48-[-0  14]  9-[-0  4]  9-[1  5]  38-[-0  6]  31-[-0  14]  53-[7  16]  23-[-0  8]  8-[-0  14]  5-[6  16]  38-[-0  3]  35-[10  16]  26-[10  15]  43-[1  4] -> 5
 31-[-0  12]  53-[-0  9]  24-[-0  3]  24-[-0  11]  6-[-0  12]  58-[1  13]  45-[-0  5]  13-[-0  1]  30-[-0  4]  59-[13  16]  23-[-0  5]  63-[-0  9]  31-[-0  14]  27-[3  15]  34-[2  13]  59-[7  16]  50-[0  16]  35-[4  14]  54-[-0  9]  7-[-0  11]  21-[-0  4]  34-[10  13]  54-[-0  16]  31-[-0  2]  41-[-0  13]  33-[2  12]  22-[-0  9]  60-[6  12]  31-[-0  13]  28-[0  12]  62-[-0  14]  22-[-0  6]  62-[-0  16]  52-[8  14]  26-[15  16]  37-[-0  13]  56-[-0  4]  59-[3  16]  62-[-0  15]  57-[-0  4]  52-[4  16]  57-[-0  12]  60-[1  10] -> 5
 52-[3  13]  8-[-0  4]  61-[5  16]  24-[-0  11]  18-[2  13]  31-[-0  2]  29-[-0  3]  52-[5  15]  27-[4  15]  34-[11  16]  58-[0  11]  38-[2  7]  3-[4  6]  38-[1  6]  19-[8  16]  46-[3  15]  16-[-0  9]  36-[15  16]  36-[4  16]  47-[-0  1]  7-[-0  16]  9-[-0  16]  38-[1  9]  21-[-0  4]  1-[-0  8]  62-[3  15]  26-[5  15]  14-[-0  13]  12-[6  16]  19-[7  16]  43-[7  16]  13-[6  9]  36-[8  16]  7-[-0  11]  13-[5  12]  19-[4  16]  60-[3  16]  54-[15  16]  32-[-0  15]  18-[7  10]  62-[6  15]  25-[-0  15]  20-[1  14] -> 6
 26-[4  16]  37-[1  16]  40-[-0  11]  24-[-0  16]  11-[11  16]  13-[3  13]  2-[-0  4]  38-[4  11]  37-[13  16]  5-[2  10]  28-[4  12]  57-[-0  14]  31-[-0  7]  49-[-0  3]  56-[-0  4]  58-[-0  3]  14-[-0  6]  13-[2  13]  28-[7  14]  10-[1  7]  40-[-0  10]  60-[10  16]  45-[2  5]  39-[-0  12]  20-[1  6]  37-[6  16]  12-[10  15]  13-[1  8]  48-[-0  5]  19-[8  16]  16-[-0  15]  39-[-0  10]  60-[2  14]  8-[-0  3]  27-[8  13]  63-[-0  14]  6-[-0  3]  32-[-0  13]  7-[-0  7]  49-[-0  13]  44-[3  13]  28-[2  16]  2-[-0  15] -> 6
 52-[1  7]  59-[1  16]  21-[-0  13]  20-[-0  12]  32-[-0  14]  58-[1  15]  1-[-0  7]  42-[14  16]  13-[-0  11]  57-[-0  9]  8-[-0  5]  49-[-0  16]  29-[-0  9]  62-[1  12]  11-[6  16]  28-[2  14]  32-[-0  2]  48-[-0  16]  39-[-0  1]  41-[0  3]  42-[9  16]  8-[-0  3]  60-[11  16]  21-[-0  3]  32-[-0  4]  7-[-0  14]  14-[-0  7]  37-[4  14]  63-[-0  5]  29-[-0  12]  54-[12  16]  52-[1  10]  43-[1  6]  6-[-0  9]  17-[0  14]  32-[-0  15]  6-[-0  2]  35-[7  15]  25-[0  7]  52-[1  9]  19-[2  11]  62-[2  5]  48-[-0  10] -> 6
 44-[2  7]  19-[0  4]  40-[-0  16]  57-[-0  9]  55-[-0  15]  57-[-0  10]  32-[-0  4]  8-[-0  16]  49-[0  15]  11-[7  13]  57-[-0  7]  9-[-0  1]  17-[0  12]  50-[3  16]  8-[-0  3]  19-[0  16]  44-[1  10]  18-[8  15]  29-[-0  15]  18-[12  16]  6-[-0  9]  48-[-0  16]  32-[-0  16]  44-[2  7]  53-[6  11]  13-[-0  7]  18-[10  16]  18-[9  15]  46-[4  13]  16-[-0  6]  28-[-0  7]  62-[5  13]  22-[-0  13]  39-[-0  6]  9-[-0  6]  50-[11  16]  30-[-0  14]  47-[-0  4]  36-[5  16]  24-[-0  9]  62-[6  9]  17-[0  2]  46-[9  14] -> 6
 15-[-0  11]  21-[-0  2]  48-[-0  3]  7-[-0  4]  51-[8  16]  25-[-0  2]  26-[10  16]  47-[-0  1]  42-[13  16]  21-[-0  7]  63-[-0  3]  31-[-0  13]  46-[6  11]  21-[-0  15]  14-[-0  14]  6-[-0  5]  43-[3  16]  10-[1  15]  54-[11  16]  60-[14  16]  56-[-0  13]  58-[5  9]  19-[3  4]  61-[13  16]  36-[3  15]  36-[1  15]  61-[8  16]  5-[-0  14]  27-[1  9]  32-[-0  2]  39-[-0  11]  46-[8  13]  62-[1  12]  62-[1  16]  33-[3  9]  34-[13  16]  17-[1  4]  27-[3  15]  8-[-0  12]  2-[6  15]  19-[1  12]  41-[1  6]  1-[-0  3] -> 6
 52-[1  5]  9-[-0  9]  37-[12  16]  49-[-0  3]  53-[2  12]  56-[-0  15]  24-[-0  2]  14-[-0  15]  19-[1  13]  38-[2  8]  10-[11  12]  31-[-0  16]  10-[3  15]  58-[1  16]  8-[-0  8]  21-[-0  13]  38-[1  7]  26-[11  16]  42-[6  16]  29-[1  10]  3-[4  16]  46-[8  11]  27-[4  14]  38-[2  5]  61-[1  16]  50-[5  14]  35-[9  15]  3-[2  15]  51-[7  15]  5-[-0  9]  48-[-0  16]  32-[-0  12]  46-[2  16]  53-[5  12]  24-[-0  8]  43-[0  14]  13-[-0  15]  51-[8  16]  4-[2  15]  30-[-0  6]  11-[10  15]  29-[1  5]  2-[0  15] -> 6
 33-[1  6]  14-[-0  7]  40-[-0  11]  45-[5  16]  59-[8  16]  56-[-0  3]  5-[-0  9]  44-[5  15]  1-[-0  10]  16-[-0  4]  6-[-0  11]  54-[6  15]  9-[-0  5]  8-[-0  2]  52-[2  12]  11-[10  16]  13-[-0  5]  5-[-0  16]  42-[5  16]  27-[1  15]  55-[-0  13]  5-[-0  6]  52-[9  14]  57-[-0  8]  12-[3  10]  11-[14  16]  48-[-0  8]  45-[1  16]  39-[-0  10]  33-[1  6]  24-[-0  12]  42-[1  16]  6-[-0  6]  38-[0  15]  32-[-0  15]  49-[-0  7]  3-[12  14]  10-[6  14]  50-[11  15]  58-[0  9]  26-[12  16]  1-[-0  8]  36-[12  16] -> 6
 51-[1  12]  24-[-0  10]  49-[1  14]  47-[-0  9]  8-[-0  5]  17-[2  16]  8-[-0  4]  14-[-0  13]  22-[-0  5]  34-[3  12]  25-[1  15]  29-[2  13]  13-[-0  12]  51-[1  16]  6-[-0  14]  40-[-0  2]  60-[5  16]  1-[-0  12]  20-[-0  11]  1-[-0  4]  44-[-0  2]  16-[-0  15]  63-[-0  12]  61-[12  14]  57-[-0  9]  10-[12  16]  4-[1  3]  61-[5  16]  8-[-0  4]  40-[-0  12]  41-[6  10]  13-[-0  9]  51-[7  11]  1-[-0  1]  57-[-0  7]  42-[9  16]  54-[5  14]  46-[4  13]  8-[-0  1]  59-[6  16]  1-[-0  16]  54-[2  13]  15-[-0  2] -> 6
 20-[-0  3]  7-[-0  4]  6-[-0  8]  40-[-0  1]  18-[10  16]  29-[1  5]  14-[-0  7]  19-[2  14]  55-[-0  16]  34-[15  16]  8-[-0  13]  28-[3  11]  57-[-0  10]  20-[-0  4]  18-[11  16]  27-[3  16]  26-[6  16]  56-[-0  4]  23-[-0  8]  11-[10  16]  41-[-0  5]  13-[3  16]  26-[15  16]  34-[6  16]  46-[3  14]  5-[3  7]  54-[1  10]  48-[-0  7]  38-[1  16]  22-[-0  16]  55-[-0  12]  15-[-0  6]  42-[10  16]  19-[3  9]  62-[1  6]  16-[-0  11]  50-[1  13]  15-[-0  6]  14-[-0  16]  44-[-0  13]  7-[-0  15]  43-[1  10]  37-[11  16] -> 6
 36-[7  15]  7-[-0  15]  3-[-0  10]  38-[4  15]  61-[13  16]  27-[6  16]  45-[-0  5]  38-[6  12]  27-[9  16]  5-[0  13]  9-[-0  5]  16-[-0  1]  28-[7  16]  63-[-0  12]  2-[-0  5]  1-[-0  7]  45-[-0  16]  15-[-0  16]  62-[8  15]  2-[-0  14]  14-[-0  14]  35-[11  16]  41-[-0  3]  57-[-0  1]  27-[14  16]  34-[3  9]  43-[13  16]  32-[-0  9]  17-[-0  3]  8-[-0  4]  3-[-0  16]  17-[-0  6]  6-[-0  13]  6-[-0  3]  36-[2  16]  26-[1  7]  33-[-0  15]  18-[-0  11]  23-[-0  11]  15-[-0  13]  24-[-0  9]  10-[-0  3]  53-[2  15] -> 6
 52-[-0  2]  19-[1  16]  12-[3  16]  37-[4  13]  38-[3  16]  42-[8  12]  40-[-0  1]  17-[-0  3]  26-[1  12]  31-[-0  12]  43-[1  12]  59-[8  12]  45-[1  9]  60-[8  16]  34-[6  14]  5-[-0  15]  50-[4  13]  13-[-0  13]  49-[-0  13]  14-[-0  15]  31-[-0  12]  37-[10  15]  50-[4  15]  3-[3  16]  3-[1  11]  17-[-0  9]  32-[-0  2]  29-[1  13]  1-[-0  4]  62-[4  8]  30-[-0  11]  47-[-0  10]  32-[-0  14]  51-[3  15]  25-[-0  6]  58-[-0  6]  12-[7  15]  59-[8  11]  51-[3  15]  3-[9  11]  33-[-0  2]  29-[1  10]  26-[2  12] -> 6
 9-[-0  14]  31-[-0  6]  26-[11  13]  29-[-0  4]  30-[-0  13]  43-[10  16]  1-[-0  15]  12-[9  15]  4-[8  15]  61-[13  16]  19-[4  16]  31-[-0  3]  9-[-0  9]  40-[-0  14]  32-[-0  5]  1-[-0  16]  2-[-0  7]  51-[8  16]  18-[5  14]  46-[9  11]  14-[-0  1]  15-[-0  6]  7-[-0  5]  58-[-0  3]  51-[8  16]  25-[-0  12]  12-[5  15]  10-[1  16]  2-[-0  9]  45-[13  16]  62-[4  12]  47-[-0  8]  8-[-0  9]  51-[7  16]  25-[-0  12]  16-[-0  1]  7-[-0  4]  57-[-0  1]  22-[-0  4]  51-[1  16]  60-[7  16]  9-[-0  15]  26-[4  14] -> 6
 54-[3  16]  46-[1  16]  25-[1  5]  13-[-0  8]  47-[-0  10]  3-[7  10]  61-[14  16]  58-[-0  8]  40-[-0  10]  10-[5  8]  54-[3  16]  35-[2  14]  25-[1  10]  63-[-0  15]  12-[6  13]  57-[-0  10]  19-[8  13]  5-[-0  10]  54-[15  16]  26-[8  16]  28-[5  14]  21-[-0  5]  50-[3  7]  8-[-0  5]  12-[4  9]  4-[5  16]  5-[-0  6]  42-[2  13]  4-[1  16]  24-[-0  10]  31-[-0  13]  25-[1  15]  54-[13  16]  47-[-0  7]  54-[14  16]  44-[-0  12]  4-[7  15]  43-[3  9]  52-[0  6]  24-[-0  9]  23-[-0  3]  1-[-0  2]  45-[2  7] -> 6
 19-[6  15]  12-[1  10]  40-[-0  12]  12-[6  9]  13-[-0  4]  23-[-0  15]  41-[0  4]  7-[-0  14]  55-[-0  8]  17-[-0  2]  52-[0  14]  29-[-0  8]  52-[0  5]  21-[-0  2]  13-[-0  9]  37-[2  15]  27-[2  12]  52-[0  2]  22-[-0  10]  9-[-0  3]  5-[1  6]  30-[-0  15]  14-[-0  9]  51-[5  14]  20-[-0  3]  53-[2  16]  41-[0  7]  56-[-0  2]  19-[4  15]  61-[6  16]  17-[-0  14]  32-[-0  10]  48-[-0  4]  37-[6  10]  33-[-0  3]  55-[-0  16]  63-[-0  3]  17-[-0  6]  4-[12  15]  41-[0  4]  31-[-0  14]  29-[-0  13]  22-[-0  5] -> 6
 25-[4  8]  12-[2  11]  52-[12  14]  21-[-0  13]  47-[-0  16]  60-[13  16]  59-[4  16]  11-[10  16]  10-[4  12]  36-[5  14]  35-[1  16]  18-[8  16]  20-[-0  7]  23-[-0  4]  4-[9  16]  1-[-0  1]  53-[1  16]  28-[-0  16]  1-[-0  8]  5-[-0  6]  12-[1  12]  50-[11  16]  22-[-0  8]  8-[-0  14]  45-[2  11]  14-[-0  1]  11-[11  16]  2-[-0  8]  48-[-0  12]  27-[1  15]  10-[4  8]  8-[-0  8]  44-[10  13]  2-[-0  8]  51-[9  16]  2-[-0  13]  12-[2  11]  1-[-0  13]  31-[-0  6]  31-[-0  9]  52-[2  14]  42-[7  16]  37-[-0  7] -> 6
 18-[9  16]  40-[-0  14]  34-[2  16]  58-[0  16]  12-[9  14]  46-[4  13]  44-[1  5]  25-[1  14]  40-[-0  4]  47-[-0  10]  57-[-0  5]  24-[-0  11]  60-[11  16]  46-[3  8]  57-[-0  8]  63-[-0  14]  34-[8  16]  13-[2  12]  53-[10  16]  51-[10  13]  1-[-0  12]  63-[-0  2]  20-[-0  9]  18-[8  16]  40-[-0  5]  55-[-0  5]  57-[-0  13]  34-[5  16]  11-[13  15]  13-[2  9]  63-[-0  3]  12-[3  15]  7-[-0  5]  39-[-0  11]  18-[9  16]  1-[-0  14]  35-[3  16]  52-[4  11]  54-[2  11]  22-[-0  4]  58-[0  15]  57-[-0  3]  8-[-0  7] -> 6
 10-[8  15]  9-[-0  14]  42-[14  16]  37-[1  12]  40-[-0  1]  16-[-0  9]  11-[3  16]  60-[8  16]  63-[-0  11]  14-[-0  15]  25-[1  14]  32-[-0  14]  59-[12  16]  24-[-0  1]  56-[-0  11]  2-[2  9]  58-[2  8]  63-[-0  16]  62-[2  6]  33-[4  16]  53-[8  10]  14-[-0  3]  9-[-0  16]  15-[-0  11]  23-[-0  13]  53-[5  12]  19-[3  13]  20-[-0  1]  54-[10  16]  17-[-0  -0]  2-[4  5]  4-[4  16]  52-[2  11]  62-[1  10]  36-[8  16]  40-[-0  12]  38-[-0  2]  4-[4  13]  61-[5  12]  25-[2  9]  10-[8  16]  32-[-0  15]  36-[4  16] -> 6
 27-[-0  7]  56-[-0  3]  4-[3  16]  35-[1  15]  24-[-0  11]  44-[14  16]  46-[2  13]  35-[6  9]  62-[-0  4]  44-[12  16]  36-[8  16]  43-[7  16]  62-[-0  3]  46-[1  16]  6-[4  16]  59-[9  16]  2-[2  7]  4-[6  16]  61-[-0  2]  59-[4  16]  56-[-0  10]  60-[1  7]  57-[-0  6]  6-[8  16]  29-[3  16]  34-[6  10]  3-[6  14]  27-[-0  10]  59-[3  16]  51-[2  16]  12-[6  13]  31-[-0  16]  57-[-0  15]  60-[1  5]  27-[-0  15]  12-[4  10]  9-[-0  4]  63-[-0  15]  8-[-0  16]  40-[-0  14]  7-[-0  7]  43-[12  16]  11-[7  12] -> 7
 43-[11  15]  15-[-0  10]  52-[3  8]  19-[-0  8]  42-[-0  14]  13-[3  15]  29-[3  16]  52-[4  13]  37-[9  16]  49-[-0  14]  62-[-0  14]  11-[3  12]  45-[1  15]  59-[4  16]  37-[9  16]  30-[2  16]  50-[1  7]  5-[9  16]  52-[4  16]  28-[10  15]  43-[4  15]  36-[13  16]  47-[-0  10]  57-[-0  6]  8-[-0  3]  12-[5  16]  56-[-0  1]  9-[0  10]  8-[-0  6]  14-[7  13]  39-[-0  10]  62-[-0  6]  61-[-0  12]  60-[-0  1]  30-[2  10]  10-[10  16]  52-[4  8]  47-[-0  11]  14-[5  15]  2-[5  15]  46-[0  11]  55-[-0  9]  26-[-0  7] -> 7
 12-[6  14]  3-[4  16]  50-[6  10]  56-[-0  9]  40-[-0  -0]  42-[0  2]  49-[-0  11]  16-[-0  10]  31-[-0  14]  59-[2  14]  8-[-0  5]  43-[5  14]  46-[2  15]  45-[1  16]  18-[-0  13]  5-[5  16]  40-[-0  2]  3-[1  16]  25-[-0  13]  52-[-0  6]  19-[-0  3]  45-[10  13]  18-[-0  16]  43-[6  15]  62-[-0  15]  12-[2  12]  13-[3  16]  22-[2  6]  44-[8  14]  1-[-0  7]  28-[2  16]  19-[-0  12]  28-[7  13]  24-[-0  9]  44-[9  12]  46-[1  13]  51-[9  16]  60-[-0  6]  6-[1  13]  10-[1  11]  46-[2  6]  4-[14  16]  47-[-0  5] -> 7
 19-[-0  11]  25-[-0  6]  53-[-0  12]  51-[7  15]  3-[5  16]  27-[0  12]  9-[-0  3]  10-[2  9]  52-[2  11]  45-[0  8]  15-[1  15]  49-[-0  9]  36-[4  16]  63-[-0  6]  29-[5  14]  10-[4  10]  16-[-0  16]  32-[-0  5]  11-[2  8]  7-[3  10]  18-[-0  15]  25-[-0  14]  1-[-0  3]  40-[-0  14]  61-[-0  6]  36-[14  16]  43-[4  14]  39-[-0  7]  44-[6  12]  37-[10  16]  52-[3  7]  61-[-0  7]  11-[1  16]  16-[-0  2]  13-[7  12]  38-[0  16]  49-[-0  1]  32-[-0  15]  17-[-0  10]  50-[0  12]  37-[8  15]  59-[5  12]  41-[-0  10] -> 7
 6-[1  4]  11-[9  14]  27-[1  7]  17-[-0  9]  43-[9  15]  18-[-0  12]  60-[-0  16]  23-[-0  8]  4-[6  16]  45-[9  14]  17-[-0  3]  51-[4  16]  10-[3  6]  51-[3  16]  63-[-0  15]  21-[8  16]  6-[2  10]  53-[-0  8]  43-[9  15]  1-[-0  15]  10-[3  13]  16-[-0  4]  17-[-0  7]  25-[-0  2]  1-[-0  2]  56-[-0  16]  30-[-0  10]  36-[7  16]  28-[6  15]  51-[5  16]  10-[1  10]  53-[-0  10]  27-[4  15]  58-[9  16]  14-[2  11]  21-[10  16]  9-[-0  13]  38-[2  11]  50-[1  9]  3-[8  16]  17-[-0  7]  8-[-0  8]  53-[-0  9] -> 7
 9-[1  12]  61-[-0  10]  49-[-0  14]  8-[-0  2]  38-[1  3]  45-[-0  11]  59-[2  8]  25-[1  10]  26-[7  15]  43-[5  16]  4-[10  16]  16-[-0  7]  47-[-0  9]  27-[8  14]  45-[-0  2]  16-[-0  15]  10-[13  16]  61-[-0  14]  11-[8  15]  62-[-0  4]  3-[7  12]  63-[-0  7]  59-[3  16]  8-[-0  7]  31-[-0  15]  56-[-0  11]  24-[-0  14]  51-[6  15]  58-[10  16]  3-[5  12]  10-[11  16]  5-[13  16]  16-[-0  1]  50-[7  13]  36-[2  14]  7-[-0  12]  28-[11  16]  1-[1  8]  15-[-0  15]  42-[4  11]  39-[-0  14]  24-[-0  14]  32-[-0  9] -> 7
 25-[-0  9]  63-[-0  4]  26-[0  5]  42-[1  11]  48-[-0  3]  49-[-0  9]  39-[-0  15]  23-[-0  11]  10-[4  16]  13-[15  16]  50-[-0  5]  32-[-0  15]  15-[-0  16]  8-[-0  6]  58-[2  9]  45-[3  8]  43-[5  16]  3-[5  16]  10-[12  16]  18-[6  16]  13-[15  16]  34-[11  15]  14-[4  15]  58-[1  12]  5-[5  16]  19-[0  14]  24-[-0  2]  31-[-0  14]  30-[2  16]  11-[1  15]  46-[-0  1]  10-[11  16]  43-[5  15]  38-[2  8]  12-[7  16]  7-[-0  10]  39-[-0  10]  5-[9  16]  11-[5  14]  30-[6  15]  10-[12  15]  37-[12  16]  35-[12  16] -> 7
 19-[5  11]  1-[-0  14]  5-[1  11]  34-[0  12]  63-[-0  13]  35-[8  12]  7-[3  13]  25-[-0  2]  3-[4  11]  17-[-0  6]  55-[-0  11]  14-[14  16]  38-[1  4]  2-[-0  14]  39-[-0  15]  32-[-0  1]  8-[-0  5]  18-[7  16]  4-[3  15]  38-[1  4]  28-[3  9]  24-[-0  16]  28-[4  7]  12-[12  15]  16-[-0  16]  4-[3  12]  18-[12  16]  23-[-0  8]  6-[4  16]  21-[7  13]  31-[-0  15]  52-[1  12]  25-[-0  12]  16-[-0  16]  15-[0  11]  29-[3  12]  60-[0  16]  48-[-0  16]  7-[2  11]  43-[4  16]  35-[9  11]  49-[-0  6]  28-[3  10] -> 7
 23-[1  12]  17-[-0  2]  14-[4  16]  62-[-0  5]  12-[6  15]  26-[-0  1]  42-[2  8]  47-[-0  2]  44-[4  16]  60-[1  7]  21-[2  16]  63-[-0  10]  32-[-0  12]  32-[-0  1]  25-[-0  2]  17-[-0  16]  40-[-0  15]  18-[-0  6]  34-[1  14]  2-[3  15]  18-[-0  10]  34-[1  8]  12-[5  9]  20-[-0  2]  23-[1  12]  48-[-0  8]  36-[14  16]  44-[8  16]  43-[8  11]  44-[11  16]  6-[1  16]  21-[2  10]  41-[-0  4]  14-[1  15]  57-[-0  10]  19-[-0  4]  6-[3  16]  36-[11  16]  50-[-0  9]  20-[-0  14]  5-[8  16]  40-[-0  15]  24-[-0  6] -> 7
 61-[-0  10]  56-[-0  12]  54-[-0  7]  51-[13  16]  22-[-0  6]  6-[-0  14]  61-[-0  1]  4-[11  15]  59-[4  9]  46-[-0  12]  18-[1  13]  43-[9  16]  35-[15  16]  24-[-0  7]  25-[1  12]  4-[11  15]  4-[3  16]  1-[-0  12]  45-[0  13]  36-[9  16]  4-[12  15]  14-[-0  15]  61-[-0  9]  36-[8  16]  54-[-0  3]  7-[-0  1]  14-[-0  12]  8-[-0  11]  4-[4  15]  56-[-0  7]  57-[-0  15]  27-[4  15]  45-[0  13]  47-[-0  9]  22-[-0  8]  53-[-0  13]  56-[-0  8]  13-[1  13]  9-[-0  7]  11-[5  16]  25-[1  5]  48-[-0  11]  25-[1  16] -> 7
 39-[-0  14]  56-[-0  6]  37-[4  11]  47-[-0  9]  29-[7  16]  38-[3  12]  17-[-0  16]  27-[2  16]  56-[-0  2]  18-[-0  9]  48-[-0  16]  30-[1  14]  60-[-0  14]  42-[-0  8]  20-[0  13]  37-[9  12]  30-[1  14]  18-[-0  1]  49-[-0  13]  29-[4  16]  56-[-0  6]  58-[4  13]  9-[-0  6]  43-[8  13]  40-[-0  12]  22-[4  11]  59-[9  13]  47-[-0  6]  12-[1  11]  55-[-0  7]  16-[-0  15]  5-[7  16]  10-[5  13]  35-[5  16]  46-[-0  15]  4-[12  16]  43-[10  12]  3-[5  10]  39-[-0  9]  16-[-0  14]  28-[12  14]  22-[3  16]  42-[-0  10] -> 7
 41-[-0  10]  37-[0  11]  40-[-0  16]  12-[2  8]  1-[-0  10]  17-[-0  7]  9-[-0  8]  30-[13  16]  33-[-0  16]  18-[-0  5]  16-[-0  12]  21-[6  16]  28-[3  16]  42-[-0  8]  44-[9  13]  61-[-0  6]  7-[-0  10]  52-[0  12]  46-[-0  7]  30-[6  15]  53-[-0  1]  44-[8  14]  41-[-0  4]  2-[2  9]  42-[-0  4]  62-[-0  9]  63-[-0  2]  61-[-0  2]  28-[5  16]  10-[3  13]  46-[-0  6]  38-[-0  5]  47-[-0  16]  50-[1  10]  20-[5  16]  33-[-0  10]  33-[-0  1]  21-[2  16]  14-[1  11]  14-[6  15]  59-[4  13]  17-[-0  6]  7-[-0  3] -> 7
 12-[5  16]  47-[-0  16]  38-[1  14]  52-[1  10]  59-[2  14]  6-[2  14]  26-[3  12]  60-[-0  11]  21-[2  15]  28-[12  15]  49-[-0  14]  57-[-0  4]  35-[2  16]  37-[7  16]  50-[1  16]  36-[7  16]  8-[-0  15]  57-[-0  3]  29-[4  10]  55-[-0  16]  55-[-0  15]  32-[-0  3]  3-[10  16]  23-[-0  10]  54-[-0  6]  47-[-0  9]  60-[-0  4]  2-[2  7]  27-[3  14]  40-[-0  7]  5-[3  14]  35-[2  16]  57-[-0  10]  22-[-0  2]  47-[-0  1]  52-[1  9]  57-[-0  16]  58-[1  13]  24-[-0  8]  21-[11  15]  9-[-0  6]  26-[1  6]  58-[4  9] -> 7
 61-[-0  11]  49-[-0  13]  36-[2  16]  50-[1  15]  26-[-0  14]  35-[8  14]  39-[-0  1]  9-[-0  15]  63-[-0  12]  32-[-0  4]  5-[9  16]  28-[5  11]  51-[2  11]  9-[-0  15]  42-[2  16]  47-[-0  3]  57-[-0  14]  51-[1  12]  12-[2  13]  34-[2  7]  27-[-0  6]  56-[-0  11]  51-[2  11]  35-[1  16]  18-[3  4]  59-[5  12]  23-[-0  2]  12-[6  16]  6-[1  5]  9-[-0  15]  20-[-0  1]  9-[-0  4]  49-[-0  9]  15-[-0  5]  40-[-0  12]  11-[1  12]  8-[-0  5]  48-[-0  10]  28-[1  16]  43-[4  15]  40-[-0  8]  18-[2  9]  56-[-0  14] -> 7
 20-[1  11]  19-[-0  16]  8-[-0  10]  58-[6  12]  12-[1  10]  14-[13  16]  16-[-0  10]  46-[-0  5]  20-[3  7]  3-[8  16]  54-[-0  10]  30-[9  14]  54-[-0  7]  50-[2  11]  61-[-0  4]  31-[-0  15]  1-[-0  12]  23-[-0  1]  20-[1  14]  22-[8  15]  55-[-0  3]  35-[11  15]  15-[1  15]  8-[-0  9]  33-[2  14]  37-[-0  13]  47-[-0  9]  1-[-0  8]  16-[-0  14]  18-[-0  12]  51-[6  14]  63-[-0  10]  28-[2  16]  2-[1  12]  40-[-0  16]  17-[-0  13]  30-[2  15]  29-[2  16]  26-[9  16]  30-[3  15]  30-[12  16]  32-[-0  8]  46-[-0  4] -> 7
 40-[-0  5]  3-[11  15]  51-[10  16]  17-[-0  1]  8-[-0  12]  54-[-0  4]  49-[-0  10]  38-[5  11]  35-[15  16]  5-[11  16]  12-[6  16]  12-[11  16]  8-[-0  1]  45-[-0  14]  28-[14  16]  44-[1  13]  24-[-0  15]  17-[-0  6]  38-[4  13]  35-[2  16]  37-[6  14]  17-[-0  3]  63-[-0  1]  62-[-0  16]  14-[0  4]  39-[-0  1]  7-[-0  2]  13-[3  16]  36-[3  16]  57-[-0  5]  24-[-0  8]  3-[1  12]  41-[-0  6]  23-[-0  11]  48-[-0  11]  43-[4  16]  24-[-0  12]  30-[6  15]  2-[1  15]  61-[-0  7]  61-[-0  2]  50-[10  15]  26-[2  12] -> 7
 48-[-0  6]  52-[-0  8]  4-[4  6]  26-[1  12]  36-[5  10]  62-[-0  7]  63-[-0  14]  57-[1  13]  59-[0  3]  22-[0  7]  54-[-0  10]  47-[-0  15]  39-[-0  15]  40-[-0  5]  14-[-0  7]  2-[2  16]  50-[11  16]  45-[-0  3]  50-[10  16]  47-[-0  10]  28-[8  15]  36-[2  14]  53-[-0  15]  36-[2  13]  9-[-0  1]  59-[0  9]  2-[11  16]  59-[0  2]  2-[7  16]  25-[0  7]  42-[13  15]  19-[7  15]  47-[-0  7]  16-[-0  10]  45-[-0  8]  26-[4  14]  7-[-0  13]  43-[6  9]  11-[5  12]  45-[-0  10]  17-[-0  11]  35-[2  15]  55-[-0  16] -> 7
 37-[-0  9]  49-[1  15]  54-[-0  1]  39-[-0  10]  63-[-0  8]  45-[-0  4]  5-[5  11]  23-[-0  6]  2-[4  13]  36-[6  15]  21-[6  14]  28-[6  16]  20-[7  15]  3-[1  12]  25-[-0  5]  1-[-0  12]  41-[-0  12]  18-[1  15]  55-[-0  9]  16-[-0  14]  4-[1  16]  20-[6  10]  16-[-0  6]  18-[6  14]  1-[-0  2]  41-[-0  5]  1-[-0  10]  9-[1  8]  49-[1  11]  11-[11  15]  12-[1  7]  8-[-0  16]  10-[4  16]  34-[6  13]  16-[-0  11]  31-[-0  10]  35-[2  15]  5-[3  12]  9-[1  12]  36-[1  11]  24-[-0  12]  44-[5  16]  47-[-0  2] -> 8
 23-[-0  12]  60-[1  16]  6-[2  6]  31-[-0  16]  11-[2  10]  49-[-0  4]  61-[2  16]  60-[14  16]  27-[11  15]  57-[-0  6]  13-[6  14]  45-[10  16]  14-[1  14]  43-[3  13]  24-[-0  13]  34-[1  9]  22-[3  10]  29-[1  14]  28-[9  16]  3-[4  16]  51-[2  14]  19-[6  15]  1-[-0  6]  11-[2  12]  18-[5  16]  3-[1  15]  47-[-0  5]  15-[-0  10]  52-[3  13]  7-[-0  -0]  44-[2  11]  52-[4  10]  62-[-0  1]  58-[2  11]  57-[-0  3]  8-[-0  9]  60-[3  16]  58-[2  11]  56-[-0  16]  51-[8  16]  47-[-0  4]  42-[7  13]  23-[-0  4] -> 8
 60-[1  16]  41-[1  6]  42-[4  16]  62-[-0  2]  55-[-0  12]  34-[15  16]  10-[0  9]  48-[-0  16]  37-[1  7]  52-[7  13]  10-[0  6]  9-[-0  6]  28-[6  15]  5-[7  11]  48-[-0  5]  56-[-0  13]  32-[-0  1]  48-[-0  13]  59-[5  13]  28-[8  16]  63-[-0  2]  8-[-0  4]  34-[13  16]  57-[-0  7]  20-[-0  7]  22-[3  7]  20-[-0  6]  19-[2  13]  57-[-0  -0]  35-[14  16]  29-[7  16]  3-[2  16]  12-[4  10]  1-[-0  1]  7-[-0  2]  21-[12  16]  23-[-0  1]  11-[9  16]  16-[-0  6]  48-[-0  10]  56-[-0  9]  24-[-0  8]  59-[3  11] -> 8
 13-[11  16]  61-[1  10]  34-[0  11]  57-[-0  5]  52-[5  11]  21-[8  16]  16-[-0  14]  43-[9  16]  57-[-0  3]  1-[-0  12]  50-[0  7]  6-[1  8]  58-[-0  15]  39-[-0  11]  57-[-0  16]  59-[8  16]  49-[-0  10]  60-[4  15]  8-[-0  12]  25-[2  7]  50-[0  9]  59-[14  16]  56-[-0  7]  21-[9  16]  60-[6  15]  56-[-0  5]  38-[-0  9]  17-[1  15]  9-[-0  2]  60-[10  16]  50-[0  16]  1-[-0  3]  63-[-0  3]  22-[1  10]  39-[-0  4]  60-[11  14]  30-[-0  14]  50-[0  10]  25-[2  15]  61-[1  9]  37-[3  13]  60-[12  15]  22-[1  8] -> 8
 3-[8  15]  42-[1  10]  24-[-0  11]  48-[-0  4]  14-[1  15]  58-[-0  14]  19-[0  11]  26-[7  16]  35-[12  16]  4-[3  16]  33-[-0  12]  11-[5  14]  14-[1  5]  36-[12  15]  49-[-0  10]  62-[2  9]  24-[-0  3]  38-[-0  3]  62-[3  6]  49-[-0  16]  53-[10  14]  15-[-0  11]  12-[2  8]  33-[-0  13]  55-[-0  10]  7-[-0  7]  16-[-0  8]  1-[-0  11]  41-[-0  1]  26-[8  16]  28-[1  13]  40-[-0  13]  58-[-0  7]  44-[5  15]  12-[4  15]  19-[0  13]  25-[4  8]  37-[2  14]  20-[9  16]  17-[6  11]  32-[-0  15]  60-[11  16]  46-[2  15] -> 8
 23-[-0  7]  20-[1  13]  11-[12  15]  9-[-0  4]  14-[1  8]  19-[-0  11]  56-[-0  7]  21-[1  16]  20-[2  8]  33-[-0  6]  16-[-0  -0]  50-[9  16]  60-[10  16]  33-[-0  1]  37-[-0  9]  56-[-0  9]  38-[-0  1]  13-[3  16]  60-[2  15]  54-[3  14]  5-[4  16]  24-[-0  10]  6-[0  16]  63-[-0  11]  9-[-0  13]  33-[-0  9]  15-[-0  8]  54-[2  12]  23-[-0  1]  32-[-0  7]  12-[4  12]  45-[2  14]  23-[-0  14]  12-[6  11]  30-[-0  7]  35-[1  16]  60-[2  13]  49-[0  13]  32-[-0  8]  15-[-0  5]  18-[2  15]  9-[-0  16]  14-[1  12] -> 8
 60-[1  12]  7-[-0  16]  53-[1  12]  53-[1  8]  18-[2  5]  50-[10  16]  30-[-0  7]  48-[-0  15]  4-[8  16]  20-[5  16]  42-[6  15]  52-[2  13]  5-[5  9]  55-[-0  11]  20-[6  16]  9-[-0  9]  58-[7  14]  5-[4  16]  9-[-0  14]  35-[5  16]  18-[2  12]  45-[6  16]  11-[3  16]  5-[3  10]  57-[-0  14]  49-[0  8]  45-[2  14]  46-[-0  3]  18-[1  6]  49-[0  16]  2-[7  11]  16-[-0  16]  24-[-0  7]  56-[-0  12]  2-[7  16]  30-[-0  7]  61-[0  6]  19-[14  16]  35-[13  16]  46-[-0  16]  43-[4  14]  38-[-0  13]  24-[-0  15] -> 8
 51-[9  14]  9-[2  10]  2-[2  15]  10-[13  16]  25-[1  7]  50-[2  16]  50-[1  14]  18-[7  16]  9-[3  7]  41-[0  6]  15-[-0  7]  5-[1  5]  50-[4  15]  4-[3  16]  54-[4  9]  61-[7  13]  62-[0  2]  6-[-0  13]  38-[1  4]  44-[0  5]  18-[14  16]  19-[2  16]  33-[3  9]  62-[0  6]  6-[-0  1]  28-[10  16]  25-[2  9]  20-[2  14]  9-[1  10]  40-[-0  8]  46-[5  14]  52-[1  9]  42-[5  15]  4-[13  16]  60-[13  16]  9-[3  7]  6-[-0  5]  45-[7  15]  22-[-0  16]  34-[12  16]  29-[2  13]  61-[8  12]  4-[5  16] -> 8
 36-[10  14]  4-[4  16]  8-[-0  8]  49-[0  9]  12-[5  10]  33-[-0  14]  4-[13  16]  5-[10  14]  36-[6  15]  39-[-0  13]  46-[2  9]  31-[-0  5]  36-[1  13]  57-[-0  6]  55-[-0  2]  16-[-0  6]  40-[-0  13]  63-[-0  14]  63-[-0  9]  52-[6  10]  34-[12  14]  14-[2  16]  35-[3  15]  51-[3  8]  12-[1  12]  22-[4  16]  54-[3  16]  27-[3  16]  38-[0  4]  34-[11  14]  55-[-0  11]  62-[-0  5]  53-[12  16]  63-[-0  9]  2-[2  13]  46-[4  14]  56-[-0  16]  58-[1  16]  20-[4  10]  47-[-0  8]  62-[-0  3]  11-[6  9]  4-[2  16] -> 8
 62-[-0  5]  27-[12  16]  57-[0  2]  43-[0  5]  48-[-0  9]  45-[6  7]  32-[-0  7]  20-[1  16]  9-[4  14]  33-[-0  4]  44-[5  16]  46-[-0  8]  6-[-0  1]  54-[-0  10]  41-[1  6]  34-[4  16]  2-[6  16]  59-[13  15]  17-[-0  5]  14-[0  8]  10-[4  16]  57-[0  2]  11-[0  9]  14-[0  9]  42-[4  16]  8-[-0  11]  7-[-0  4]  12-[-0  13]  18-[4  14]  11-[0  2]  32-[-0  10]  42-[7  16]  31-[-0  13]  51-[1  13]  31-[-0  16]  39-[-0  1]  59-[5  15]  13-[3  14]  49-[1  8]  63-[-0  14]  45-[1  10]  51-[2  8]  22-[0  2] -> 8
 55-[-0  3]  35-[2  14]  12-[5  16]  33-[-0  6]  2-[-0  7]  17-[1  5]  45-[13  16]  6-[0  6]  13-[4  14]  59-[1  12]  24-[-0  16]  26-[9  16]  23-[-0  11]  17-[2  4]  9-[-0  5]  10-[1  12]  16-[-0  1]  58-[-0  13]  39-[-0  3]  19-[2  16]  37-[2  14]  28-[1  14]  54-[2  8]  40-[-0  16]  33-[-0  10]  25-[1  13]  38-[-0  9]  41-[-0  16]  15-[-0  7]  20-[-0  13]  31-[-0  7]  31-[-0  13]  21-[2  12]  5-[3  16]  42-[-0  10]  36-[3  16]  19-[3  16]  2-[-0  8]  49-[-0  2]  27-[1  10]  4-[7  15]  62-[-0  6]  25-[1  3] -> 8
 43-[-0  16]  3-[8  16]  53-[8  16]  19-[8  16]  22-[0  10]  46-[-0  14]  38-[-0  4]  13-[4  13]  48-[-0  4]  9-[1  4]  33-[1  9]  2-[6  9]  19-[3  16]  11-[12  16]  38-[-0  6]  7-[-0  16]  18-[2  9]  24-[-0  6]  39-[-0  9]  14-[0  8]  48-[-0  4]  38-[-0  8]  47-[-0  11]  16-[-0  12]  58-[4  10]  58-[1  9]  16-[-0  14]  12-[12  16]  38-[-0  10]  5-[-0  7]  35-[4  14]  51-[1  14]  4-[9  11]  27-[10  16]  20-[4  16]  35-[8  15]  18-[3  11]  21-[6  12]  45-[6  16]  17-[-0  7]  22-[0  3]  7-[-0  10]  36-[9  16] -> 8
 46-[-0  8]  10-[7  15]  25-[1  14]  31-[-0  4]  44-[1  15]  9-[-0  1]  47-[-0  12]  19-[-0  1]  45-[10  16]  43-[8  10]  39-[-0  15]  45-[10  16]  28-[11  13]  30-[0  3]  55-[-0  10]  14-[1  11]  16-[-0  12]  54-[-0  7]  26-[1  16]  9-[-0  15]  45-[4  16]  19-[-0  14]  63-[-0  15]  44-[1  16]  31-[-0  13]  36-[1  16]  15-[-0  8]  55-[-0  13]  55-[-0  16]  1-[-0  3]  30-[0  5]  61-[4  16]  3-[9  16]  14-[1  15]  24-[-0  3]  6-[0  2]  24-[-0  1]  22-[3  12]  17-[1  12]  16-[-0  2]  25-[1  7]  32-[-0  12]  53-[8  16] -> 8
 51-[5  10]  1-[-0  15]  57-[-0  10]  58-[5  7]  14-[3  11]  28-[5  16]  5-[6  16]  5-[8  16]  20-[2  7]  55-[-0  6]  6-[1  16]  61-[3  8]  28-[1  16]  6-[1  16]  53-[13  16]  47-[-0  9]  60-[1  16]  27-[6  16]  21-[12  15]  60-[4  16]  18-[5  16]  11-[4  11]  31-[-0  6]  4-[4  16]  55-[-0  5]  43-[-0  9]  5-[2  16]  43-[-0  5]  4-[14  16]  30-[-0  13]  44-[-0  13]  31-[-0  10]  47-[-0  11]  27-[14  16]  7-[-0  8]  43-[-0  9]  16-[-0  9]  24-[-0  13]  16-[-0  10]  18-[13  16]  12-[3  15]  63-[-0  10]  55-[-0  2] -> 8
 20-[13  16]  49-[-0  4]  58-[1  10]  4-[4  14]  43-[5  13]  31-[-0  9]  3-[1  14]  52-[4  15]  22-[-0  7]  34-[5  15]  56-[-0  7]  41-[-0  5]  1-[-0  12]  55-[-0  8]  40-[-0  9]  8-[-0  1]  32-[-0  8]  56-[-0  5]  21-[1  12]  46-[7  15]  46-[3  16]  11-[1  16]  51-[4  16]  34-[9  16]  54-[7  14]  36-[3  14]  14-[-0  14]  62-[-0  3]  16-[-0  2]  18-[5  16]  44-[-0  6]  36-[11  13]  46-[1  16]  45-[2  10]  11-[1  16]  28-[10  14]  56-[-0  7]  19-[4  13]  57-[-0  15]  16-[-0  13]  10-[9  16]  37-[5  15]  37-[1  15] -> 8
 58-[1  10]  43-[1  15]  16-[-0  8]  53-[4  12]  63-[-0  3]  56-[-0  14]  6-[3  16]  54-[-0  4]  16-[-0  2]  24-[-0  9]  3-[4  14]  55-[-0  15]  22-[-0  1]  33-[-0  9]  48-[-0  12]  1-[-0  6]  16-[-0  3]  21-[6  12]  45-[5  10]  14-[6  12]  44-[3  16]  3-[3  14]  63-[-0  15]  9-[-0  9]  33-[-0  16]  44-[14  16]  53-[3  14]  41-[-0  13]  47-[-0  15]  38-[-0  15]  53-[3  14]  47-[-0  6]  35-[5  16]  21-[6  15]  28-[3  15]  20-[10  16]  51-[5  13]  9-[-0  10]  54-[-0  7]  59-[7  16]  15-[-0  15]  18-[12  16]  21-[4  13] -> 8
 44-[6  12]  59-[13  16]  13-[3  16]  55-[-0  13]  16-[-0  8]  40-[-0  6]  16-[-0  1]  22-[-0  15]  1-[-0  7]  18-[6  13]  2-[14  16]  33-[-0  5]  61-[3  12]  55-[-0  13]  20-[11  16]  36-[4  16]  34-[6  14]  5-[2  10]  47-[-0  15]  16-[-0  13]  4-[-0  2]  19-[12  16]  55-[-0  2]  38-[-0  16]  31-[-0  8]  27-[7  16]  8-[-0  7]  13-[2  16]  17-[-0  8]  33-[-0  16]  22-[-0  15]  8-[-0  14]  57-[0  15]  11-[3  16]  32-[-0  14]  33-[-0  6]  35-[11  16]  6-[2  6]  16-[-0  15]  59-[10  16]  39-[-0  8]  34-[2  16]  14-[4  11] -> 8
 28-[4  13]  21-[15  16]  55-[-0  9]  58-[5  16]  39-[-0  14]  46-[2  15]  28-[6  13]  32-[-0  11]  32-[-0  1]  58-[8  14]  48-[-0  9]  18-[4  16]  20-[2  13]  24-[-0  6]  15-[-0  9]  13-[14  16]  43-[-0  12]  56-[-0  16]  47-[-0  7]  17-[1  8]  61-[2  10]  51-[-0  16]  56-[-0  2]  13-[9  16]  27-[3  14]  42-[-0  16]  4-[6  16]  52-[2  11]  47-[-0  8]  39-[-0  10]  12-[9  14]  44-[0  4]  28-[10  13]  8-[-0  11]  41-[-0  16]  16-[-0  5]  14-[-0  3]  61-[1  5]  50-[1  13]  30-[3  7]  9-[5  9]  42-[-0  3]  53-[2  16] -> 9
 51-[1  12]  7-[-0  1]  39-[-0  16]  26-[0  9]  18-[2  16]  53-[11  16]  19-[8  15]  42-[-0  3]  32-[-0  16]  43-[-0  14]  51-[2  16]  54-[1  12]  14-[-0  7]  60-[9  16]  50-[1  11]  27-[7  15]  28-[7  16]  49-[-0  9]  10-[9  14]  60-[4  16]  54-[3  16]  8-[-0  7]  17-[-0  15]  11-[4  9]  5-[0  16]  25-[-0  14]  13-[4  11]  50-[1  6]  21-[7  16]  20-[10  12]  39-[-0  1]  21-[6  16]  10-[4  16]  15-[-0  3]  29-[11  16]  17-[-0  4]  51-[1  13]  11-[1  12]  48-[-0  16]  5-[0  10]  53-[8  16]  3-[11  15]  31-[-0  11] -> 9
 29-[13  16]  49-[2  16]  25-[1  8]  19-[-0  3]  28-[4  14]  7-[-0  9]  47-[-0  13]  58-[3  9]  60-[12  16]  59-[5  16]  12-[6  9]  7-[-0  6]  58-[3  15]  32-[-0  2]  14-[0  6]  34-[1  7]  27-[7  11]  61-[10  15]  13-[4  16]  55-[-0  15]  54-[5  15]  8-[-0  13]  52-[1  9]  5-[3  8]  51-[5  14]  52-[1  12]  3-[5  12]  10-[8  16]  2-[4  14]  30-[4  13]  27-[6  10]  52-[2  6]  42-[-0  4]  34-[1  9]  38-[2  13]  41-[-0  6]  19-[-0  12]  4-[5  15]  36-[2  13]  13-[10  16]  50-[6  16]  6-[-0  3]  35-[1  7] -> 9
 30-[1  13]  36-[7  14]  28-[3  14]  46-[1  10]  51-[3  10]  50-[8  13]  60-[9  16]  50-[7  10]  26-[12  16]  48-[-0  12]  56-[-0  8]  44-[-0  16]  1-[-0  5]  12-[15  16]  33-[-0  1]  25-[3  13]  34-[1  16]  55-[-0  3]  11-[7  16]  13-[2  16]  56-[-0  3]  54-[1  10]  11-[11  15]  41-[-0  9]  47-[-0  3]  11-[1  15]  43-[-0  8]  29-[13  16]  6-[-0  15]  6-[-0  13]  18-[10  14]  27-[8  16]  2-[4  15]  14-[-0  6]  57-[-0  14]  34-[2  12]  56-[-0  2]  60-[6  15]  45-[8  16]  29-[6  16]  49-[-0  6]  22-[1  13]  60-[5  14] -> 9
 6-[-0  2]  61-[8  16]  6-[-0  7]  8-[-0  11]  42-[-0  3]  63-[-0  14]  31-[-0  3]  47-[-0  5]  22-[-0  3]  44-[-0  2]  13-[1  5]  41-[-0  3]  5-[-0  5]  47-[-0  1]  21-[3  13]  33-[-0  15]  49-[-0  3]  58-[1  9]  40-[-0  3]  17-[2  14]  22-[-0  13]  17-[1  16]  39-[-0  8]  27-[2  16]  49-[-0  8]  30-[2  5]  32-[-0  12]  11-[7  15]  9-[2  10]  48-[-0  16]  49-[-0  5]  41-[-0  15]  48-[-0  12]  16-[-0  14]  9-[1  14]  13-[1  10]  56-[-0  14]  45-[4  14]  15-[-0  9]  31-[-0  9]  13-[1  6]  6-[-0  1]  32-[-0  4] -> 9
 31-[-0  15]  43-[-0  11]  13-[5  11]  9-[0  12]  31-[-0  9]  3-[2  16]  58-[3  13]  16-[-0  12]  5-[2  11]  17-[0  8]  22-[1  3]  26-[6  12]  52-[2  15]  25-[-0  4]  32-[-0  7]  56-[-0  14]  52-[8  13]  52-[7  12]  36-[0  11]  27-[5  16]  54-[-0  5]  21-[13  16]  19-[3  12]  56-[-0  6]  26-[5  11]  59-[1  13]  23-[-0  6]  26-[3  15]  30-[1  12]  12-[12  14]  49-[-0  3]  26-[9  13]  43-[-0  7]  5-[2  8]  33-[-0  6]  10-[13  16]  33-[-0  6]  4-[1  12]  16-[-0  7]  47-[-0  7]  16-[-0  5]  32-[-0  8]  57-[-0  6] -> 9
 56-[-0  7]  20-[11  16]  30-[7  11]  47-[-0  4]  54-[-0  1]  6-[-0  9]  13-[4  16]  45-[2  16]  59-[3  16]  58-[1  11]  11-[6  15]  52-[9  16]  47-[-0  16]  12-[7  14]  49-[-0  2]  27-[3  15]  26-[0  6]  50-[2  9]  2-[3  7]  32-[-0  12]  20-[11  15]  1-[-0  11]  33-[-0  10]  59-[8  16]  30-[7  15]  40-[-0  15]  18-[6  9]  31-[-0  3]  7-[-0  11]  11-[3  14]  31-[-0  16]  3-[8  16]  34-[-0  8]  6-[-0  1]  7-[-0  8]  20-[11  16]  46-[0  15]  8-[-0  7]  63-[-0  15]  12-[4  13]  19-[4  16]  51-[4  15]  9-[0  14] -> 9
 43-[-0  5]  14-[-0  15]  54-[1  4]  42-[-0  14]  29-[10  16]  9-[1  10]  38-[6  14]  4-[1  12]  34-[2  12]  1-[-0  13]  29-[15  16]  29-[15  16]  38-[6  13]  60-[6  16]  61-[2  12]  34-[1  10]  15-[-0  9]  36-[2  15]  48-[-0  1]  37-[13  16]  37-[11  16]  22-[3  6]  55-[-0  8]  30-[1  12]  62-[-0  16]  60-[2  14]  9-[1  14]  18-[9  15]  45-[14  16]  46-[3  16]  59-[8  14]  6-[-0  10]  17-[2  11]  41-[-0  15]  15-[-0  7]  49-[-0  2]  49-[-0  16]  23-[-0  11]  34-[2  7]  54-[1  10]  6-[-0  6]  11-[6  15]  4-[5  13] -> 9
 60-[5  16]  20-[3  13]  19-[-0  3]  39-[-0  16]  33-[0  12]  14-[-0  16]  24-[-0  14]  31-[-0  11]  29-[11  16]  10-[9  16]  32-[-0  11]  19-[-0  13]  39-[-0  5]  60-[1  16]  23-[-0  1]  11-[7  12]  27-[1  14]  59-[7  16]  46-[2  16]  7-[-0  8]  45-[2  16]  28-[1  16]  23-[-0  8]  14-[-0  16]  29-[14  16]  8-[-0  14]  12-[7  16]  26-[3  16]  34-[2  11]  46-[2  12]  21-[7  16]  56-[-0  1]  40-[-0  1]  37-[2  16]  40-[-0  13]  30-[1  14]  30-[3  16]  31-[-0  1]  22-[1  13]  39-[-0  13]  41-[-0  2]  22-[1  15]  50-[1  14] -> 9
 53-[7  16]  29-[2  16]  1-[0  7]  13-[6  15]  21-[8  10]  41-[-0  12]  1-[0  12]  12-[8  16]  50-[15  16]  63-[-0  9]  51-[1  9]  49-[1  13]  47-[-0  5]  23-[-0  9]  56-[-0  13]  47-[-0  15]  43-[-0  7]  37-[8  16]  39-[-0  14]  4-[2  13]  58-[11  15]  53-[3  16]  34-[-0  5]  27-[2  16]  1-[0  6]  55-[-0  9]  18-[3  15]  37-[12  16]  17-[7  14]  52-[8  14]  63-[-0  11]  50-[12  16]  30-[2  5]  34-[-0  16]  55-[-0  3]  31-[-0  2]  19-[3  16]  16-[-0  6]  44-[-0  13]  17-[7  15]  36-[-0  13]  29-[5  16]  25-[-0  4] -> 9
 37-[3  16]  61-[0  5]  42-[-0  9]  41-[-0  3]  27-[1  10]  7-[-0  11]  37-[2  10]  9-[0  13]  55-[-0  4]  42-[-0  13]  52-[3  14]  42-[-0  10]  3-[12  16]  8-[-0  6]  24-[-0  5]  18-[10  15]  26-[1  3]  4-[3  16]  36-[-0  2]  57-[-0  11]  44-[-0  14]  53-[7  16]  41-[-0  14]  28-[2  15]  56-[-0  15]  36-[-0  10]  7-[-0  16]  37-[5  10]  20-[2  13]  58-[6  10]  21-[3  16]  44-[-0  1]  3-[12  15]  26-[1  14]  58-[4  12]  58-[3  15]  43-[-0  11]  59-[1  16]  23-[-0  5]  24-[-0  11]  19-[1  12]  55-[-0  1]  2-[8  15] -> 9
 49-[2  15]  22-[3  16]  28-[4  16]  3-[13  16]  4-[2  15]  40-[-0  13]  61-[0  8]  56-[-0  8]  60-[7  13]  19-[3  6]  55-[-0  14]  34-[-0  9]  25-[0  12]  29-[13  16]  7-[-0  3]  53-[8  15]  22-[7  13]  41-[3  12]  34-[-0  4]  32-[-0  5]  23-[-0  11]  5-[2  4]  56-[-0  6]  6-[-0  8]  40-[-0  2]  10-[2  15]  17-[-0  7]  58-[5  13]  8-[-0  8]  45-[2  16]  31-[-0  14]  11-[5  14]  24-[-0  12]  57-[0  3]  52-[13  16]  38-[1  10]  19-[1  12]  26-[8  11]  35-[-0  5]  2-[1  10]  15-[-0  3]  52-[7  16]  30-[2  8] -> 9
 6-[-0  7]  18-[11  15]  28-[6  15]  11-[7  15]  33-[-0  5]  21-[14  16]  6-[-0  9]  49-[5  10]  62-[-0  12]  44-[-0  14]  13-[5  15]  29-[15  16]  40-[-0  1]  7-[-0  2]  30-[3  12]  36-[-0  10]  35-[-0  2]  49-[3  13]  4-[2  13]  61-[3  12]  34-[-0  5]  2-[3  8]  51-[4  10]  48-[-0  13]  24-[-0  11]  15-[-0  4]  53-[1  16]  13-[9  15]  11-[10  15]  53-[9  16]  12-[4  16]  44-[-0  6]  49-[2  13]  29-[13  16]  49-[-0  10]  34-[-0  15]  47-[-0  1]  61-[4  11]  42-[-0  6]  35-[-0  7]  57-[0  8]  37-[8  16]  6-[-0  10] -> 9
 24-[-0  16]  29-[13  16]  12-[1  5]  32-[-0  4]  16-[-0  4]  9-[-0  6]  41-[-0  12]  43-[-0  3]  32-[-0  11]  2-[-0  14]  60-[2  13]  44-[-0  11]  44-[1  10]  44-[3  5]  7-[-0  14]  3-[3  5]  61-[-0  3]  46-[-0  8]  16-[-0  4]  44-[3  14]  43-[-0  8]  58-[-0  13]  28-[8  16]  29-[5  16]  26-[1  16]  34-[-0  11]  23-[-0  15]  12-[1  10]  20-[3  11]  10-[5  10]  46-[-0  4]  8-[-0  5]  50-[-0  2]  30-[5  16]  32-[-0  16]  37-[9  16]  17-[-0  7]  54-[-0  16]  22-[8  13]  25-[-0  10]  33-[-0  6]  55-[-0  3]  16-[-0  13] -> 9
 51-[7  15]  57-[-0  2]  62-[-0  11]  13-[11  16]  11-[9  14]  44-[9  16]  60-[0  10]  51-[12  14]  11-[4  15]  30-[-0  7]  44-[11  16]  53-[-0  7]  11-[1  13]  63-[-0  14]  44-[12  16]  34-[1  4]  25-[3  14]  32-[-0  4]  38-[-0  2]  19-[10  15]  52-[7  15]  54-[-0  10]  60-[0  12]  8-[-0  5]  33-[-0  4]  40-[-0  5]  57-[-0  6]  2-[1  9]  49-[-0  14]  60-[0  11]  10-[13  16]  43-[2  16]  51-[2  13]  22-[-0  5]  11-[4  14]  37-[3  9]  9-[2  16]  50-[1  2]  39-[-0  14]  41-[-0  15]  8-[-0  -0]  5-[3  16]  2-[2  8] -> 9
 61-[-0  13]  4-[9  16]  11-[7  12]  20-[1  8]  36-[1  11]  26-[11  16]  39-[-0  6]  34-[1  8]  23-[-0  13]  11-[7  12]  53-[-0  6]  38-[0  11]  62-[-0  5]  56-[-0  16]  47-[-0  3]  53-[-0  3]  46-[-0  16]  44-[9  16]  48-[-0  6]  15-[-0  12]  6-[-0  11]  29-[4  16]  8-[-0  10]  51-[1  16]  40-[-0  10]  37-[5  14]  9-[1  8]  1-[-0  1]  32-[-0  11]  29-[10  16]  44-[6  16]  39-[-0  10]  12-[1  11]  57-[-0  1]  15-[-0  15]  17-[2  15]  15-[-0  2]  41-[-0  8]  51-[6  11]  17-[6  10]  55-[-0  12]  26-[15  16]  57-[-0  3] -> 9
 7-[-0  5]  19-[-0  12]  62-[0  16]  30-[3  13]  27-[3  16]  47-[-0  5]  9-[0  4]  52-[-0  1]  30-[4  15]  28-[1  14]  5-[1  11]  26-[13  16]  49-[-0  3]  8-[-0  8]  60-[2  16]  26-[12  16]  52-[-0  9]  56-[-0  1]  1-[-0  2]  15-[-0  8]  41-[-0  15]  46-[2  10]  23-[-0  9]  57-[-0  8]  31-[-0  12]  27-[2  7]  22-[2  6]  3-[11  16]  60-[3  16]  20-[-0  10]  39-[-0  16]  24-[-0  11]  18-[6  13]  2-[5  12]  49-[-0  14]  51-[3  5]  11-[-0  11]  58-[5  12]  40-[-0  2]  34-[2  12]  13-[8  16]  54-[5  13]  4-[6  14] -> 9
ACCURACY on training set 19.6	

TEST ACCURACY 1.82464	
