best on training set at iteration 0:  74	
best on training set at iteration 100:  78	
best on training set at iteration 200:  80	
best on training set at iteration 300:  81	
best on training set at iteration 400:  82	
best on training set at iteration 500:  83	
best on training set at iteration 600:  83	
best on training set at iteration 700:  83	
best on training set at iteration 800:  83	
best on training set at iteration 900:  84	
best on training set at iteration 1000:  84	
best on training set at iteration 1100:  84	
best on training set at iteration 1200:  84	
best on training set at iteration 1300:  84	
best on training set at iteration 1400:  84	
best on training set at iteration 1500:  84	
best on training set at iteration 1600:  85	
best on training set at iteration 1700:  85	
best on training set at iteration 1800:  85	
best on training set at iteration 1900:  85	
best on training set at iteration 2000:  85	
best on training set at iteration 2100:  85	
best on training set at iteration 2200:  85	
best on training set at iteration 2300:  85	
best on training set at iteration 2400:  85	
best on training set at iteration 2500:  85	
best on training set at iteration 2600:  85	
best on training set at iteration 2700:  85	
best on training set at iteration 2800:  85	
best on training set at iteration 2900:  85	
best on training set at iteration 3000:  85	
best on training set at iteration 3100:  85	
best on training set at iteration 3200:  85	
best on training set at iteration 3300:  85	
best on training set at iteration 3400:  85	
best on training set at iteration 3500:  85	
best on training set at iteration 3600:  85	
best on training set at iteration 3700:  85	
best on training set at iteration 3800:  85	
best on training set at iteration 3900:  85	
best on training set at iteration 4000:  85	
best on training set at iteration 4100:  85	
best on training set at iteration 4200:  85	
best on training set at iteration 4300:  85	
best on training set at iteration 4400:  85	
best on training set at iteration 4500:  85	
best on training set at iteration 4600:  85	
best on training set at iteration 4700:  85	
best on training set at iteration 4800:  85	
best on training set at iteration 4900:  85	
best on training set at iteration 5000:  85	
best on training set at iteration 5100:  85	
best on training set at iteration 5200:  85	
best on training set at iteration 5300:  85	
best on training set at iteration 5400:  86	
best on training set at iteration 5500:  86	
best on training set at iteration 5600:  86	
best on training set at iteration 5700:  86	
best on training set at iteration 5800:  86	
best on training set at iteration 5900:  86	
best on training set at iteration 6000:  86	
best on training set at iteration 6100:  86	
best on training set at iteration 6200:  86	
best on training set at iteration 6300:  86	
best on training set at iteration 6400:  86	
best on training set at iteration 6500:  86	
best on training set at iteration 6600:  86	
best on training set at iteration 6700:  86	
best on training set at iteration 6800:  86	
best on training set at iteration 6900:  86	
best on training set at iteration 7000:  87	
best on training set at iteration 7100:  87	
best on training set at iteration 7200:  87	
best on training set at iteration 7300:  87	
best on training set at iteration 7400:  87	
best on training set at iteration 7500:  87	
best on training set at iteration 7600:  87	
best on training set at iteration 7700:  87	
best on training set at iteration 7800:  87	
best on training set at iteration 7900:  87	
best on training set at iteration 8000:  87	
best on training set at iteration 8100:  87	
best on training set at iteration 8200:  87	
best on training set at iteration 8300:  87	
best on training set at iteration 8400:  87	
best on training set at iteration 8500:  87	
best on training set at iteration 8600:  87	
best on training set at iteration 8700:  87	
best on training set at iteration 8800:  87	
best on training set at iteration 8900:  87	
best on training set at iteration 9000:  87	
best on training set at iteration 9100:  87	
best on training set at iteration 9200:  87	
best on training set at iteration 9300:  87	
best on training set at iteration 9400:  87	
best on training set at iteration 9500:  87	
best on training set at iteration 9600:  87	
best on training set at iteration 9700:  87	
best on training set at iteration 9800:  87	
best on training set at iteration 9900:  87	

 3-[5  16] -> 0
 40-[-0  7] -> 0
 18-[15  16] -> 0
 27-[-0  10] -> 0
 27-[-0  2] -> 0
 19-[-0  14] -> 0
 42-[10  16] -> 0
 34-[11  16] -> 0
 32-[-0  2] -> 0
 57-[-0  3] -> 0
 49-[-0  10] -> 0
 36-[-0  10] -> 0
 1-[-0  2] -> 0
 46-[6  14] -> 0
 17-[5  13] -> 0
 11-[8  16] -> 0
 1-[-0  2] -> 0
 40-[-0  10] -> 0
 20-[-0  4] -> 0
 12-[2  13] -> 0
 17-[-0  12] -> 0
 21-[1  16] -> 0
 51-[3  15] -> 0
 60-[7  16] -> 0
 32-[-0  11] -> 0
 37-[1  11] -> 0
 1-[-0  14] -> 0
 8-[-0  16] -> 0
 55-[-0  4] -> 0
 14-[-0  4] -> 0
 54-[1  13] -> 0
 28-[-0  14] -> 0
 9-[1  10] -> 0
 50-[4  15] -> 0
 6-[-0  4] -> 0
 18-[12  16] -> 0
 51-[8  15] -> 0
 38-[4  16] -> 0
 42-[8  15] -> 0
 13-[8  13] -> 0
 53-[-0  7] -> 0
 22-[1  8] -> 0
 24-[-0  1] -> 0
 57-[-0  15] -> 0
 23-[-0  6] -> 0
 55-[-0  2] -> 0
 21-[2  15] -> 0
 57-[-0  11] -> 0
 52-[3  15] -> 0
 19-[6  16] -> 1
 44-[11  16] -> 1
 15-[-0  16] -> 1
 12-[8  16] -> 1
 12-[2  12] -> 1
 37-[2  13] -> 1
 33-[1  13] -> 1
 40-[-0  5] -> 1
 51-[2  10] -> 1
 5-[8  14] -> 1
 1-[-0  16] -> 1
 38-[-0  3] -> 1
 4-[5  13] -> 1
 34-[4  16] -> 1
 58-[1  11] -> 1
 17-[-0  1] -> 1
 20-[14  16] -> 1
 33-[4  11] -> 1
 14-[0  15] -> 1
 36-[14  16] -> 1
 18-[10  15] -> 1
 55-[-0  11] -> 1
 23-[-0  12] -> 1
 63-[-0  7] -> 1
 17-[1  6] -> 1
 15-[-0  7] -> 1
 16-[-0  9] -> 1
 35-[2  9] -> 1
 34-[-0  8] -> 1
 7-[-0  9] -> 1
 22-[-0  15] -> 1
 5-[2  16] -> 1
 63-[-0  12] -> 1
 21-[7  15] -> 1
 5-[2  9] -> 1
 44-[2  16] -> 1
 14-[-0  2] -> 1
 38-[-0  1] -> 1
 38-[-0  2] -> 1
 48-[-0  8] -> 1
 8-[-0  7] -> 1
 46-[-0  3] -> 1
 36-[9  16] -> 1
 31-[-0  4] -> 1
 28-[2  16] -> 1
 55-[-0  2] -> 1
 26-[1  13] -> 1
 14-[-0  13] -> 1
 25-[-0  3] -> 1
 44-[11  16] -> 2
 49-[-0  5] -> 2
 36-[9  14] -> 2
 63-[5  14] -> 2
 28-[8  16] -> 2
 34-[-0  9] -> 2
 35-[2  11] -> 2
 24-[-0  11] -> 2
 10-[15  16] -> 2
 33-[-0  3] -> 2
 23-[-0  10] -> 2
 34-[-0  9] -> 2
 46-[-0  5] -> 2
 62-[6  16] -> 2
 13-[7  15] -> 2
 56-[-0  9] -> 2
 19-[-0  -0] -> 2
 59-[4  16] -> 2
 10-[4  16] -> 2
 14-[-0  5] -> 2
 35-[12  15] -> 2
 31-[-0  13] -> 2
 30-[-0  4] -> 2
 25-[-0  11] -> 2
 43-[6  11] -> 2
 17-[5  15] -> 2
 37-[0  13] -> 2
 11-[12  16] -> 2
 29-[7  16] -> 2
 39-[-0  12] -> 2
 38-[-0  4] -> 2
 25-[1  6] -> 2
 24-[-0  14] -> 2
 46-[-0  8] -> 2
 16-[-0  6] -> 2
 31-[-0  2] -> 2
 26-[-0  15] -> 2
 27-[-0  8] -> 2
 57-[-0  12] -> 2
 36-[8  16] -> 2
 63-[1  11] -> 2
 5-[-0  16] -> 2
 1-[0  8] -> 2
 56-[-0  5] -> 2
 13-[1  6] -> 2
 12-[10  15] -> 2
 13-[-0  13] -> 2
 58-[1  3] -> 2
 34-[-0  9] -> 2
 18-[-0  12] -> 3
 60-[10  16] -> 3
 4-[13  16] -> 3
 29-[3  10] -> 3
 4-[11  16] -> 3
 6-[-0  9] -> 3
 44-[-0  6] -> 3
 3-[5  10] -> 3
 27-[1  16] -> 3
 38-[-0  9] -> 3
 54-[6  15] -> 3
 49-[-0  4] -> 3
 9-[-0  4] -> 3
 33-[-0  12] -> 3
 10-[5  15] -> 3
 49-[4  14] -> 3
 53-[10  16] -> 3
 1-[-0  14] -> 3
 51-[2  12] -> 3
 25-[-0  4] -> 3
 40-[-0  16] -> 3
 21-[3  16] -> 3
 26-[-0  16] -> 3
 43-[0  3] -> 3
 2-[4  9] -> 3
 13-[3  16] -> 3
 45-[6  15] -> 3
 55-[-0  4] -> 3
 49-[-0  5] -> 3
 16-[-0  6] -> 3
 22-[-0  1] -> 3
 49-[-0  9] -> 3
 39-[-0  7] -> 3
 41-[-0  10] -> 3
 31-[-0  13] -> 3
 48-[-0  2] -> 3
 33-[-0  10] -> 3
 45-[5  16] -> 3
 18-[-0  16] -> 3
 50-[9  14] -> 3
 47-[-0  10] -> 3
 35-[10  16] -> 3
 60-[1  5] -> 3
 41-[-0  7] -> 3
 49-[1  11] -> 3
 5-[2  16] -> 3
 41-[-0  4] -> 3
 10-[1  16] -> 3
 32-[-0  7] -> 3
 3-[1  4] -> 4
 41-[1  6] -> 4
 12-[4  16] -> 4
 56-[-0  12] -> 4
 62-[-0  3] -> 4
 55-[-0  1] -> 4
 59-[2  5] -> 4
 47-[-0  3] -> 4
 47-[-0  10] -> 4
 63-[-0  1] -> 4
 45-[3  16] -> 4
 24-[-0  6] -> 4
 45-[13  16] -> 4
 14-[6  12] -> 4
 33-[6  15] -> 4
 31-[-0  3] -> 4
 23-[-0  5] -> 4
 43-[2  16] -> 4
 26-[2  16] -> 4
 14-[2  13] -> 4
 41-[-0  15] -> 4
 43-[13  16] -> 4
 31-[-0  15] -> 4
 53-[10  15] -> 4
 44-[5  13] -> 4
 55-[-0  13] -> 4
 28-[0  15] -> 4
 58-[-0  7] -> 4
 2-[-0  12] -> 4
 13-[1  10] -> 4
 4-[10  13] -> 4
 53-[0  14] -> 4
 45-[5  16] -> 4
 16-[-0  8] -> 4
 48-[-0  6] -> 4
 24-[-0  4] -> 4
 5-[2  15] -> 4
 55-[-0  10] -> 4
 47-[-0  15] -> 4
 48-[-0  10] -> 4
 16-[-0  3] -> 4
 43-[-0  13] -> 4
 25-[3  5] -> 4
 12-[12  15] -> 4
 16-[-0  3] -> 4
 11-[5  15] -> 4
 60-[7  16] -> 4
 45-[4  14] -> 4
 53-[10  16] -> 4
 45-[6  16] -> 5
 23-[-0  2] -> 5
 12-[8  14] -> 5
 2-[5  15] -> 5
 16-[-0  13] -> 5
 33-[-0  6] -> 5
 45-[8  14] -> 5
 9-[-0  7] -> 5
 38-[2  7] -> 5
 25-[2  12] -> 5
 20-[2  8] -> 5
 41-[-0  14] -> 5
 48-[-0  1] -> 5
 16-[-0  12] -> 5
 19-[10  13] -> 5
 6-[1  13] -> 5
 20-[6  15] -> 5
 50-[0  13] -> 5
 55-[-0  15] -> 5
 32-[-0  9] -> 5
 12-[1  9] -> 5
 10-[3  16] -> 5
 54-[-0  15] -> 5
 51-[4  11] -> 5
 56-[-0  15] -> 5
 48-[-0  14] -> 5
 51-[4  9] -> 5
 50-[1  12] -> 5
 59-[8  15] -> 5
 44-[1  16] -> 5
 21-[-0  16] -> 5
 26-[8  14] -> 5
 58-[3  6] -> 5
 48-[-0  9] -> 5
 21-[-0  14] -> 5
 49-[-0  4] -> 5
 13-[0  15] -> 5
 54-[-0  4] -> 5
 17-[1  10] -> 5
 38-[6  10] -> 5
 63-[-0  11] -> 5
 44-[1  10] -> 5
 24-[-0  2] -> 5
 45-[5  14] -> 5
 19-[10  16] -> 5
 31-[-0  13] -> 5
 11-[12  16] -> 5
 5-[13  15] -> 5
 24-[-0  16] -> 5
 33-[4  9] -> 6
 23-[-0  5] -> 6
 17-[-0  10] -> 6
 35-[3  16] -> 6
 28-[4  14] -> 6
 15-[-0  10] -> 6
 58-[0  5] -> 6
 51-[8  14] -> 6
 51-[1  15] -> 6
 49-[-0  11] -> 6
 42-[2  16] -> 6
 62-[1  14] -> 6
 21-[-0  4] -> 6
 20-[-0  6] -> 6
 54-[3  15] -> 6
 36-[2  16] -> 6
 9-[-0  16] -> 6
 51-[1  12] -> 6
 51-[5  13] -> 6
 46-[5  16] -> 6
 10-[5  11] -> 6
 53-[10  16] -> 6
 26-[7  16] -> 6
 9-[-0  6] -> 6
 13-[-0  13] -> 6
 29-[1  8] -> 6
 49-[-0  16] -> 6
 26-[13  16] -> 6
 48-[-0  8] -> 6
 18-[9  15] -> 6
 36-[10  13] -> 6
 8-[-0  12] -> 6
 30-[-0  10] -> 6
 31-[-0  5] -> 6
 48-[-0  2] -> 6
 58-[1  13] -> 6
 23-[-0  11] -> 6
 55-[-0  6] -> 6
 40-[-0  14] -> 6
 12-[-0  12] -> 6
 16-[-0  7] -> 6
 26-[6  15] -> 6
 20-[-0  10] -> 6
 33-[1  4] -> 6
 40-[-0  13] -> 6
 39-[-0  8] -> 6
 31-[-0  12] -> 6
 6-[-0  11] -> 6
 22-[-0  6] -> 6
 6-[2  11] -> 7
 46-[-0  5] -> 7
 9-[0  9] -> 7
 18-[-0  8] -> 7
 45-[-0  6] -> 7
 29-[10  16] -> 7
 32-[-0  13] -> 7
 21-[4  16] -> 7
 47-[-0  4] -> 7
 38-[1  11] -> 7
 23-[-0  4] -> 7
 44-[2  12] -> 7
 45-[0  6] -> 7
 43-[1  15] -> 7
 35-[8  14] -> 7
 9-[0  2] -> 7
 38-[0  9] -> 7
 28-[10  15] -> 7
 3-[8  16] -> 7
 62-[-0  1] -> 7
 60-[-0  8] -> 7
 52-[2  16] -> 7
 12-[15  16] -> 7
 26-[7  16] -> 7
 14-[2  12] -> 7
 39-[-0  3] -> 7
 6-[-0  13] -> 7
 35-[6  15] -> 7
 1-[-0  12] -> 7
 25-[0  3] -> 7
 35-[12  16] -> 7
 48-[-0  16] -> 7
 47-[-0  13] -> 7
 35-[7  12] -> 7
 42-[-0  3] -> 7
 39-[-0  12] -> 7
 9-[-0  6] -> 7
 32-[-0  13] -> 7
 4-[2  16] -> 7
 16-[-0  9] -> 7
 29-[2  14] -> 7
 54-[-0  14] -> 7
 36-[10  16] -> 7
 27-[12  16] -> 7
 62-[-0  12] -> 7
 14-[-0  15] -> 7
 13-[15  16] -> 7
 8-[-0  7] -> 7
 34-[3  16] -> 7
 7-[-0  14] -> 8
 51-[8  14] -> 8
 1-[-0  15] -> 8
 57-[-0  9] -> 8
 43-[6  15] -> 8
 32-[-0  14] -> 8
 41-[-0  2] -> 8
 20-[1  11] -> 8
 18-[8  15] -> 8
 7-[-0  1] -> 8
 17-[2  11] -> 8
 34-[2  16] -> 8
 37-[4  13] -> 8
 52-[12  14] -> 8
 28-[3  16] -> 8
 53-[10  16] -> 8
 48-[-0  2] -> 8
 23-[-0  4] -> 8
 32-[-0  5] -> 8
 36-[-0  11] -> 8
 7-[-0  9] -> 8
 58-[1  9] -> 8
 54-[-0  16] -> 8
 10-[7  16] -> 8
 60-[11  16] -> 8
 15-[-0  13] -> 8
 41-[0  11] -> 8
 21-[9  16] -> 8
 19-[1  16] -> 8
 29-[5  10] -> 8
 28-[4  16] -> 8
 8-[-0  3] -> 8
 55-[-0  9] -> 8
 29-[5  11] -> 8
 6-[2  7] -> 8
 56-[-0  4] -> 8
 19-[2  16] -> 8
 34-[4  16] -> 8
 21-[1  15] -> 8
 8-[-0  -0] -> 8
 23-[-0  9] -> 8
 14-[-0  10] -> 8
 22-[5  8] -> 8
 28-[11  16] -> 8
 19-[5  10] -> 8
 40-[-0  3] -> 8
 13-[2  16] -> 8
 8-[-0  7] -> 8
 52-[3  11] -> 8
 6-[3  13] -> 9
 28-[12  16] -> 9
 53-[6  15] -> 9
 14-[4  10] -> 9
 41-[-0  1] -> 9
 14-[1  7] -> 9
 58-[5  15] -> 9
 29-[10  16] -> 9
 60-[3  16] -> 9
 54-[-0  2] -> 9
 45-[4  6] -> 9
 40-[-0  5] -> 9
 58-[-0  6] -> 9
 3-[3  8] -> 9
 55-[-0  12] -> 9
 28-[13  16] -> 9
 48-[-0  9] -> 9
 2-[1  15] -> 9
 2-[0  6] -> 9
 18-[9  15] -> 9
 27-[9  16] -> 9
 16-[-0  2] -> 9
 45-[4  14] -> 9
 40-[-0  11] -> 9
 35-[3  10] -> 9
 27-[9  16] -> 9
 6-[5  14] -> 9
 34-[5  13] -> 9
 8-[-0  10] -> 9
 29-[1  16] -> 9
 43-[-0  4] -> 9
 46-[-0  15] -> 9
 11-[6  16] -> 9
 9-[1  10] -> 9
 34-[7  16] -> 9
 41-[-0  10] -> 9
 3-[-0  12] -> 9
 56-[-0  11] -> 9
 28-[10  16] -> 9
 46-[2  14] -> 9
 10-[2  9] -> 9
 21-[2  15] -> 9
 22-[-0  13] -> 9
 32-[-0  12] -> 9
 45-[-0  1] -> 9
 32-[-0  13] -> 9
 5-[13  16] -> 9
 25-[1  12] -> 9
 50-[-0  10] -> 9
ACCURACY on training set 87	

TEST ACCURACY 50.6836	
