best on training set at iteration 0:  47	
best on training set at iteration 100:  54	
best on training set at iteration 200:  57	
best on training set at iteration 300:  59	
best on training set at iteration 400:  62	
best on training set at iteration 500:  64	
best on training set at iteration 600:  64	
best on training set at iteration 700:  67	
best on training set at iteration 800:  68	
best on training set at iteration 900:  69	
best on training set at iteration 1000:  70	
best on training set at iteration 1100:  71	
best on training set at iteration 1200:  71	
best on training set at iteration 1300:  71	
best on training set at iteration 1400:  72	
best on training set at iteration 1500:  72	
best on training set at iteration 1600:  74	
best on training set at iteration 1700:  75	
best on training set at iteration 1800:  75	
best on training set at iteration 1900:  75	
best on training set at iteration 2000:  75	
best on training set at iteration 2100:  75	
best on training set at iteration 2200:  75	
best on training set at iteration 2300:  76	
best on training set at iteration 2400:  76	
best on training set at iteration 2500:  76	
best on training set at iteration 2600:  76	
best on training set at iteration 2700:  76	
best on training set at iteration 2800:  76	
best on training set at iteration 2900:  76	
best on training set at iteration 3000:  76	
best on training set at iteration 3100:  77	
best on training set at iteration 3200:  77	
best on training set at iteration 3300:  78	
best on training set at iteration 3400:  78	
best on training set at iteration 3500:  78	
best on training set at iteration 3600:  78	
best on training set at iteration 3700:  78	
best on training set at iteration 3800:  78	
best on training set at iteration 3900:  78	
best on training set at iteration 4000:  81	
best on training set at iteration 4100:  81	
best on training set at iteration 4200:  81	
best on training set at iteration 4300:  81	
best on training set at iteration 4400:  81	
best on training set at iteration 4500:  81	
best on training set at iteration 4600:  81	
best on training set at iteration 4700:  81	
best on training set at iteration 4800:  81	
best on training set at iteration 4900:  81	
best on training set at iteration 5000:  81	
best on training set at iteration 5100:  82	
best on training set at iteration 5200:  84	
best on training set at iteration 5300:  84	
best on training set at iteration 5400:  84	
best on training set at iteration 5500:  84	
best on training set at iteration 5600:  84	
best on training set at iteration 5700:  84	
best on training set at iteration 5800:  84	
best on training set at iteration 5900:  84	
best on training set at iteration 6000:  84	
best on training set at iteration 6100:  84	
best on training set at iteration 6200:  84	
best on training set at iteration 6300:  84	
best on training set at iteration 6400:  84	
best on training set at iteration 6500:  84	
best on training set at iteration 6600:  84	
best on training set at iteration 6700:  84	
best on training set at iteration 6800:  84	
best on training set at iteration 6900:  84	
best on training set at iteration 7000:  84	
best on training set at iteration 7100:  84	
best on training set at iteration 7200:  84	
best on training set at iteration 7300:  84	
best on training set at iteration 7400:  84	
best on training set at iteration 7500:  84	
best on training set at iteration 7600:  84	
best on training set at iteration 7700:  84	
best on training set at iteration 7800:  84	
best on training set at iteration 7900:  84	
best on training set at iteration 8000:  84	
best on training set at iteration 8100:  84	
best on training set at iteration 8200:  84	
best on training set at iteration 8300:  84	
best on training set at iteration 8400:  84	
best on training set at iteration 8500:  84	
best on training set at iteration 8600:  84	
best on training set at iteration 8700:  84	
best on training set at iteration 8800:  84	
best on training set at iteration 8900:  84	
best on training set at iteration 9000:  84	
best on training set at iteration 9100:  84	
best on training set at iteration 9200:  84	
best on training set at iteration 9300:  84	
best on training set at iteration 9400:  84	
best on training set at iteration 9500:  84	
best on training set at iteration 9600:  84	
best on training set at iteration 9700:  84	
best on training set at iteration 9800:  84	
best on training set at iteration 9900:  84	

 19-[-0  10] -> 0
 2-[-0  12] -> 0
 12-[4  12] -> 0
 2-[7  13] -> 0
 46-[4  16] -> 0
 63-[-0  3] -> 0
 17-[4  13] -> 0
 38-[1  10] -> 0
 47-[-0  10] -> 0
 47-[-0  3] -> 0
 62-[-0  6] -> 0
 36-[-0  12] -> 0
 40-[-0  16] -> 0
 48-[-0  6] -> 0
 3-[5  14] -> 0
 61-[2  12] -> 0
 42-[11  16] -> 0
 2-[-0  5] -> 1
 25-[-0  15] -> 1
 10-[-0  5] -> 1
 40-[-0  12] -> 1
 61-[10  16] -> 1
 37-[4  12] -> 1
 22-[-0  7] -> 1
 30-[-0  6] -> 1
 43-[0  3] -> 1
 50-[-0  3] -> 1
 12-[12  16] -> 1
 2-[-0  1] -> 1
 18-[-0  16] -> 1
 8-[-0  4] -> 1
 51-[5  16] -> 1
 35-[3  13] -> 1
 32-[-0  10] -> 1
 19-[-0  6] -> 2
 12-[6  16] -> 2
 34-[-0  11] -> 2
 32-[-0  14] -> 2
 47-[-0  1] -> 2
 22-[-0  6] -> 2
 24-[-0  12] -> 2
 40-[-0  4] -> 2
 55-[-0  4] -> 2
 1-[-0  2] -> 2
 62-[7  12] -> 2
 11-[3  13] -> 2
 61-[6  16] -> 2
 44-[10  16] -> 2
 54-[2  9] -> 2
 14-[-0  13] -> 2
 5-[-0  2] -> 2
 2-[2  10] -> 3
 26-[-0  14] -> 3
 62-[-0  6] -> 3
 48-[-0  12] -> 3
 56-[-0  4] -> 3
 23-[-0  5] -> 3
 18-[-0  13] -> 3
 46-[4  12] -> 3
 21-[6  15] -> 3
 26-[0  2] -> 3
 41-[-0  6] -> 3
 56-[-0  16] -> 3
 57-[-0  12] -> 3
 20-[6  11] -> 3
 53-[13  15] -> 3
 37-[4  16] -> 3
 50-[0  7] -> 3
 61-[-0  9] -> 4
 38-[3  8] -> 4
 47-[-0  1] -> 4
 19-[5  16] -> 4
 49-[-0  5] -> 4
 41-[-0  12] -> 4
 15-[-0  3] -> 4
 2-[-0  4] -> 4
 62-[-0  2] -> 4
 3-[-0  7] -> 4
 36-[3  16] -> 4
 6-[-0  8] -> 4
 59-[-0  16] -> 4
 35-[7  14] -> 4
 60-[8  16] -> 4
 30-[8  13] -> 4
 38-[1  14] -> 4
 10-[9  16] -> 5
 57-[-0  16] -> 5
 16-[-0  9] -> 5
 24-[-0  8] -> 5
 22-[-0  9] -> 5
 20-[13  16] -> 5
 3-[6  16] -> 5
 50-[1  16] -> 5
 15-[-0  16] -> 5
 15-[-0  5] -> 5
 46-[-0  1] -> 5
 38-[-0  6] -> 5
 51-[3  8] -> 5
 6-[2  12] -> 5
 45-[9  14] -> 5
 13-[0  14] -> 5
 38-[7  12] -> 5
 34-[2  16] -> 6
 54-[1  16] -> 6
 34-[9  16] -> 6
 12-[-0  15] -> 6
 41-[0  11] -> 6
 48-[-0  15] -> 6
 16-[-0  7] -> 6
 33-[1  12] -> 6
 61-[7  15] -> 6
 30-[-0  9] -> 6
 35-[2  8] -> 6
 21-[-0  11] -> 6
 30-[-0  5] -> 6
 50-[4  14] -> 6
 60-[8  15] -> 6
 1-[-0  6] -> 6
 29-[-0  1] -> 6
 17-[-0  5] -> 7
 24-[-0  2] -> 7
 15-[-0  15] -> 7
 60-[-0  4] -> 7
 21-[2  16] -> 7
 61-[-0  3] -> 7
 17-[-0  9] -> 7
 44-[6  16] -> 7
 61-[-0  1] -> 7
 45-[-0  14] -> 7
 28-[1  15] -> 7
 42-[-0  15] -> 7
 3-[10  16] -> 7
 59-[6  10] -> 7
 25-[-0  5] -> 7
 48-[-0  8] -> 7
 18-[-0  5] -> 7
 17-[1  14] -> 8
 42-[8  16] -> 8
 28-[6  16] -> 8
 16-[-0  4] -> 8
 16-[-0  8] -> 8
 14-[1  14] -> 8
 10-[6  16] -> 8
 30-[-0  4] -> 8
 19-[3  13] -> 8
 4-[3  15] -> 8
 27-[3  16] -> 8
 3-[7  14] -> 8
 26-[4  16] -> 8
 48-[-0  13] -> 8
 5-[2  10] -> 8
 56-[-0  3] -> 8
 40-[-0  4] -> 8
 12-[5  15] -> 9
 3-[2  15] -> 9
 58-[-0  11] -> 9
 21-[2  16] -> 9
 31-[-0  6] -> 9
 32-[-0  2] -> 9
 8-[-0  4] -> 9
 9-[1  5] -> 9
 34-[2  5] -> 9
 25-[7  14] -> 9
 56-[-0  6] -> 9
 37-[4  16] -> 9
 47-[-0  9] -> 9
 43-[-0  7] -> 9
 39-[-0  1] -> 9
 29-[11  16] -> 9
 5-[13  16] -> 9
ACCURACY on training set 84	

TEST ACCURACY 45.0195	
