best on training set at iteration 0:  46	
best on training set at iteration 100:  52	
best on training set at iteration 200:  57	
best on training set at iteration 300:  62	
best on training set at iteration 400:  67	
best on training set at iteration 500:  67	
best on training set at iteration 600:  70	
best on training set at iteration 700:  72	
best on training set at iteration 800:  73	
best on training set at iteration 900:  73	
best on training set at iteration 1000:  74	
best on training set at iteration 1100:  74	
best on training set at iteration 1200:  74	
best on training set at iteration 1300:  74	
best on training set at iteration 1400:  74	
best on training set at iteration 1500:  74	
best on training set at iteration 1600:  74	
best on training set at iteration 1700:  74	
best on training set at iteration 1800:  74	
best on training set at iteration 1900:  74	
best on training set at iteration 2000:  74	
best on training set at iteration 2100:  74	
best on training set at iteration 2200:  74	
best on training set at iteration 2300:  74	
best on training set at iteration 2400:  74	
best on training set at iteration 2500:  74	
best on training set at iteration 2600:  74	
best on training set at iteration 2700:  74	
best on training set at iteration 2800:  74	
best on training set at iteration 2900:  74	
best on training set at iteration 3000:  74	
best on training set at iteration 3100:  74	
best on training set at iteration 3200:  74	
best on training set at iteration 3300:  74	
best on training set at iteration 3400:  74	
best on training set at iteration 3500:  74	
best on training set at iteration 3600:  74	
best on training set at iteration 3700:  74	
best on training set at iteration 3800:  74	
best on training set at iteration 3900:  74	
best on training set at iteration 4000:  74	
best on training set at iteration 4100:  74	
best on training set at iteration 4200:  74	
best on training set at iteration 4300:  74	
best on training set at iteration 4400:  74	
best on training set at iteration 4500:  74	
best on training set at iteration 4600:  74	
best on training set at iteration 4700:  74	
best on training set at iteration 4800:  74	
best on training set at iteration 4900:  74	
best on training set at iteration 5000:  74	
best on training set at iteration 5100:  74	
best on training set at iteration 5200:  74	
best on training set at iteration 5300:  74	
best on training set at iteration 5400:  74	
best on training set at iteration 5500:  74	
best on training set at iteration 5600:  74	
best on training set at iteration 5700:  74	
best on training set at iteration 5800:  74	
best on training set at iteration 5900:  74	
best on training set at iteration 6000:  75	
best on training set at iteration 6100:  75	
best on training set at iteration 6200:  75	
best on training set at iteration 6300:  75	
best on training set at iteration 6400:  75	
best on training set at iteration 6500:  75	
best on training set at iteration 6600:  75	
best on training set at iteration 6700:  75	
best on training set at iteration 6800:  75	
best on training set at iteration 6900:  75	
best on training set at iteration 7000:  75	
best on training set at iteration 7100:  75	
best on training set at iteration 7200:  75	
best on training set at iteration 7300:  75	
best on training set at iteration 7400:  75	
best on training set at iteration 7500:  75	
best on training set at iteration 7600:  75	
best on training set at iteration 7700:  75	
best on training set at iteration 7800:  75	
best on training set at iteration 7900:  75	
best on training set at iteration 8000:  75	
best on training set at iteration 8100:  75	
best on training set at iteration 8200:  75	
best on training set at iteration 8300:  75	
best on training set at iteration 8400:  75	
best on training set at iteration 8500:  75	
best on training set at iteration 8600:  75	
best on training set at iteration 8700:  75	
best on training set at iteration 8800:  75	
best on training set at iteration 8900:  75	
best on training set at iteration 9000:  75	
best on training set at iteration 9100:  75	
best on training set at iteration 9200:  75	
best on training set at iteration 9300:  75	
best on training set at iteration 9400:  75	
best on training set at iteration 9500:  75	
best on training set at iteration 9600:  75	
best on training set at iteration 9700:  75	
best on training set at iteration 9800:  75	
best on training set at iteration 9900:  75	

 45-[9  16] -> 0
 25-[3  12] -> 0
 7-[-0  4] -> 0
 13-[3  14] -> 0
 21-[1  14] -> 0
 25-[4  8] -> 0
 42-[7  16] -> 0
 39-[-0  14] -> 0
 10-[6  16] -> 0
 48-[-0  12] -> 0
 48-[-0  7] -> 0
 59-[7  16] -> 0
 17-[2  16] -> 0
 28-[-0  3] -> 0
 22-[1  13] -> 0
 10-[13  16] -> 0
 53-[3  9] -> 0
 28-[-0  9] -> 0
 40-[-0  14] -> 0
 59-[6  16] -> 0
 37-[5  16] -> 1
 51-[2  11] -> 1
 6-[1  9] -> 1
 44-[1  16] -> 1
 40-[-0  7] -> 1
 17-[-0  10] -> 1
 53-[6  16] -> 1
 46-[-0  13] -> 1
 54-[-0  9] -> 1
 41-[-0  10] -> 1
 11-[-0  11] -> 1
 3-[3  5] -> 1
 29-[6  15] -> 1
 36-[3  16] -> 1
 23-[-0  16] -> 1
 15-[-0  10] -> 1
 25-[-0  2] -> 1
 33-[2  4] -> 1
 61-[12  16] -> 1
 20-[9  16] -> 1
 55-[-0  12] -> 2
 53-[5  9] -> 2
 7-[-0  4] -> 2
 6-[-0  4] -> 2
 16-[-0  7] -> 2
 54-[1  13] -> 2
 53-[3  5] -> 2
 33-[-0  16] -> 2
 59-[11  16] -> 2
 1-[-0  15] -> 2
 56-[-0  11] -> 2
 46-[-0  13] -> 2
 47-[-0  8] -> 2
 14-[-0  1] -> 2
 22-[-0  1] -> 2
 45-[3  7] -> 2
 6-[-0  1] -> 2
 50-[1  12] -> 2
 26-[-0  5] -> 2
 42-[-0  7] -> 2
 13-[7  16] -> 3
 18-[0  3] -> 3
 53-[4  16] -> 3
 40-[-0  10] -> 3
 59-[2  13] -> 3
 15-[-0  16] -> 3
 9-[2  8] -> 3
 5-[3  6] -> 3
 27-[1  6] -> 3
 47-[-0  14] -> 3
 58-[14  16] -> 3
 20-[1  16] -> 3
 60-[1  16] -> 3
 23-[-0  5] -> 3
 63-[-0  3] -> 3
 8-[-0  3] -> 3
 3-[2  16] -> 3
 10-[7  16] -> 3
 27-[1  16] -> 3
 33-[-0  14] -> 3
 26-[7  16] -> 4
 55-[-0  3] -> 4
 38-[1  13] -> 4
 9-[-0  -0] -> 4
 30-[3  5] -> 4
 15-[-0  14] -> 4
 22-[1  16] -> 4
 24-[-0  10] -> 4
 10-[-0  1] -> 4
 47-[-0  13] -> 4
 60-[8  16] -> 4
 44-[5  16] -> 4
 56-[-0  12] -> 4
 62-[-0  11] -> 4
 28-[11  13] -> 4
 29-[4  15] -> 4
 11-[3  16] -> 4
 5-[4  10] -> 4
 29-[8  14] -> 4
 7-[-0  4] -> 4
 14-[0  2] -> 5
 40-[-0  11] -> 5
 52-[6  16] -> 5
 47-[-0  8] -> 5
 53-[3  13] -> 5
 24-[-0  6] -> 5
 32-[-0  5] -> 5
 54-[-0  9] -> 5
 49-[-0  9] -> 5
 27-[9  14] -> 5
 10-[7  16] -> 5
 11-[13  16] -> 5
 42-[-0  8] -> 5
 36-[3  10] -> 5
 8-[-0  6] -> 5
 8-[-0  1] -> 5
 4-[9  16] -> 5
 12-[1  8] -> 5
 25-[7  13] -> 5
 47-[-0  16] -> 5
 29-[0  13] -> 6
 19-[1  4] -> 6
 22-[-0  6] -> 6
 19-[1  12] -> 6
 59-[10  15] -> 6
 58-[1  10] -> 6
 62-[0  9] -> 6
 33-[2  10] -> 6
 34-[9  16] -> 6
 21-[-0  4] -> 6
 40-[-0  14] -> 6
 61-[9  13] -> 6
 39-[-0  8] -> 6
 48-[-0  10] -> 6
 31-[-0  13] -> 6
 22-[-0  7] -> 6
 43-[10  16] -> 6
 35-[9  14] -> 6
 19-[4  6] -> 6
 15-[-0  2] -> 6
 48-[-0  1] -> 7
 10-[4  14] -> 7
 21-[6  13] -> 7
 13-[4  16] -> 7
 21-[7  16] -> 7
 8-[-0  4] -> 7
 9-[-0  14] -> 7
 15-[-0  12] -> 7
 48-[-0  1] -> 7
 25-[3  13] -> 7
 32-[-0  8] -> 7
 24-[-0  10] -> 7
 25-[-0  2] -> 7
 33-[2  8] -> 7
 52-[-0  10] -> 7
 5-[3  16] -> 7
 44-[10  16] -> 7
 57-[-0  1] -> 7
 53-[-0  7] -> 7
 43-[11  16] -> 7
 21-[11  16] -> 8
 12-[3  9] -> 8
 8-[-0  7] -> 8
 44-[6  10] -> 8
 56-[-0  12] -> 8
 2-[3  7] -> 8
 6-[0  4] -> 8
 26-[12  16] -> 8
 49-[-0  13] -> 8
 4-[2  12] -> 8
 25-[2  4] -> 8
 55-[-0  4] -> 8
 42-[4  12] -> 8
 58-[2  8] -> 8
 50-[10  15] -> 8
 2-[6  11] -> 8
 59-[5  14] -> 8
 57-[-0  10] -> 8
 16-[-0  13] -> 8
 3-[7  13] -> 8
 18-[13  15] -> 9
 4-[3  11] -> 9
 38-[-0  6] -> 9
 58-[-0  8] -> 9
 47-[-0  9] -> 9
 1-[-0  12] -> 9
 14-[1  12] -> 9
 34-[1  15] -> 9
 20-[-0  2] -> 9
 25-[0  9] -> 9
 4-[4  16] -> 9
 20-[2  13] -> 9
 20-[-0  14] -> 9
 41-[-0  2] -> 9
 51-[1  9] -> 9
 32-[-0  15] -> 9
 14-[5  16] -> 9
 6-[5  15] -> 9
 31-[-0  11] -> 9
 48-[-0  11] -> 9
ACCURACY on training set 75	

TEST ACCURACY 38.3008	
